VOLTS,CURRNT_NAMP,TEMP_DEGC,AIR_TEMP_DEGC,RH_PRCNT
0.00E+00,-3.49E+01,2.00E+01,2.44E+01,0.00E+00
-1.00E+01,3.86E+01,2.00E+01,2.44E+01,0.00E+00
-2.00E+01,5.32E+01,2.00E+01,2.44E+01,0.00E+00
-3.00E+01,4.45E+01,2.00E+01,2.44E+01,0.00E+00
-4.00E+01,2.92E+01,2.00E+01,2.44E+01,0.00E+00
-5.00E+01,1.24E+01,2.00E+01,2.44E+01,0.00E+00
-6.00E+01,7.89E-01,2.00E+01,2.44E+01,0.00E+00
-7.00E+01,1.51E-02,2.00E+01,2.44E+01,0.00E+00
-8.00E+01,1.90E-03,2.00E+01,2.44E+01,0.00E+00
-9.00E+01,2.24E-03,2.00E+01,2.44E+01,0.00E+00
-1.00E+02,1.81E-03,2.00E+01,2.44E+01,0.00E+00
-1.10E+02,2.78E-03,2.00E+01,2.44E+01,0.00E+00
-1.20E+02,3.66E-03,2.00E+01,2.44E+01,0.00E+00
-1.30E+02,2.99E-03,2.00E+01,2.44E+01,0.00E+00
-1.40E+02,3.00E-03,2.00E+01,2.44E+01,0.00E+00
-1.50E+02,2.88E-03,2.00E+01,2.44E+01,0.00E+00
-1.60E+02,3.49E-03,2.00E+01,2.44E+01,0.00E+00
-1.70E+02,3.71E-03,2.00E+01,2.44E+01,0.00E+00
-1.80E+02,3.70E-03,2.00E+01,2.44E+01,0.00E+00
-1.90E+02,4.03E-03,2.00E+01,2.44E+01,0.00E+00
-2.00E+02,4.00E-03,2.00E+01,2.44E+01,0.00E+00
-2.10E+02,3.98E-03,2.00E+01,2.44E+01,0.00E+00
-2.20E+02,5.00E-03,2.00E+01,2.44E+01,0.00E+00
-2.30E+02,4.50E-03,2.00E+01,2.44E+01,0.00E+00
-2.40E+02,5.14E-03,2.00E+01,2.44E+01,0.00E+00
-2.50E+02,5.52E-03,2.00E+01,2.44E+01,0.00E+00
-2.60E+02,5.22E-03,2.00E+01,2.44E+01,0.00E+00
-2.70E+02,5.04E-03,2.00E+01,2.44E+01,0.00E+00
-2.80E+02,5.23E-03,2.00E+01,2.44E+01,0.00E+00
-2.90E+02,5.52E-03,2.00E+01,2.44E+01,0.00E+00
-3.00E+02,5.79E-03,2.00E+01,2.44E+01,0.00E+00
-3.10E+02,6.02E-03,2.00E+01,2.44E+01,0.00E+00
-3.20E+02,5.69E-03,2.00E+01,2.44E+01,0.00E+00
-3.30E+02,5.55E-03,2.00E+01,2.44E+01,0.00E+00
-3.40E+02,6.51E-03,2.00E+01,2.44E+01,0.00E+00
-3.50E+02,6.73E-03,2.00E+01,2.44E+01,0.00E+00
-3.60E+02,7.04E-03,2.00E+01,2.44E+01,0.00E+00
-3.70E+02,7.69E-03,2.00E+01,2.44E+01,0.00E+00
-3.80E+02,9.27E-03,2.00E+01,2.44E+01,0.00E+00
-3.90E+02,1.18E-02,2.00E+01,2.44E+01,0.00E+00
-4.00E+02,1.57E-02,2.00E+01,2.44E+01,0.00E+00
-4.10E+02,2.08E-02,2.00E+01,2.44E+01,0.00E+00
-4.20E+02,2.91E-02,2.00E+01,2.44E+01,0.00E+00
-4.30E+02,3.89E-02,2.00E+01,2.44E+01,0.00E+00
-4.40E+02,5.11E-02,2.00E+01,2.44E+01,0.00E+00
-4.50E+02,6.59E-02,2.00E+01,2.44E+01,0.00E+00
-4.60E+02,8.20E-02,2.00E+01,2.44E+01,0.00E+00
-4.70E+02,9.94E-02,2.00E+01,2.44E+01,0.00E+00
-4.80E+02,1.19E-01,2.00E+01,2.44E+01,0.00E+00
-4.90E+02,1.44E-01,2.00E+01,2.44E+01,0.00E+00
-5.00E+02,1.70E-01,2.00E+01,2.44E+01,0.00E+00
-5.10E+02,1.98E-01,2.00E+01,2.44E+01,0.00E+00
-5.20E+02,2.31E-01,2.00E+01,2.44E+01,0.00E+00
-5.30E+02,2.66E-01,2.00E+01,2.44E+01,0.00E+00
-5.40E+02,3.15E-01,2.00E+01,2.44E+01,0.00E+00
-5.50E+02,3.58E-01,2.00E+01,2.44E+01,0.00E+00
-5.60E+02,4.10E-01,2.00E+01,2.44E+01,0.00E+00
-5.70E+02,4.66E-01,2.00E+01,2.44E+01,0.00E+00
-5.80E+02,5.28E-01,2.00E+01,2.44E+01,0.00E+00
-5.90E+02,6.10E-01,2.00E+01,2.44E+01,0.00E+00
-6.00E+02,6.88E-01,2.00E+01,2.44E+01,0.00E+00
-6.10E+02,7.72E-01,2.00E+01,2.44E+01,0.00E+00
-6.20E+02,8.60E-01,2.00E+01,2.44E+01,0.00E+00
-6.30E+02,9.62E-01,2.00E+01,2.44E+01,0.00E+00
-6.40E+02,1.07E+00,2.00E+01,2.44E+01,0.00E+00
-6.50E+02,1.20E+00,2.00E+01,2.44E+01,0.00E+00
-6.60E+02,1.34E+00,2.00E+01,2.44E+01,0.00E+00
-6.70E+02,1.48E+00,2.00E+01,2.44E+01,0.00E+00
-6.80E+02,1.64E+00,2.00E+01,2.44E+01,0.00E+00
-6.90E+02,1.81E+00,2.00E+01,2.44E+01,0.00E+00
-7.00E+02,1.98E+00,2.00E+01,2.44E+01,0.00E+00
-7.10E+02,2.18E+00,2.00E+01,2.44E+01,0.00E+00
-7.20E+02,2.36E+00,2.00E+01,2.44E+01,0.00E+00
-7.30E+02,2.57E+00,2.00E+01,2.44E+01,0.00E+00
-7.40E+02,2.80E+00,2.00E+01,2.44E+01,0.00E+00
-7.50E+02,3.05E+00,2.00E+01,2.44E+01,0.00E+00
-7.60E+02,3.29E+00,2.00E+01,2.44E+01,0.00E+00
-7.70E+02,3.57E+00,2.00E+01,2.44E+01,0.00E+00
-7.80E+02,3.88E+00,2.00E+01,2.44E+01,0.00E+00
-7.90E+02,4.19E+00,2.00E+01,2.44E+01,0.00E+00
-8.00E+02,4.49E+00,2.00E+01,2.44E+01,0.00E+00
-8.10E+02,4.82E+00,2.00E+01,2.44E+01,0.00E+00
-8.20E+02,5.21E+00,2.00E+01,2.44E+01,0.00E+00
-8.30E+02,5.60E+00,2.00E+01,2.44E+01,0.00E+00
-8.40E+02,5.97E+00,2.00E+01,2.44E+01,0.00E+00
-8.50E+02,6.44E+00,2.00E+01,2.44E+01,0.00E+00
-8.60E+02,6.91E+00,2.00E+01,2.44E+01,0.00E+00
-8.70E+02,7.41E+00,2.00E+01,2.44E+01,0.00E+00
-8.80E+02,7.89E+00,2.00E+01,2.44E+01,0.00E+00
-8.90E+02,8.49E+00,2.00E+01,2.44E+01,0.00E+00
-9.00E+02,9.11E+00,2.00E+01,2.44E+01,0.00E+00
-9.10E+02,9.82E+00,2.00E+01,2.44E+01,0.00E+00
-9.20E+02,1.06E+01,2.00E+01,2.44E+01,0.00E+00
-9.30E+02,1.14E+01,2.00E+01,2.44E+01,0.00E+00
-9.40E+02,1.23E+01,2.00E+01,2.44E+01,0.00E+00
-9.50E+02,1.33E+01,2.00E+01,2.44E+01,0.00E+00
-9.60E+02,1.44E+01,2.00E+01,2.44E+01,0.00E+00
-9.70E+02,1.56E+01,2.00E+01,2.44E+01,0.00E+00
-9.80E+02,1.70E+01,2.00E+01,2.44E+01,0.00E+00
-9.90E+02,1.85E+01,2.00E+01,2.44E+01,0.00E+00
-1.00E+03,2.01E+01,2.00E+01,2.44E+01,0.00E+00
