﻿VOLTS,CURRNT_NAMP,TEMP_DEGC,AIR_TEMP_DEGC,RH_PRCNT
-1.31E-01,-1.00E+06,2.00E+01,2.45E+01,0.00E+00
-1.24E-01,-9.50E+05,2.00E+01,2.45E+01,0.00E+00
-1.18E-01,-9.00E+05,2.00E+01,2.45E+01,0.00E+00
-1.11E-01,-8.50E+05,2.00E+01,2.45E+01,0.00E+00
-1.05E-01,-8.00E+05,2.00E+01,2.45E+01,0.00E+00
-9.81E-02,-7.50E+05,2.00E+01,2.45E+01,0.00E+00
-9.16E-02,-7.00E+05,2.00E+01,2.45E+01,0.00E+00
-8.50E-02,-6.50E+05,2.00E+01,2.45E+01,0.00E+00
-7.85E-02,-6.00E+05,2.00E+01,2.45E+01,0.00E+00
-7.20E-02,-5.50E+05,2.00E+01,2.45E+01,0.00E+00
-6.54E-02,-5.00E+05,2.00E+01,2.45E+01,0.00E+00
-5.89E-02,-4.50E+05,2.00E+01,2.45E+01,0.00E+00
-5.23E-02,-4.00E+05,2.00E+01,2.45E+01,0.00E+00
-4.58E-02,-3.50E+05,2.00E+01,2.45E+01,0.00E+00
-3.92E-02,-3.00E+05,2.00E+01,2.45E+01,0.00E+00
-3.27E-02,-2.50E+05,2.00E+01,2.44E+01,0.00E+00
-2.62E-02,-2.00E+05,2.00E+01,2.45E+01,0.00E+00
-1.96E-02,-1.50E+05,2.00E+01,2.45E+01,0.00E+00
-1.31E-02,-1.00E+05,2.00E+01,2.45E+01,0.00E+00
-6.52E-03,-5.00E+04,2.00E+01,2.45E+01,0.00E+00
3.00E-05,0.00E+00,2.00E+01,2.45E+01,0.00E+00
6.60E-03,5.00E+04,2.00E+01,2.45E+01,0.00E+00
1.32E-02,1.00E+05,2.00E+01,2.45E+01,0.00E+00
1.97E-02,1.50E+05,2.00E+01,2.45E+01,0.00E+00
2.62E-02,2.00E+05,2.00E+01,2.44E+01,0.00E+00
3.28E-02,2.50E+05,2.00E+01,2.45E+01,0.00E+00
3.93E-02,3.00E+05,2.00E+01,2.45E+01,0.00E+00
4.58E-02,3.50E+05,2.00E+01,2.45E+01,0.00E+00
5.24E-02,4.00E+05,2.00E+01,2.45E+01,0.00E+00
5.89E-02,4.50E+05,2.00E+01,2.45E+01,0.00E+00
6.55E-02,5.00E+05,2.00E+01,2.45E+01,0.00E+00
7.20E-02,5.50E+05,2.00E+01,2.45E+01,0.00E+00
7.86E-02,6.00E+05,2.00E+01,2.45E+01,0.00E+00
8.51E-02,6.50E+05,2.00E+01,2.44E+01,0.00E+00
9.17E-02,7.00E+05,2.00E+01,2.45E+01,0.00E+00
9.82E-02,7.50E+05,2.00E+01,2.45E+01,0.00E+00
1.05E-01,8.00E+05,2.00E+01,2.45E+01,0.00E+00
1.11E-01,8.50E+05,2.00E+01,2.44E+01,0.00E+00
1.18E-01,9.00E+05,2.00E+01,2.45E+01,0.00E+00
1.24E-01,9.50E+05,2.00E+01,2.45E+01,0.00E+00
1.31E-01,1.00E+06,2.00E+01,2.45E+01,0.00E+00
