VOLTS,CURRNT_NAMP,TEMP_DEGC,AIR_TEMP_DEGC,RH_PRCNT
-1.00E-01,-5.90E+01,2.00E+01,2.44E+01,0.00E+00
-7.50E-02,-4.42E+01,2.00E+01,2.44E+01,0.00E+00
-5.00E-02,-2.94E+01,2.00E+01,2.44E+01,0.00E+00
-2.50E-02,-1.46E+01,2.00E+01,2.44E+01,0.00E+00
0.00E+00,-2.41E-01,2.00E+01,2.44E+01,0.00E+00
2.50E-02,1.45E+01,2.00E+01,2.44E+01,0.00E+00
5.00E-02,2.93E+01,2.00E+01,2.44E+01,0.00E+00
7.50E-02,4.41E+01,2.00E+01,2.44E+01,0.00E+00
1.00E-01,5.89E+01,2.00E+01,2.44E+01,0.00E+00
