﻿VOLTS,CURRNT_NAMP,TEMP_DEGC,AIR_TEMP_DEGC,RH_PRCNT
-4.73E-02,-1.00E+04,2.00E+01,2.45E+01,0.00E+00
-4.50E-02,-9.50E+03,2.00E+01,2.45E+01,0.00E+00
-4.26E-02,-9.00E+03,2.00E+01,2.45E+01,0.00E+00
-4.02E-02,-8.50E+03,2.00E+01,2.45E+01,0.00E+00
-3.79E-02,-8.00E+03,2.00E+01,2.45E+01,0.00E+00
-3.55E-02,-7.50E+03,2.00E+01,2.45E+01,0.00E+00
-3.31E-02,-7.00E+03,2.00E+01,2.45E+01,0.00E+00
-3.08E-02,-6.50E+03,2.00E+01,2.45E+01,0.00E+00
-2.84E-02,-6.00E+03,2.00E+01,2.45E+01,0.00E+00
-2.60E-02,-5.50E+03,2.00E+01,2.45E+01,0.00E+00
-2.37E-02,-5.00E+03,2.00E+01,2.45E+01,0.00E+00
-2.13E-02,-4.50E+03,2.00E+01,2.45E+01,0.00E+00
-1.89E-02,-4.00E+03,2.00E+01,2.45E+01,0.00E+00
-1.66E-02,-3.50E+03,2.00E+01,2.45E+01,0.00E+00
-1.42E-02,-3.00E+03,2.00E+01,2.45E+01,0.00E+00
-1.18E-02,-2.50E+03,2.00E+01,2.45E+01,0.00E+00
-9.46E-03,-2.00E+03,2.00E+01,2.45E+01,0.00E+00
-7.10E-03,-1.50E+03,2.00E+01,2.45E+01,0.00E+00
-4.75E-03,-1.00E+03,2.00E+01,2.45E+01,0.00E+00
-2.37E-03,-5.00E+02,2.00E+01,2.45E+01,0.00E+00
0.00E+00,-1.69E-12,2.00E+01,2.45E+01,0.00E+00
2.40E-03,5.00E+02,2.00E+01,2.45E+01,0.00E+00
4.80E-03,1.00E+03,2.00E+01,2.45E+01,0.00E+00
7.11E-03,1.50E+03,2.00E+01,2.45E+01,0.00E+00
9.48E-03,2.00E+03,2.00E+01,2.45E+01,0.00E+00
1.19E-02,2.50E+03,2.00E+01,2.45E+01,0.00E+00
1.42E-02,3.00E+03,2.00E+01,2.45E+01,0.00E+00
1.66E-02,3.50E+03,2.00E+01,2.45E+01,0.00E+00
1.90E-02,4.00E+03,2.00E+01,2.45E+01,0.00E+00
2.13E-02,4.50E+03,2.00E+01,2.45E+01,0.00E+00
2.37E-02,5.00E+03,2.00E+01,2.45E+01,0.00E+00
2.61E-02,5.50E+03,2.00E+01,2.45E+01,0.00E+00
2.84E-02,6.00E+03,2.00E+01,2.45E+01,0.00E+00
3.08E-02,6.50E+03,2.00E+01,2.45E+01,0.00E+00
3.32E-02,7.00E+03,2.00E+01,2.45E+01,0.00E+00
3.55E-02,7.50E+03,2.00E+01,2.45E+01,0.00E+00
3.79E-02,8.00E+03,2.00E+01,2.45E+01,0.00E+00
4.03E-02,8.50E+03,2.00E+01,2.45E+01,0.00E+00
4.27E-02,9.00E+03,2.00E+01,2.45E+01,0.00E+00
4.50E-02,9.50E+03,2.00E+01,2.45E+01,0.00E+00
4.74E-02,1.00E+04,2.00E+01,2.45E+01,0.00E+00
4.98E-02,1.05E+04,2.00E+01,2.45E+01,0.00E+00
