﻿VOLTS,CURRNT_NAMP,TEMP_DEGC,AIR_TEMP_DEGC,RH_PRCNT
-4.00E-04,-1.00E+08,2.00E+01,2.45E+01,0.00E+00
-3.80E-04,-9.50E+07,2.00E+01,2.45E+01,0.00E+00
-3.50E-04,-9.00E+07,2.00E+01,2.45E+01,0.00E+00
-3.30E-04,-8.50E+07,2.00E+01,2.45E+01,0.00E+00
-3.10E-04,-8.00E+07,2.00E+01,2.45E+01,0.00E+00
-2.90E-04,-7.50E+07,2.00E+01,2.45E+01,0.00E+00
-2.70E-04,-7.00E+07,2.00E+01,2.45E+01,0.00E+00
-2.50E-04,-6.50E+07,2.00E+01,2.45E+01,0.00E+00
-2.30E-04,-6.00E+07,2.00E+01,2.45E+01,0.00E+00
-2.10E-04,-5.50E+07,2.00E+01,2.45E+01,0.00E+00
-1.80E-04,-5.00E+07,2.00E+01,2.45E+01,0.00E+00
-1.60E-04,-4.50E+07,2.00E+01,2.45E+01,0.00E+00
-1.40E-04,-4.00E+07,2.00E+01,2.45E+01,0.00E+00
-1.20E-04,-3.50E+07,2.00E+01,2.45E+01,0.00E+00
-1.00E-04,-3.00E+07,2.00E+01,2.45E+01,0.00E+00
-8.00E-05,-2.50E+07,2.00E+01,2.45E+01,0.00E+00
-6.00E-05,-2.00E+07,2.00E+01,2.45E+01,0.00E+00
-4.00E-05,-1.50E+07,2.00E+01,2.45E+01,0.00E+00
-4.00E-05,-1.00E+07,2.00E+01,2.45E+01,0.00E+00
0.00E+00,-5.00E+06,2.00E+01,2.45E+01,0.00E+00
3.00E-05,0.00E+00,2.00E+01,2.45E+01,0.00E+00
7.00E-05,5.00E+06,2.00E+01,2.45E+01,0.00E+00
1.20E-04,1.00E+07,2.00E+01,2.45E+01,0.00E+00
9.00E-05,1.50E+07,2.00E+01,2.45E+01,0.00E+00
1.20E-04,2.00E+07,2.00E+01,2.44E+01,0.00E+00
1.40E-04,2.50E+07,2.00E+01,2.44E+01,0.00E+00
1.60E-04,3.00E+07,2.00E+01,2.44E+01,0.00E+00
1.80E-04,3.50E+07,2.00E+01,2.44E+01,0.00E+00
2.10E-04,4.00E+07,2.00E+01,2.45E+01,0.00E+00
2.30E-04,4.50E+07,2.00E+01,2.45E+01,0.00E+00
2.50E-04,5.00E+07,2.00E+01,2.45E+01,0.00E+00
2.80E-04,5.50E+07,2.00E+01,2.45E+01,0.00E+00
3.00E-04,6.00E+07,2.00E+01,2.45E+01,0.00E+00
3.20E-04,6.50E+07,2.00E+01,2.45E+01,0.00E+00
3.40E-04,7.00E+07,2.00E+01,2.45E+01,0.00E+00
3.70E-04,7.50E+07,2.00E+01,2.45E+01,0.00E+00
3.90E-04,8.00E+07,2.00E+01,2.45E+01,0.00E+00
4.10E-04,8.50E+07,2.00E+01,2.45E+01,0.00E+00
4.40E-04,9.00E+07,2.00E+01,2.45E+01,0.00E+00
4.60E-04,9.50E+07,2.00E+01,2.45E+01,0.00E+00
4.80E-04,1.00E+08,2.00E+01,2.45E+01,0.00E+00
