VOLTS,CURRNT_NAMP,TEMP_DEGC,AIR_TEMP_DEGC,RH_PRCNT 
-2.82E-01,-1.00E+01,2.00E+01,2.48E+01,0.00E+00
-2.54E-01,-9.00E+00,2.00E+01,2.48E+01,0.00E+00
-2.26E-01,-8.00E+00,2.00E+01,2.48E+01,0.00E+00
-1.98E-01,-7.00E+00,2.00E+01,2.48E+01,0.00E+00
-1.69E-01,-6.00E+00,2.00E+01,2.48E+01,0.00E+00
-1.41E-01,-5.00E+00,2.00E+01,2.48E+01,0.00E+00
-1.13E-01,-4.00E+00,2.00E+01,2.48E+01,0.00E+00
-8.43E-02,-3.00E+00,2.00E+01,2.48E+01,0.00E+00
-5.60E-02,-2.00E+00,2.00E+01,2.48E+01,0.00E+00
-2.78E-02,-1.00E+00,2.00E+01,2.48E+01,0.00E+00
6.10E-04,0.00E+00,2.00E+01,2.48E+01,0.00E+00
2.90E-02,1.00E+00,2.00E+01,2.48E+01,0.00E+00
5.73E-02,2.00E+00,2.00E+01,2.48E+01,0.00E+00
8.55E-02,3.00E+00,2.00E+01,2.48E+01,0.00E+00
1.14E-01,4.00E+00,2.00E+01,2.48E+01,0.00E+00
1.42E-01,5.00E+00,2.00E+01,2.48E+01,0.00E+00
1.70E-01,6.00E+00,2.00E+01,2.48E+01,0.00E+00
1.99E-01,7.00E+00,2.00E+01,2.48E+01,0.00E+00
2.27E-01,8.00E+00,2.00E+01,2.48E+01,0.00E+00
2.55E-01,9.00E+00,2.00E+01,2.48E+01,0.00E+00
2.84E-01,1.00E+01,2.00E+01,2.48E+01,0.00E+00
