#Measurement file	
#project	CMS tracker
#Sensor Type	PSS
#ID	34342_018_PSS_MAINL
#Scratch PAD	|0000|0000|0000|0000|0001|1000|
#Operator	HPK
#Date	28-Sep-20
#Ingot No.	2984038-504
#Bad strips	0
#AC NG	none
#AC open	none
#AC short	none
#DC high	none
#DC low	none
#DC leaky	none
#Polysilicon Bias Resistance Upper [Mohm]	1.81 
#Polysilicon Bias Resistance Lower [Mohm]	1.60 
#Polysilicon Bias Resistance Average [Mohm]	1.70 
#Depletion voltage [V]	290
#temperature [deg]	25
#humidity [%]	50
	
voltage [V]	current [A]
0	4.503E-09
20	6.857E-08
40	7.167E-08
60	7.305E-08
80	7.25E-08
100	7.701E-08
120	7.817E-08
140	7.872E-08
160	7.951E-08
180	8.012E-08
200	0.000000081
220	8.218E-08
240	8.372E-08
260	8.575E-08
280	8.248E-08
300	8.361E-08
320	8.441E-08
340	8.507E-08
360	8.566E-08
380	8.621E-08
400	8.672E-08
420	8.723E-08
440	8.77E-08
460	8.816E-08
480	8.861E-08
500	8.905E-08
520	8.948E-08
540	8.991E-08
560	9.033E-08
580	9.074E-08
600	9.116E-08
620	9.157E-08
640	9.199E-08
660	9.24E-08
680	9.282E-08
700	9.324E-08
720	9.367E-08
740	9.41E-08
760	9.453E-08
780	9.498E-08
800	9.544E-08
820	9.59E-08
840	9.639E-08
860	9.688E-08
880	9.74E-08
900	9.792E-08
920	9.847E-08
940	9.905E-08
960	9.965E-08
980	1.0028E-07
1000	1.0094E-07
	
voltage [V]	capacitance [F]
0	5.40748E-08
10	8.8433E-09
20	6.02425E-09
30	4.92267E-09
40	4.24703E-09
50	3.79306E-09
60	3.4629E-09
70	3.2004E-09
80	2.97501E-09
90	2.80518E-09
100	2.66132E-09
110	2.53748E-09
120	2.42957E-09
130	2.33427E-09
140	2.2489E-09
150	2.17238E-09
160	2.10322E-09
170	2.04381E-09
180	1.9827E-09
190	1.92636E-09
200	1.87652E-09
210	1.82971E-09
220	1.78542E-09
230	1.74274E-09
240	1.70135E-09
250	1.66216E-09
260	1.62697E-09
270	1.5982E-09
280	1.58007E-09
290	1.57218E-09
300	1.56876E-09
310	1.56688E-09
320	1.56564E-09
330	1.56465E-09
340	1.56385E-09
350	1.56322E-09
360	1.56268E-09
370	1.5622E-09
380	1.56177E-09
390	1.56134E-09
400	1.56104E-09
	
#End of manufacturer data file		
