#Measurement file	
#project	CMS tracker
#Sensor Type	PSS
#ID	34342_048_PSS_MAINL
#Scratch PAD	|0000|0000|0000|0000|0100|1000|
#Operator	HPK
#Date	28-Sep-20
#Ingot No.	2984038-504
#Bad strips	0
#AC NG	none
#AC open	none
#AC short	none
#DC high	none
#DC low	none
#DC leaky	none
#Polysilicon Bias Resistance Upper [Mohm]	1.81 
#Polysilicon Bias Resistance Lower [Mohm]	1.60 
#Polysilicon Bias Resistance Average [Mohm]	1.70 
#Depletion voltage [V]	300
#temperature [deg]	25
#humidity [%]	50
	
voltage [V]	current [A]
0	4.914E-09
20	6.633E-08
40	6.891E-08
60	7.041E-08
80	7.163E-08
100	7.251E-08
120	6.856E-08
140	6.918E-08
160	6.985E-08
180	7.012E-08
200	7.06E-08
220	7.149E-08
240	7.275E-08
260	7.449E-08
280	7.611E-08
300	7.712E-08
320	7.783E-08
340	7.844E-08
360	7.897E-08
380	7.947E-08
400	7.994E-08
420	8.038E-08
440	8.081E-08
460	8.124E-08
480	8.165E-08
500	8.205E-08
520	8.244E-08
540	8.284E-08
560	8.323E-08
580	8.361E-08
600	0.000000084
620	8.439E-08
640	8.477E-08
660	8.516E-08
680	8.555E-08
700	8.595E-08
720	8.635E-08
740	8.676E-08
760	8.718E-08
780	8.76E-08
800	8.802E-08
820	8.847E-08
840	8.892E-08
860	8.939E-08
880	8.988E-08
900	9.038E-08
920	9.09E-08
940	9.146E-08
960	9.203E-08
980	9.264E-08
1000	9.328E-08
	
voltage [V]	capacitance [F]
0	5.92721E-08
10	8.11168E-09
20	5.84416E-09
30	4.8725E-09
40	4.25147E-09
50	3.81743E-09
60	3.50018E-09
70	3.22137E-09
80	3.01981E-09
90	2.85202E-09
100	2.70726E-09
110	2.58292E-09
120	2.47457E-09
130	2.37936E-09
140	2.29423E-09
150	2.22065E-09
160	2.14993E-09
170	2.08201E-09
180	2.02032E-09
190	1.96343E-09
200	1.90967E-09
210	1.86351E-09
220	1.81719E-09
230	1.77655E-09
240	1.73631E-09
250	1.69932E-09
260	1.66327E-09
270	1.62979E-09
280	1.60272E-09
290	1.58503E-09
300	1.5771E-09
310	1.57367E-09
320	1.57178E-09
330	1.57012E-09
340	1.56922E-09
350	1.56847E-09
360	1.56783E-09
370	1.56715E-09
380	1.56615E-09
390	1.56536E-09
400	1.56545E-09
	
#End of manufacturer data file		
