NAME_LABEL,PS_26_DSY-20003,Good
MANUFACTURER,KIT
LOCATION,KIT
BASEPLATE,PS_BASEPLATE_KIT_2
MAPSA,PS_MAPSA_KIT_2,Rotated
SENSOR_TOP,PS_PSS_KIT_2,Rotated
FEH_RIGHT,PS_FEH_R_KIT_2
FEH_LEFT,PS_FEH_L_KIT_2
ROH,PS_ROH_KIT_2
POH,PS_POH_KIT_2
VTRX+,PS_VTRX_KIT_2
