# Measurement file: 			
 # Project: CMS Tracker Upgrade			
 # Sensor Type: 2S			
 # ID:  41356_016_2-S_MAIN0			
 # Operator: Ashiq			
 # Date: Thu Jun 09 10:00:01 2022			
			
			
Voltage [V]	Current [A]	Temperature degree [C]	Humidity rel. percent[rel %]
0	-8.80900E-10	20	10.5
-5	-5.53400E-08	20	10.5
-10	-5.53400E-08	20	10.52
-15	-7.33640E-08	20	10.51
-20	-7.91450E-08	20	10.52
-25	-8.01850E-08	20	10.52
-30	-8.15710E-08	20	10.53
-35	-8.20090E-08	20	10.52
-40	-8.26370E-08	20	10.52
-45	-8.38620E-08	20	10.53
-50	-8.42340E-08	20	10.53
-55	-8.47230E-08	20	10.53
-60	-8.50290E-08	20	10.55
-65	-8.55610E-08	20	10.54
-70	-8.58650E-08	20	10.53
-75	-8.64210E-08	20	10.55
-80	-8.68400E-08	20	10.56
-85	-8.67210E-08	20	10.56
-90	-8.72940E-08	20	10.55
-95	-8.75740E-08	20	10.54
-100	-8.81180E-08	20	10.57
-105	-8.84260E-08	20	10.57
-110	-8.85580E-08	20	10.57
-115	-8.89750E-08	20	10.58
-120	-8.92040E-08	20	10.57
-125	-8.94290E-08	20	10.58
-130	-8.96850E-08	20	10.58
-135	-9.01910E-08	20	10.6
-140	-9.03250E-08	20	10.59
-145	-9.07110E-08	20	10.59
-150	-9.08350E-08	20	10.61
-155	-9.12870E-08	20	10.61
-160	-9.12210E-08	20	10.61
-165	-9.16200E-08	20	10.61
-170	-9.20340E-08	20	10.62
-175	-9.23100E-08	20	10.63
-180	-9.26850E-08	20	10.62
-185	-9.28170E-08	20	10.63
-190	-9.32020E-08	20	10.62
-195	-9.36810E-08	20	10.62
-200	-9.41310E-08	20	10.63
-205	-9.45330E-08	20	10.63
-210	-9.50900E-08	20	10.65
-215	-9.59010E-08	20	10.63
-220	-9.67520E-08	20	10.67
-225	-9.79630E-08	20	10.64
-230	-9.92290E-08	20	10.66
-235	-1.00544E-07	20	10.67
-240	-1.02200E-07	20	10.65
-245	-1.03734E-07	20	10.65
-250	-1.05658E-07	20	10.66
-255	-1.07258E-07	20	10.66
-260	-1.08980E-07	20	10.68
-265	-1.10258E-07	20	10.68
-270	-1.11594E-07	20	10.67
-275	-1.12502E-07	20	10.68
-280	-1.13413E-07	20	10.68
-285	-1.14253E-07	20	10.68
-290	-1.14773E-07	20	10.68
-295	-1.15497E-07	20	10.68
-300	-1.15939E-07	20	10.7
-305	-1.16420E-07	20	10.68
-310	-1.16836E-07	20	10.7
-315	-1.17231E-07	20	10.66
-320	-1.17910E-07	20	10.68
-325	-1.18241E-07	20	10.66
-330	-1.18739E-07	20	10.67
-335	-1.19096E-07	20	10.65
-340	-1.19446E-07	20	10.65
-345	-1.19860E-07	20	10.63
-350	-1.20426E-07	20	10.64
-355	-1.20702E-07	20	10.63
-360	-1.21123E-07	20	10.63
-365	-1.21382E-07	20	10.6
-370	-1.21600E-07	20	10.58
-375	-1.22234E-07	20	10.58
-380	-1.22428E-07	20	10.58
-385	-1.22611E-07	20	10.57
-390	-1.22922E-07	20	10.55
-395	-1.23272E-07	20	10.56
-400	-1.23437E-07	20	10.54
-405	-1.23792E-07	20	10.51
-410	-1.24238E-07	20	10.51
-415	-1.24457E-07	20	10.5
-420	-1.24661E-07	20	10.5
-425	-1.24956E-07	20	10.48
-430	-1.25058E-07	20	10.46
-435	-1.25446E-07	20	10.46
-440	-1.25764E-07	20	10.46
-445	-1.26063E-07	20	10.45
-450	-1.26242E-07	20	10.44
-455	-1.26657E-07	20	10.45
-460	-1.26527E-07	20	10.44
-465	-1.26867E-07	20	10.43
-470	-1.27051E-07	20	10.43
-475	-1.27436E-07	20	10.43
-480	-1.27688E-07	20	10.43
-485	-1.27983E-07	20	10.42
-490	-1.27999E-07	20	10.4
-495	-1.28176E-07	20	10.39
-500	-1.28458E-07	20	10.39
-505	-1.28934E-07	20	10.4
-510	-1.29103E-07	20	10.4
-515	-1.29366E-07	20	10.39
-520	-1.29478E-07	20	10.39
-525	-1.29689E-07	20	10.39
-530	-1.29931E-07	20	10.39
-535	-1.30143E-07	20	10.4
-540	-1.30395E-07	20	10.39
-545	-1.30644E-07	20	10.38
-550	-1.30748E-07	20	10.38
-555	-1.30813E-07	20	10.38
-560	-1.31121E-07	20	10.38
-565	-1.31261E-07	20	10.38
-570	-1.31617E-07	20	10.37
-575	-1.31835E-07	20	10.38
-580	-1.32066E-07	20	10.39
-585	-1.32115E-07	20	10.4
-590	-1.32405E-07	20	10.36
-595	-1.32584E-07	20	10.38
-600	-1.32728E-07	20	10.38
-605	-1.32927E-07	20	10.38
-610	-1.33073E-07	20	10.39
-615	-1.33202E-07	20	10.39
-620	-1.33491E-07	20	10.38
-625	-1.33753E-07	20	10.4
-630	-1.33811E-07	20	10.39
-635	-1.34139E-07	20	10.38
-640	-1.34335E-07	20	10.37
-645	-1.34333E-07	20	10.38
-650	-1.34686E-07	20	10.4
-655	-1.34922E-07	20	10.4
-660	-1.35041E-07	20	10.4
-665	-1.35340E-07	20	10.4
-670	-1.35227E-07	20	10.4
-675	-1.35512E-07	20	10.41
-680	-1.35934E-07	20	10.4
-685	-1.36020E-07	20	10.4
-690	-1.36158E-07	20	10.41
-695	-1.36459E-07	20	10.42
-700	-1.36628E-07	20	10.4
-705	-1.36775E-07	20	10.42
-710	-1.36889E-07	20	10.42
-715	-1.37029E-07	20	10.43
-720	-1.37303E-07	20	10.43
-725	-1.37485E-07	20	10.42
-730	-1.37777E-07	20	10.42
-735	-1.37844E-07	20	10.44
-740	-1.37978E-07	20	10.43
-745	-1.38307E-07	20	10.43
-750	-1.38518E-07	20	10.46
-755	-1.38668E-07	20	10.44
-760	-1.38815E-07	20	10.43
-765	-1.38885E-07	20	10.44
-770	-1.39232E-07	20	10.45
-775	-1.39103E-07	20	10.47
-780	-1.39508E-07	20	10.46
-785	-1.39560E-07	20	10.46
-790	-1.39868E-07	20	10.46
-795	-1.40143E-07	20	10.47
-800	-1.40153E-07	20	10.46
-805	-1.40274E-07	20	10.47
-810	-1.40523E-07	20	10.47
-815	-1.40666E-07	20	10.48
-820	-1.41020E-07	20	10.47
-825	-1.41249E-07	20	10.5
-830	-1.41265E-07	20	10.48
-835	-1.41346E-07	20	10.49
-840	-1.41603E-07	20	10.47
-845	-1.41779E-07	20	10.48
-850	-1.42157E-07	20	10.5
-855	-1.42281E-07	20	10.51
-860	-1.42330E-07	20	10.5
-865	-1.42355E-07	20	10.52
-870	-1.42570E-07	20	10.51
-875	-1.43052E-07	20	10.51
-880	-1.42954E-07	20	10.51
-885	-1.43232E-07	20	10.51
-890	-1.43503E-07	20	10.52
-895	-1.43708E-07	20	10.52
-900	-1.43847E-07	20	10.53
-905	-1.44198E-07	20	10.52
-910	-1.44301E-07	20	10.54
-915	-1.44321E-07	20	10.53
-920	-1.44720E-07	20	10.53
-925	-1.44777E-07	20	10.55
-930	-1.44918E-07	20	10.55
-935	-1.44902E-07	20	10.54
-940	-1.45357E-07	20	10.55
-945	-1.45424E-07	20	10.54
-950	-1.45575E-07	20	10.57
-955	-1.45712E-07	20	10.58
-960	-1.45949E-07	20	10.56
-965	-1.46320E-07	20	10.58
-970	-1.46520E-07	20	10.57
-975	-1.46636E-07	20	10.58
-980	-1.46878E-07	20	10.59
-985	-1.47190E-07	20	10.6
-990	-1.46798E-07	20	10.58
-995	-1.47455E-07	20	10.59
-1000	-1.47970E-07	20	10.59
