#Measurement file	
#project	CMS tracker
#Sensor Type	PSS
#ID	34342_027_PSS_MAINR
#Scratch PAD	|0000|0000|0000|0000|0010|0111|
#Operator	HPK
#Date	28-Sep-20
#Ingot No.	2984038-504
#Bad strips	0
#AC NG	none
#AC open	none
#AC short	none
#DC high	none
#DC low	none
#DC leaky	none
#Polysilicon Bias Resistance Upper [Mohm]	1.81 
#Polysilicon Bias Resistance Lower [Mohm]	1.60 
#Polysilicon Bias Resistance Average [Mohm]	1.70 
#Depletion voltage [V]	280
#temperature [deg]	25
#humidity [%]	50
	
voltage [V]	current [A]
0	8.602E-10
20	6.587E-08
40	7.134E-08
60	7.563E-08
80	7.739E-08
100	7.871E-08
120	7.998E-08
140	8.078E-08
160	8.261E-08
180	8.307E-08
200	8.362E-08
220	8.461E-08
240	8.668E-08
260	8.962E-08
280	9.187E-08
300	9.308E-08
320	0.000000094
340	9.218E-08
360	9.283E-08
380	9.346E-08
400	9.406E-08
420	9.464E-08
440	9.52E-08
460	9.574E-08
480	9.626E-08
500	9.677E-08
520	9.728E-08
540	9.777E-08
560	9.826E-08
580	9.875E-08
600	9.922E-08
620	9.97E-08
640	1.0017E-07
660	1.0064E-07
680	1.0112E-07
700	1.0159E-07
720	1.0207E-07
740	1.0255E-07
760	1.0303E-07
780	1.0353E-07
800	1.0403E-07
820	1.0453E-07
840	1.0504E-07
860	1.0556E-07
880	1.061E-07
900	1.0665E-07
920	1.0722E-07
940	1.0782E-07
960	1.0842E-07
980	1.0906E-07
1000	1.0973E-07
	
voltage [V]	capacitance [F]
0	6.16514E-08
10	8.18373E-09
20	5.66878E-09
30	4.73839E-09
40	4.13707E-09
50	3.71945E-09
60	3.40857E-09
70	3.13944E-09
80	2.94236E-09
90	2.77823E-09
100	2.63886E-09
110	2.51842E-09
120	2.41319E-09
130	2.3201E-09
140	2.23665E-09
150	2.16178E-09
160	2.09368E-09
170	2.03356E-09
180	1.97606E-09
190	1.92078E-09
200	1.86991E-09
210	1.82223E-09
220	1.77701E-09
230	1.73342E-09
240	1.68906E-09
250	1.6485E-09
260	1.61471E-09
270	1.59005E-09
280	1.57726E-09
290	1.57196E-09
300	1.56933E-09
310	1.56775E-09
320	1.56659E-09
330	1.56574E-09
340	1.565E-09
350	1.56439E-09
360	1.56388E-09
370	1.56341E-09
380	1.56301E-09
390	1.56266E-09
400	1.56229E-09
	
#End of manufacturer data file		
