#Measurement file	
#project	CMS tracker
#Sensor Type	PSS
#ID	34342_026_PSS_MAINR
#Scratch PAD	|0000|0000|0000|0000|0010|0110|
#Operator	HPK
#Date	28-Sep-20
#Ingot No.	2984038-504
#Bad strips	0
#AC NG	none
#AC open	none
#AC short	none
#DC high	none
#DC low	none
#DC leaky	none
#Polysilicon Bias Resistance Upper [Mohm]	1.81 
#Polysilicon Bias Resistance Lower [Mohm]	1.60 
#Polysilicon Bias Resistance Average [Mohm]	1.70 
#Depletion voltage [V]	280
#temperature [deg]	25
#humidity [%]	50
	
voltage [V]	current [A]
0	4.64E-09
20	6.827E-08
40	7.273E-08
60	7.503E-08
80	7.811E-08
100	7.928E-08
120	8.049E-08
140	8.123E-08
160	8.212E-08
180	8.235E-08
200	8.259E-08
220	8.305E-08
240	8.419E-08
260	8.231E-08
280	8.271E-08
300	8.376E-08
320	8.456E-08
340	8.525E-08
360	8.588E-08
380	8.646E-08
400	8.702E-08
420	8.756E-08
440	8.808E-08
460	8.858E-08
480	8.907E-08
500	8.955E-08
520	9.003E-08
540	9.049E-08
560	9.096E-08
580	9.142E-08
600	9.188E-08
620	9.233E-08
640	9.279E-08
660	9.324E-08
680	9.369E-08
700	9.415E-08
720	9.462E-08
740	9.508E-08
760	9.554E-08
780	9.601E-08
800	9.649E-08
820	9.697E-08
840	9.745E-08
860	9.795E-08
880	9.846E-08
900	9.897E-08
920	9.95E-08
940	1.0005E-07
960	1.0061E-07
980	1.0119E-07
1000	1.0179E-07
	
voltage [V]	capacitance [F]
0	6.12631E-08
10	8.03522E-09
20	5.67552E-09
30	4.74227E-09
40	4.13936E-09
50	3.71975E-09
60	3.40577E-09
70	3.13929E-09
80	2.94236E-09
90	2.77836E-09
100	2.63893E-09
110	2.51837E-09
120	2.41309E-09
130	2.31995E-09
140	2.23651E-09
150	2.16162E-09
160	2.09351E-09
170	2.03251E-09
180	1.97525E-09
190	1.92081E-09
200	1.86987E-09
210	1.82202E-09
220	1.7769E-09
230	1.73334E-09
240	1.68933E-09
250	1.64897E-09
260	1.61488E-09
270	1.58946E-09
280	1.57567E-09
290	1.56998E-09
300	1.56718E-09
310	1.56556E-09
320	1.56439E-09
330	1.56343E-09
340	1.56271E-09
350	1.5621E-09
360	1.56161E-09
370	1.56112E-09
380	1.5607E-09
390	1.56031E-09
400	1.55997E-09
	
#End of manufacturer data file		
