#Measurement file	
#project	CMS tracker
#Sensor Type	PSS
#ID	34342_039_PSS_MAINR
#Scratch PAD	|0000|0000|0000|0000|0011|1001|
#Operator	HPK
#Date	28-Sep-20
#Ingot No.	2984038-504
#Bad strips	0
#AC NG	none
#AC open	none
#AC short	none
#DC high	none
#DC low	none
#DC leaky	none
#Polysilicon Bias Resistance Upper [Mohm]	1.81 
#Polysilicon Bias Resistance Lower [Mohm]	1.60 
#Polysilicon Bias Resistance Average [Mohm]	1.70 
#Depletion voltage [V]	290
#temperature [deg]	25
#humidity [%]	50
	
voltage [V]	current [A]
0	2.301E-09
20	6.394E-08
40	6.736E-08
60	6.936E-08
80	7.171E-08
100	7.282E-08
120	7.403E-08
140	7.476E-08
160	7.575E-08
180	7.629E-08
200	7.666E-08
220	7.734E-08
240	7.894E-08
260	7.886E-08
280	8.102E-08
300	8.204E-08
320	8.291E-08
340	8.363E-08
360	8.428E-08
380	8.489E-08
400	8.546E-08
420	0.000000086
440	8.652E-08
460	8.702E-08
480	8.752E-08
500	8.8E-08
520	8.846E-08
540	8.893E-08
560	8.939E-08
580	8.984E-08
600	9.029E-08
620	9.074E-08
640	9.118E-08
660	9.163E-08
680	9.207E-08
700	9.252E-08
720	9.296E-08
740	9.342E-08
760	9.388E-08
780	9.435E-08
800	9.482E-08
820	9.53E-08
840	9.578E-08
860	9.628E-08
880	9.68E-08
900	9.733E-08
920	9.788E-08
940	9.845E-08
960	9.905E-08
980	9.967E-08
1000	1.0033E-07
	
voltage [V]	capacitance [F]
0	5.92881E-08
10	8.07764E-09
20	5.82869E-09
30	4.8623E-09
40	4.24055E-09
50	3.81089E-09
60	3.47899E-09
70	3.21522E-09
80	3.0138E-09
90	2.84619E-09
100	2.7032E-09
110	2.5779E-09
120	2.47098E-09
130	2.37512E-09
140	2.28905E-09
150	2.213E-09
160	2.14655E-09
170	2.0817E-09
180	2.02062E-09
190	1.96435E-09
200	1.90889E-09
210	1.85878E-09
220	1.81449E-09
230	1.7726E-09
240	1.73318E-09
250	1.69487E-09
260	1.65853E-09
270	1.62756E-09
280	1.60178E-09
290	1.5882E-09
300	1.58133E-09
310	1.57908E-09
320	1.57732E-09
330	1.57554E-09
340	1.57478E-09
350	1.57474E-09
360	1.57408E-09
370	1.57368E-09
380	1.57227E-09
390	1.5726E-09
400	1.57149E-09
	
#End of manufacturer data file		
