#Measurement file	
#project	CMS tracker
#Sensor Type	PSS
#ID	34342_021_PSS_MAINR
#Scratch PAD	|0000|0000|0000|0000|0010|0001|
#Operator	HPK
#Date	28-Sep-20
#Ingot No.	2984038-504
#Bad strips	0
#AC NG	none
#AC open	none
#AC short	none
#DC high	none
#DC low	none
#DC leaky	none
#Polysilicon Bias Resistance Upper [Mohm]	1.81 
#Polysilicon Bias Resistance Lower [Mohm]	1.60 
#Polysilicon Bias Resistance Average [Mohm]	1.70 
#Depletion voltage [V]	280
#temperature [deg]	25
#humidity [%]	50
	
voltage [V]	current [A]
0	5.69E-09
20	7.24E-08
40	7.673E-08
60	7.917E-08
80	8.085E-08
100	8.221E-08
120	8.36E-08
140	8.448E-08
160	8.533E-08
180	8.085E-08
200	8.117E-08
220	8.221E-08
240	8.444E-08
260	8.72E-08
280	8.923E-08
300	9.043E-08
320	9.135E-08
340	9.216E-08
360	9.293E-08
380	9.372E-08
400	9.461E-08
420	9.568E-08
440	9.702E-08
460	9.887E-08
480	1.0139E-07
500	1.0438E-07
520	1.0789E-07
540	1.1166E-07
560	1.1547E-07
580	1.1942E-07
600	1.2342E-07
620	1.2752E-07
640	1.3166E-07
660	1.3584E-07
680	1.3997E-07
700	1.4406E-07
720	1.4818E-07
740	1.5273E-07
760	1.5625E-07
780	1.6089E-07
800	1.6488E-07
820	1.6889E-07
840	1.7281E-07
860	1.7652E-07
880	1.7997E-07
900	1.844E-07
920	1.882E-07
940	1.921E-07
960	1.959E-07
980	1.989E-07
1000	2.026E-07
	
voltage [V]	capacitance [F]
0	6.19204E-08
10	8.0437E-09
20	5.66488E-09
30	4.72885E-09
40	4.13483E-09
50	3.71099E-09
60	3.40095E-09
70	3.15434E-09
80	2.9369E-09
90	2.77365E-09
100	2.63482E-09
110	2.51471E-09
120	2.40982E-09
130	2.31703E-09
140	2.23389E-09
150	2.15936E-09
160	2.09142E-09
170	2.03238E-09
180	1.97393E-09
190	1.91954E-09
200	1.86913E-09
210	1.82154E-09
220	1.77488E-09
230	1.72978E-09
240	1.68825E-09
250	1.64949E-09
260	1.61553E-09
270	1.5894E-09
280	1.57543E-09
290	1.56986E-09
300	1.56729E-09
310	1.5657E-09
320	1.56455E-09
330	1.56371E-09
340	1.56297E-09
350	1.56239E-09
360	1.56183E-09
370	1.56137E-09
380	1.56095E-09
390	1.56059E-09
400	1.56025E-09
	
#End of manufacturer data file		
