#Measurement file	
#project	CMS tracker
#Sensor Type	PSS
#ID	34342_042_PSS_MAINR
#Scratch PAD	|0000|0000|0000|0000|0100|0010|
#Operator	HPK
#Date	28-Sep-20
#Ingot No.	2984038-504
#Bad strips	0
#AC NG	none
#AC open	none
#AC short	none
#DC high	none
#DC low	none
#DC leaky	none
#Polysilicon Bias Resistance Upper [Mohm]	1.81 
#Polysilicon Bias Resistance Lower [Mohm]	1.60 
#Polysilicon Bias Resistance Average [Mohm]	1.70 
#Depletion voltage [V]	280
#temperature [deg]	25
#humidity [%]	50
	
voltage [V]	current [A]
0	2.27E-09
20	6.377E-08
40	6.75E-08
60	6.991E-08
80	7.135E-08
100	7.245E-08
120	7.363E-08
140	7.457E-08
160	7.549E-08
180	7.575E-08
200	7.608E-08
220	7.667E-08
240	7.545E-08
260	7.755E-08
280	7.925E-08
300	8.029E-08
320	8.106E-08
340	8.172E-08
360	8.232E-08
380	8.288E-08
400	8.341E-08
420	8.391E-08
440	8.44E-08
460	8.488E-08
480	8.534E-08
500	8.58E-08
520	8.625E-08
540	8.669E-08
560	8.713E-08
580	8.756E-08
600	8.799E-08
620	8.842E-08
640	8.885E-08
660	8.928E-08
680	8.971E-08
700	9.014E-08
720	9.058E-08
740	9.103E-08
760	9.147E-08
780	9.193E-08
800	9.239E-08
820	9.287E-08
840	9.336E-08
860	9.385E-08
880	9.437E-08
900	9.489E-08
920	9.544E-08
940	9.601E-08
960	9.659E-08
980	9.72E-08
1000	9.783E-08
	
voltage [V]	capacitance [F]
0	6.17457E-08
10	8.08345E-09
20	5.71193E-09
30	4.75277E-09
40	4.15005E-09
50	3.727E-09
60	3.41498E-09
70	3.14842E-09
80	2.94705E-09
90	2.78268E-09
100	2.64265E-09
110	2.52144E-09
120	2.41558E-09
130	2.32205E-09
140	2.23826E-09
150	2.16318E-09
160	2.09553E-09
170	2.03543E-09
180	1.9765E-09
190	1.92172E-09
200	1.87102E-09
210	1.82327E-09
220	1.77802E-09
230	1.73166E-09
240	1.68864E-09
250	1.64971E-09
260	1.61582E-09
270	1.58997E-09
280	1.57604E-09
290	1.57043E-09
300	1.56781E-09
310	1.56615E-09
320	1.565E-09
330	1.56414E-09
340	1.56343E-09
350	1.56284E-09
360	1.56229E-09
370	1.56181E-09
380	1.5614E-09
390	1.561E-09
400	1.56069E-09
	
#End of manufacturer data file		
