#Measurement file	
#project	CMS tracker
#Sensor Type	PSS
#ID	34342_024_PSS_MAINR
#Scratch PAD	|0000|0000|0000|0000|0010|0100|
#Operator	HPK
#Date	28-Sep-20
#Ingot No.	2984038-504
#Bad strips	0
#AC NG	none
#AC open	none
#AC short	none
#DC high	none
#DC low	none
#DC leaky	none
#Polysilicon Bias Resistance Upper [Mohm]	1.81 
#Polysilicon Bias Resistance Lower [Mohm]	1.60 
#Polysilicon Bias Resistance Average [Mohm]	1.70 
#Depletion voltage [V]	280
#temperature [deg]	25
#humidity [%]	50
	
voltage [V]	current [A]
0	4.688E-09
20	7.098E-08
40	7.465E-08
60	7.643E-08
80	7.628E-08
100	8.123E-08
120	8.251E-08
140	8.33E-08
160	8.409E-08
180	8.445E-08
200	8.49E-08
220	8.555E-08
240	8.725E-08
260	8.949E-08
280	8.615E-08
300	8.727E-08
320	8.807E-08
340	8.878E-08
360	8.943E-08
380	9.003E-08
400	9.06E-08
420	9.116E-08
440	9.169E-08
460	9.221E-08
480	9.272E-08
500	9.321E-08
520	9.37E-08
540	9.418E-08
560	9.465E-08
580	9.513E-08
600	9.56E-08
620	9.607E-08
640	9.654E-08
660	0.000000097
680	9.747E-08
700	9.794E-08
720	9.842E-08
740	9.889E-08
760	9.937E-08
780	9.986E-08
800	1.0035E-07
820	1.0086E-07
840	1.0137E-07
860	1.019E-07
880	1.0245E-07
900	0.000000103
920	1.0358E-07
940	1.0417E-07
960	1.0479E-07
980	1.0543E-07
1000	1.0609E-07
	
voltage [V]	capacitance [F]
0	6.19613E-08
10	8.30236E-09
20	5.62579E-09
30	4.71933E-09
40	4.13363E-09
50	3.71299E-09
60	3.40012E-09
70	3.15825E-09
80	2.94239E-09
90	2.77441E-09
100	2.63603E-09
110	2.51628E-09
120	2.41167E-09
130	2.3191E-09
140	2.23605E-09
150	2.16152E-09
160	2.09359E-09
170	2.03507E-09
180	1.97761E-09
190	1.92275E-09
200	1.87218E-09
210	1.82467E-09
220	1.77971E-09
230	1.73314E-09
240	1.69121E-09
250	1.65213E-09
260	1.61799E-09
270	1.59124E-09
280	1.57638E-09
290	1.57049E-09
300	1.56777E-09
310	1.56614E-09
320	1.56504E-09
330	1.56413E-09
340	1.56344E-09
350	1.56279E-09
360	1.56228E-09
370	1.56184E-09
380	1.56141E-09
390	1.56102E-09
400	1.56065E-09
	
#End of manufacturer data file		
