#Measurement file	
#project	CMS tracker
#Sensor Type	PSS
#ID	34342_015_PSS_MAINR
#Scratch PAD	|0000|0000|0000|0000|0001|0101|
#Operator	HPK
#Date	28-Sep-20
#Ingot No.	2984038-504
#Bad strips	0
#AC NG	none
#AC open	none
#AC short	none
#DC high	none
#DC low	none
#DC leaky	none
#Polysilicon Bias Resistance Upper [Mohm]	1.81 
#Polysilicon Bias Resistance Lower [Mohm]	1.60 
#Polysilicon Bias Resistance Average [Mohm]	1.70 
#Depletion voltage [V]	280
#temperature [deg]	25
#humidity [%]	50
	
voltage [V]	current [A]
0	4.421E-09
20	6.701E-08
40	7.409E-08
60	7.635E-08
80	7.79E-08
100	7.905E-08
120	8.036E-08
140	8.115E-08
160	8.188E-08
180	8.22E-08
200	8.245E-08
220	7.778E-08
240	7.91E-08
260	8.114E-08
280	8.286E-08
300	8.391E-08
320	8.472E-08
340	8.54E-08
360	8.604E-08
380	8.663E-08
400	8.718E-08
420	8.772E-08
440	8.823E-08
460	8.874E-08
480	8.923E-08
500	8.972E-08
520	9.02E-08
540	9.067E-08
560	9.114E-08
580	9.16E-08
600	9.207E-08
620	9.254E-08
640	0.000000093
660	9.347E-08
680	9.393E-08
700	9.44E-08
720	9.487E-08
740	9.534E-08
760	9.582E-08
780	9.632E-08
800	9.681E-08
820	9.731E-08
840	9.783E-08
860	9.836E-08
880	9.89E-08
900	9.946E-08
920	1.0005E-07
940	1.0064E-07
960	1.0133E-07
980	1.0329E-07
1000	1.1093E-07
	
voltage [V]	capacitance [F]
0	6.16132E-08
10	8.13439E-09
20	5.61338E-09
30	4.6905E-09
40	4.10495E-09
50	3.68606E-09
60	3.37656E-09
70	3.1361E-09
80	2.91655E-09
90	2.75462E-09
100	2.61712E-09
110	2.49806E-09
120	2.39406E-09
130	2.30202E-09
140	2.21946E-09
150	2.14553E-09
160	2.07835E-09
170	2.01886E-09
180	1.96304E-09
190	1.9091E-09
200	1.85861E-09
210	1.81107E-09
220	1.76581E-09
230	1.72037E-09
240	1.67647E-09
250	1.63734E-09
260	1.60517E-09
270	1.58323E-09
280	1.57318E-09
290	1.56906E-09
300	1.56689E-09
310	1.56547E-09
320	1.56442E-09
330	1.56364E-09
340	1.56293E-09
350	1.56237E-09
360	1.56187E-09
370	1.56143E-09
380	1.56104E-09
390	1.56067E-09
400	1.56034E-09
	
#End of manufacturer data file		
