#Measurement file	
#project	CMS tracker
#Sensor Type	PSS
#ID	34342_035_PSS_MAINR
#Scratch PAD	|0000|0000|0000|0000|0011|0101|
#Operator	HPK
#Date	28-Sep-20
#Ingot No.	2984038-504
#Bad strips	0
#AC NG	none
#AC open	none
#AC short	none
#DC high	none
#DC low	none
#DC leaky	none
#Polysilicon Bias Resistance Upper [Mohm]	1.81 
#Polysilicon Bias Resistance Lower [Mohm]	1.60 
#Polysilicon Bias Resistance Average [Mohm]	1.70 
#Depletion voltage [V]	280
#temperature [deg]	25
#humidity [%]	50
	
voltage [V]	current [A]
0	2.038E-09
20	6.483E-08
40	6.802E-08
60	7.014E-08
80	7.16E-08
100	7.292E-08
120	7.43E-08
140	7.505E-08
160	7.576E-08
180	7.613E-08
200	7.391E-08
220	7.47E-08
240	7.631E-08
260	7.883E-08
280	8.079E-08
300	8.193E-08
320	8.276E-08
340	8.346E-08
360	8.408E-08
380	8.466E-08
400	8.521E-08
420	8.573E-08
440	8.623E-08
460	8.672E-08
480	8.719E-08
500	8.765E-08
520	8.811E-08
540	8.856E-08
560	0.000000089
580	8.944E-08
600	8.987E-08
620	9.031E-08
640	9.074E-08
660	9.118E-08
680	9.161E-08
700	9.204E-08
720	9.247E-08
740	9.29E-08
760	9.334E-08
780	9.378E-08
800	9.423E-08
820	9.468E-08
840	9.515E-08
860	9.562E-08
880	9.61E-08
900	9.659E-08
920	9.709E-08
940	9.761E-08
960	9.814E-08
980	9.869E-08
1000	9.925E-08
	
voltage [V]	capacitance [F]
0	6.16507E-08
10	8.12244E-09
20	5.66455E-09
30	4.71621E-09
40	4.11745E-09
50	3.69979E-09
60	3.3905E-09
70	3.12483E-09
80	2.92589E-09
90	2.7627E-09
100	2.62407E-09
110	2.504E-09
120	2.39904E-09
130	2.30643E-09
140	2.22332E-09
150	2.14887E-09
160	2.08099E-09
170	2.02126E-09
180	1.9643E-09
190	1.90966E-09
200	1.85921E-09
210	1.81162E-09
220	1.76655E-09
230	1.72296E-09
240	1.67829E-09
250	1.63843E-09
260	1.60606E-09
270	1.58336E-09
280	1.57198E-09
290	1.56725E-09
300	1.56483E-09
310	1.56328E-09
320	1.56219E-09
330	1.56129E-09
340	1.56061E-09
350	1.56002E-09
360	1.55953E-09
370	1.55908E-09
380	1.55866E-09
390	1.5583E-09
400	1.55793E-09
	
#End of manufacturer data file		
