Wafer Name:,VCCUP5H

position,ID,result
1,6001, FAIL
2,6002,pass
3,6003,pass
4,6004,pass
5,6005,pass
6,6006,pass
7,6007,pass
8,6008,pass
9,6009,pass
10,6010,pass
11,6011, FAIL
12,6012, FAIL
13,6013,pass
14,6014,pass
15,6015,pass
16,6016,pass
17,6017,pass
18,6018,pass
19,6019,pass
20,6020, FAIL
21,6021,pass
22,6022, FAIL
23,6023,pass
24,6024,pass
25,6025,pass
26,6026,pass
27,6027,pass
28,6028,pass
29,6029,pass
30,6030,pass
31,6031,pass
32,6032,pass
33,6033,pass
34,6034,pass
35,6035,pass
36,6036,pass
37,6037,pass
38,6038,pass
39,6039,pass
40,6040,pass
41,6041,pass
42,6042,pass
43,6043,pass
44,6044,pass
45,6045,pass
46,6046, FAIL
47,6047,pass
48,6048,pass
49,6049, FAIL
50,6050,pass
51,6051,pass
52,6052,pass
53,6053,pass
54,6054,pass
55,6055,pass
56,6056,pass
57,6057,pass
58,6058,pass
59,6059,pass
60,6060, FAIL
61,6061,pass
62,6062,pass
63,6063, FAIL
64,6064,pass
65,6065,pass
66,6066,pass
67,6067,pass
68,6068,pass
69,6069,pass
70,6070, FAIL
71,6071, FAIL
72,6072,pass
73,6073,pass
74,6074,pass
75,6075,pass
76,6076,pass
77,6077,pass
78,6078, FAIL
79,6079,pass
80,6080,pass
81,6081,pass
82,6082,pass
83,6083, FAIL
84,6084, FAIL
85,6085, FAIL
86,6086,pass
87,6087,pass
88,6088,pass
89,6089,pass
90,6090,pass
91,6091,pass
92,6092,pass
93,6093, FAIL
94,6094,pass
95,6095,pass
96,6096,pass
97,6097,pass
98,6098,pass
99,6099, FAIL
100,6100, FAIL
101,6101,pass
102,6102,pass
103,6103,pass
104,6104,pass
105,6105,pass
106,6106,pass
107,6107,pass
108,6108, FAIL
109,6109,pass
110,6110,pass
111,6111,pass
112,6112,pass
113,6113,pass
114,6114, FAIL
115,6115, FAIL
116,6116,pass
117,6117,pass
118,6118,pass
119,6119,pass
120,6120,pass
121,6121,pass
122,6122,pass
123,6123, FAIL
124,6124,pass
125,6125,pass
126,6126,pass
127,6127,pass
128,6128,pass
129,6129,pass
130,6130, FAIL
131,6131,pass
132,6132,pass
133,6133,pass
134,6134,pass
135,6135,pass
136,6136,pass
137,6137,pass
138,6138,pass
139,6139,pass
140,6140,pass
141,6141,pass
142,6142,pass
143,6143,pass
144,6144,pass
145,6145,pass
146,6146,pass
147,6147,pass
148,6148,pass
149,6149,pass
150,6150, FAIL
151,6151,pass
152,6152,pass
153,6153,pass
154,6154, FAIL
155,6155,pass
156,6156,pass
157,6157,pass
158,6158,pass
159,6159,pass
160,6160,pass
161,6161,pass
162,6162,pass
163,6163,pass
164,6164,pass
165,6165,pass
166,6166, FAIL
167,6167,pass
168,6168,pass
169,6169,pass
170,6170,pass
171,6171,pass
172,6172,pass
173,6173,pass
174,6174,pass
175,6175,pass
176,6176,pass
177,6177,pass
178,6178,pass
179,6179,pass
180,6180,pass
181,6181,pass
182,6182,pass
183,6183,pass
184,6184,pass
185,6185, FAIL
186,6186,pass
