Wafer Name:,VRCUMSH

position,ID,result
1,7401,pass
2,7402,pass
3,7403,pass
4,7404,pass
5,7405,pass
6,7406,pass
7,7407,pass
8,7408,pass
9,7409,pass
10,7410,pass
11,7411, FAIL
12,7412, FAIL
13,7413,pass
14,7414,pass
15,7415,pass
16,7416,pass
17,7417,pass
18,7418, FAIL
19,7419,pass
20,7420,pass
21,7421,pass
22,7422,pass
23,7423, FAIL
24,7424, FAIL
25,7425, FAIL
26,7426,pass
27,7427,pass
28,7428,pass
29,7429,pass
30,7430, FAIL
31,7431,pass
32,7432, FAIL
33,7433,pass
34,7434, FAIL
35,7435, FAIL
36,7436,pass
37,7437,pass
38,7438,pass
39,7439,pass
40,7440,pass
41,7441, FAIL
42,7442,pass
43,7443,pass
44,7444,pass
45,7445,pass
46,7446, FAIL
47,7447,pass
48,7448,pass
49,7449, FAIL
50,7450,pass
51,7451,pass
52,7452, FAIL
53,7453, FAIL
54,7454, FAIL
55,7455, FAIL
56,7456, FAIL
57,7457, FAIL
58,7458,pass
59,7459,pass
60,7460,pass
61,7461, FAIL
62,7462,pass
63,7463, FAIL
64,7464, FAIL
65,7465,pass
66,7466,pass
67,7467,pass
68,7468, FAIL
69,7469,pass
70,7470, FAIL
71,7471, FAIL
72,7472, FAIL
73,7473,pass
74,7474,pass
75,7475,pass
76,7476, FAIL
77,7477,pass
78,7478, FAIL
79,7479, FAIL
80,7480,pass
81,7481, FAIL
82,7482, FAIL
83,7483, FAIL
84,7484, FAIL
85,7485, FAIL
86,7486,pass
87,7487, FAIL
88,7488, FAIL
89,7489,pass
90,7490,pass
91,7491,pass
92,7492, FAIL
93,7493, FAIL
94,7494,pass
95,7495, FAIL
96,7496,pass
97,7497, FAIL
98,7498, FAIL
99,7499, FAIL
100,7500, FAIL
101,7501, FAIL
102,7502,pass
103,7503,pass
104,7504,pass
105,7505,pass
106,7506,pass
107,7507, FAIL
108,7508, FAIL
109,7509,pass
110,7510, FAIL
111,7511,pass
112,7512, FAIL
113,7513, FAIL
114,7514, FAIL
115,7515, FAIL
116,7516, FAIL
117,7517, FAIL
118,7518,pass
119,7519,pass
120,7520,pass
121,7521,pass
122,7522,pass
123,7523,pass
124,7524, FAIL
125,7525, FAIL
126,7526,pass
127,7527,pass
128,7528,pass
129,7529,pass
130,7530,pass
131,7531,pass
132,7532,pass
133,7533,pass
134,7534,pass
135,7535,pass
136,7536,pass
137,7537,pass
138,7538, FAIL
139,7539,pass
140,7540,pass
141,7541,pass
142,7542,pass
143,7543,pass
144,7544,pass
145,7545,pass
146,7546,pass
147,7547,pass
148,7548,pass
149,7549,pass
150,7550,pass
151,7551,pass
152,7552,pass
153,7553,pass
154,7554,pass
155,7555,pass
156,7556,pass
157,7557, FAIL
158,7558,pass
159,7559,pass
160,7560,pass
161,7561,pass
162,7562,pass
163,7563,pass
164,7564,pass
165,7565,pass
166,7566, FAIL
167,7567,pass
168,7568,pass
169,7569,pass
170,7570,pass
171,7571,pass
172,7572,pass
173,7573,pass
174,7574,pass
175,7575,pass
176,7576,pass
177,7577,pass
178,7578,pass
179,7579,pass
180,7580,pass
181,7581, FAIL
182,7582,pass
183,7583,pass
184,7584,pass
185,7585,pass
186,7586,pass
