Wafer Name:,VYCUN2H

position,ID,result
1,9001,pass
2,9002,pass
3,9003,pass
4,9004,pass
5,9005,pass
6,9006, FAIL
7,9007, FAIL
8,9008,pass
9,9009, FAIL
10,9010,pass
11,9011, FAIL
12,9012, FAIL
13,9013, FAIL
14,9014, FAIL
15,9015,pass
16,9016,pass
17,9017,pass
18,9018,pass
19,9019,pass
20,9020,pass
21,9021,pass
22,9022,pass
23,9023, FAIL
24,9024, FAIL
25,9025,pass
26,9026,pass
27,9027,pass
28,9028,pass
29,9029, FAIL
30,9030,pass
31,9031,pass
32,9032,pass
33,9033,pass
34,9034, FAIL
35,9035,pass
36,9036,pass
37,9037,pass
38,9038,pass
39,9039,pass
40,9040,pass
41,9041,pass
42,9042,pass
43,9043,pass
44,9044,pass
45,9045,pass
46,9046,pass
47,9047,pass
48,9048,pass
49,9049, FAIL
50,9050,pass
51,9051, FAIL
52,9052,pass
53,9053,pass
54,9054,pass
55,9055,pass
56,9056, FAIL
57,9057,pass
58,9058, FAIL
59,9059,pass
60,9060,pass
61,9061,pass
62,9062,pass
63,9063, FAIL
64,9064, FAIL
65,9065, FAIL
66,9066,pass
67,9067, FAIL
68,9068,pass
69,9069,pass
70,9070,pass
71,9071,pass
72,9072,pass
73,9073,pass
74,9074,pass
75,9075,pass
76,9076,pass
77,9077, FAIL
78,9078, FAIL
79,9079,pass
80,9080,pass
81,9081,pass
82,9082, FAIL
83,9083,pass
84,9084,pass
85,9085,pass
86,9086,pass
87,9087,pass
88,9088,pass
89,9089,pass
90,9090,pass
91,9091,pass
92,9092,pass
93,9093, FAIL
94,9094, FAIL
95,9095,pass
96,9096,pass
97,9097,pass
98,9098,pass
99,9099,pass
100,9100,pass
101,9101, FAIL
102,9102,pass
103,9103,pass
104,9104,pass
105,9105,pass
106,9106, FAIL
107,9107,pass
108,9108, FAIL
109,9109,pass
110,9110,pass
111,9111,pass
112,9112,pass
113,9113,pass
114,9114, FAIL
115,9115,pass
116,9116,pass
117,9117,pass
118,9118,pass
119,9119,pass
120,9120,pass
121,9121,pass
122,9122,pass
123,9123,pass
124,9124,pass
125,9125,pass
126,9126,pass
127,9127,pass
128,9128,pass
129,9129,pass
130,9130,pass
131,9131,pass
132,9132,pass
133,9133,pass
134,9134,pass
135,9135,pass
136,9136,pass
137,9137,pass
138,9138,pass
139,9139, FAIL
140,9140,pass
141,9141,pass
142,9142,pass
143,9143,pass
144,9144,pass
145,9145,pass
146,9146,pass
147,9147,pass
148,9148,pass
149,9149,pass
150,9150,pass
151,9151,pass
152,9152,pass
153,9153,pass
154,9154,pass
155,9155,pass
156,9156,pass
157,9157,pass
158,9158,pass
159,9159,pass
160,9160,pass
161,9161,pass
162,9162,pass
163,9163,pass
164,9164,pass
165,9165,pass
166,9166,pass
167,9167,pass
168,9168,pass
169,9169, FAIL
170,9170,pass
171,9171,pass
172,9172, FAIL
173,9173, FAIL
174,9174,pass
175,9175,pass
176,9176,pass
177,9177,pass
178,9178,pass
179,9179, FAIL
180,9180, FAIL
181,9181,pass
182,9182,pass
183,9183,pass
184,9184, FAIL
185,9185,pass
186,9186,pass
