#NameLabel,2S_18_6_KIT-10002
#Date,2024-10-15 10:00:00
#Comment,Correction Factor: 1.3
#Location,KIT
#Inserter,Stefan Maier
#KindOfPart,2S Module
#RunType,mod_bonded

TYPE_OF_PULL_AREA;PULL_POSITION;TYPE_OF_BREAKAGE;FORCE_MEASURED_G;FORCE_CORR_HYBRID_G;FORCE_CORR_SENSOR_G;COMMENT_DESCRIPTION
Top Left;1;Lift-off on hybrid (tail);7.5;9.75;9.75
Top Left;2;Lift-off on hybrid (tail);9;11.7;11.7
Top Left;3;Lift-off on hybrid (tail);7.5;9.75;9.75
Top Left;4;Lift-off on hybrid (tail);8;10.4;10.4
Top Left;5;Heel break on hybrid (tail);8.5;11.05;11.05
Top Left;6;Heel break on hybrid (tail);8.0;10.4;10.4
Top Left;7;Heel break on hybrid (tail);8.5;11.05;11.05
Top Left;8;Heel break on sensor;10;13;13
Top Left;9;Heel break on hybrid (tail);6.5;8.45;8.45
Top Left;10;Heel break on hybrid (tail);8;10.4;10.4
