#NameLabel,35958_015_2-S_MAIN0
#Date,2024-03-11 10:30:00
#Comment,abc
#Location,Aachen
#Inserter,Stefan Maier
#RunType,mod_bareSensor

STATION,
KIT-Metrology-Station

CARDINAL_DIRECTION, DISTANCE_LEFT_UM, DISTANCE_RIGHT_UM
NORTH,240,240
EAST,240,240
SOUTH,240,240
WEST,240,240