%CMSwaferCode:CMSchipCode:ChipColumn:ChipRow:Grading:Color:CutVersion:Status:Location:ChipBoardType:BoardNumber:Dose:Sensor:ProbingSite:Iref:IrefTrim:Vref_A:Vref_A_Trim:Vref_D:Vref_D_Trim:Vref_ADC:Vref_ADC_Trim:MON_ADC_Trim:VCAL_HIGH_slope:VCAL_HIGH_offset:VCAL_MED_slope:VCAL_MED_offset:TrefTsensors:Nf1:Nf2:Nf3:Nf4:RD53chipID:Comment:BoardComment:
TSMC_N2WX39-12A3:TSMC_N2WX39-12A3_3_11:3:11:2:green:4:2:Torino:0:0:0:none:Torino:4.053873e-06:11:1.205966:28:1.206313:20:0.9004766:8:0:3.350E-09:1.731E-02:-1.433E-09:1.190E-01:0:0:0:0:0:5B3B:Probed at Torino, Iref = 4.053873e-06 with trim bits 11:No loaded to any board yet
TSMC_N2WX39-12A3:TSMC_N2WX39-12A3_7_12:7:12:2:green:4:2:Torino:0:0:0:none:Torino:4.036467e-06:7:1.195911:23:1.212661:16:0.9052289:8:0:-1.115E-08:8.075E-02:1.973E-07:2.366E-01:0:0:0:0:0:5B7C:Probed at Torino, Iref = 4.036467e-06 with trim bits 7:No loaded to any board yet
TSMC_N2WX39-12A3:TSMC_N2WX39-12A3_3_9:3:9:1:yellow:4:1:Torino:0:0:0:none:Torino:4.010603e-06:9:1.206819:20:1.200202:17:0.9034728:8:0:8.020E-09:8.340E-02:6.633E-09:1.259E-01:0:0:0:0:0:5B39:Probed at Torino, Iref = 4.010603e-06 with trim bits 9:No loaded to any board yet
TSMC_N2WX39-12A3:TSMC_N2WX39-12A3_5_12:5:12:2:green:4:2:Torino:0:0:0:none:Torino:4.014824e-06:9:1.194794:19:1.20001:19:0.9016913:8:0:9.773E-09:7.589E-02:-2.400E-09:1.192E-01:0:0:0:0:0:5B5C:Probed at Torino, Iref = 4.014824e-06 with trim bits 9:No loaded to any board yet
TSMC_N2WX39-12A3:TSMC_N2WX39-12A3_8_10:8:10:2:green:4:2:Torino:0:0:0:none:Torino:4.021987e-06:9:1.197695:21:1.196868:15:0.899319:9:0:-3.267E-09:8.344E-02:-7.767E-09:1.258E-01:0:0:0:0:0:5B8A:Probed at Torino, Iref = 4.021987e-06 with trim bits 9:No loaded to any board yet
TSMC_N2WX39-12A3:TSMC_N2WX39-12A3_5_11:5:11:2:green:4:2:Torino:0:0:0:none:Torino:3.957709e-06:7:1.196105:25:1.201108:21:0.8981314:10:0:5.787E-09:8.243E-02:-4.467E-09:1.249E-01:0:0:0:0:0:5B5B:Probed at Torino, Iref = 3.957709e-06 with trim bits 7:No loaded to any board yet
TSMC_N2WX39-12A3:TSMC_N2WX39-12A3_6_12:6:12:10:red:4:10:Torino:0:0:0:none:Torino:0:0:0:0:0:0:0:0:0:0.000E+00:0.000E+00:0.000E+00:0.000E+00:0:0:0:0:0:5B6C:Probed at Torino, Iref = 0 with trim bits 0:No loaded to any board yet
TSMC_N2WX39-12A3:TSMC_N2WX39-12A3_9_10:9:10:1:yellow:4:1:Torino:0:0:0:none:Torino:3.977334e-06:7:1.192815:25:1.191311:23:0.8987899:10:0:7.057E-09:8.209E-02:1.163E-08:1.247E-01:0:0:0:0:0:5B9A:Probed at Torino, Iref = 3.977334e-06 with trim bits 7:No loaded to any board yet
TSMC_N2WX39-12A3:TSMC_N2WX39-12A3_6_9:6:9:2:green:4:2:Torino:0:0:0:none:Torino:3.996557e-06:9:1.199009:22:1.196483:22:0.8992794:8:0:9.600E-09:8.349E-02:7.200E-09:1.258E-01:0:0:0:0:0:5B69:Probed at Torino, Iref = 3.996557e-06 with trim bits 9:No loaded to any board yet
TSMC_N2WX39-12A3:TSMC_N2WX39-12A3_4_11:4:11:1:yellow:4:1:Torino:0:0:0:none:Torino:4.021353e-06:8:1.202718:26:1.199076:17:0.8998228:8:0:7.163E-09:8.056E-02:-1.120E-08:1.235E-01:0:0:0:0:0:5B4B:Probed at Torino, Iref = 4.021353e-06 with trim bits 8:No loaded to any board yet
TSMC_N2WX39-12A3:TSMC_N2WX39-12A3_2_10:2:10:2:green:4:2:Torino:0:0:0:none:Torino:4.057548e-06:8:1.200525:26:1.198066:18:0.9026721:10:0:2.092E-04:1.686E-02:2.107E-04:1.638E-02:0:0:0:0:0:5B2A:Probed at Torino, Iref = 4.057548e-06 with trim bits 8:No loaded to any board yet
TSMC_N2WX39-12A3:TSMC_N2WX39-12A3_4_12:4:12:2:green:4:2:Torino:0:0:0:none:Torino:4.040229e-06:9:1.200605:24:1.197147:18:0.8980697:7:0:5.603E-09:7.701E-02:-4.600E-09:1.201E-01:0:0:0:0:0:5B4C:Probed at Torino, Iref = 4.040229e-06 with trim bits 9:No loaded to any board yet
TSMC_N2WX39-12A3:TSMC_N2WX39-12A3_7_11:7:11:1:yellow:4:1:Torino:0:0:0:none:Torino:3.992705e-06:7:1.200676:28:1.196562:16:0.8997601:9:0:7.923E-09:8.316E-02:-2.010E-08:1.257E-01:0:0:0:0:0:5B7B:Probed at Torino, Iref = 3.992705e-06 with trim bits 7:No loaded to any board yet
TSMC_N2WX39-12A3:TSMC_N2WX39-12A3_9_9:9:9:2:green:4:2:Torino:0:0:0:none:Torino:3.940589e-06:7:1.197988:23:1.202827:19:0.902063:9:0:8.370E-09:7.915E-02:1.240E-08:1.222E-01:0:0:0:0:0:5B99:Probed at Torino, Iref = 3.940589e-06 with trim bits 7:No loaded to any board yet
TSMC_N2WX39-12A3:TSMC_N2WX39-12A3_6_11:6:11:2:green:4:2:Torino:0:0:0:none:Torino:3.953395e-06:7:1.199708:18:1.201037:22:0.9016863:9:0:1.298E-08:8.011E-02:-5.200E-09:1.230E-01:0:0:0:0:0:5B6B:Probed at Torino, Iref = 3.953395e-06 with trim bits 7:No loaded to any board yet
TSMC_N2WX39-12A3:TSMC_N2WX39-12A3_5_9:5:9:10:red:4:10:Torino:0:0:0:none:Torino:0:0:0:0:0:0:0:0:0:0.000E+00:0.000E+00:0.000E+00:0.000E+00:0:0:0:0:0:5B59:Probed at Torino, Iref = 0 with trim bits 0:No loaded to any board yet
TSMC_N2WX39-12A3:TSMC_N2WX39-12A3_8_11:8:11:2:green:4:2:Torino:0:0:0:none:Torino:3.995191e-06:8:1.201577:28:1.192188:23:0.8998337:12:0:-3.317E-09:7.754E-02:2.333E-09:1.206E-01:0:0:0:0:0:5B8B:Probed at Torino, Iref = 3.995191e-06 with trim bits 8:No loaded to any board yet
TSMC_N2WX39-12A3:TSMC_N2WX39-12A3_7_9:7:9:10:red:4:10:Torino:0:0:0:none:Torino:3.998114e-06:7:1.210274:24:1.196976:21:0.8995739:10:0:5.843E-09:8.498E-02:-1.177E-08:1.274E-01:0:0:0:0:0:5B79:Probed at Torino, Iref = 3.998114e-06 with trim bits 7:No loaded to any board yet
TSMC_N2WX39-12A3:TSMC_N2WX39-12A3_7_10:7:10:2:green:4:2:Torino:0:0:0:none:Torino:3.995161e-06:7:1.20621:24:1.198288:21:0.8983937:9:0:-4.567E-09:8.376E-02:4.667E-10:1.261E-01:0:0:0:0:0:5B7A:Probed at Torino, Iref = 3.995161e-06 with trim bits 7:No loaded to any board yet
TSMC_N2WX39-12A3:TSMC_N2WX39-12A3_6_10:6:10:2:green:4:2:Torino:0:0:0:none:Torino:3.983096e-06:8:1.204974:24:1.196455:17:0.8946474:7:0:3.540E-09:8.415E-02:1.933E-09:1.263E-01:0:0:0:0:0:5B6A:Probed at Torino, Iref = 3.983096e-06 with trim bits 8:No loaded to any board yet
TSMC_N2WX39-12A3:TSMC_N2WX39-12A3_4_10:4:10:2:green:4:2:Torino:0:0:0:none:Torino:4.040319e-06:10:1.198555:27:1.195897:17:0.8987252:10:0:4.730E-09:7.716E-02:5.667E-09:1.202E-01:0:0:0:0:0:5B4A:Probed at Torino, Iref = 4.040319e-06 with trim bits 10:No loaded to any board yet
TSMC_N2WX39-12A3:TSMC_N2WX39-12A3_10_7:10:7:2:green:4:2:Torino:0:0:0:none:Torino:4.018151e-06:7:1.203876:27:1.202637:19:0.901917:10:0:1.106E-08:8.374E-02:1.183E-08:1.264E-01:0:0:0:0:0:5BA7:Probed at Torino, Iref = 4.018151e-06 with trim bits 7:No loaded to any board yet
TSMC_N2WX39-12A3:TSMC_N2WX39-12A3_5_10:5:10:10:red:4:10:Torino:0:0:0:none:Torino:3.945875e-06:6:1.196463:23:1.199277:18:0.9030972:12:0:-9.827E-09:8.201E-02:-9.167E-09:1.248E-01:0:0:0:0:0:5B5A:Probed at Torino, Iref = 3.945875e-06 with trim bits 6:No loaded to any board yet
TSMC_N2WX39-12A3:TSMC_N2WX39-12A3_4_8:4:8:1:yellow:4:1:Torino:0:0:0:none:Torino:4.007786e-06:8:1.207141:26:1.202649:16:0.9018434:10:0:5.000E-11:8.174E-02:7.833E-09:1.246E-01:0:0:0:0:0:5B48:Probed at Torino, Iref = 4.007786e-06 with trim bits 8:No loaded to any board yet
TSMC_N2WX39-12A3:TSMC_N2WX39-12A3_3_10:3:10:2:green:4:2:Torino:0:0:0:none:Torino:3.944871e-06:7:1.199284:23:1.196274:16:0.8991842:10:0:8.390E-09:7.784E-02:-1.153E-08:1.209E-01:0:0:0:0:0:5B3A:Probed at Torino, Iref = 3.944871e-06 with trim bits 7:No loaded to any board yet
TSMC_N2WX39-12A3:TSMC_N2WX39-12A3_5_8:5:8:2:green:4:2:Torino:0:0:0:none:Torino:3.946376e-06:7:1.19562:21:1.203037:16:0.9015427:13:0:2.660E-09:8.233E-02:1.763E-08:1.249E-01:0:0:0:0:0:5B58:Probed at Torino, Iref = 3.946376e-06 with trim bits 7:No loaded to any board yet
TSMC_N2WX39-12A3:TSMC_N2WX39-12A3_2_9:2:9:2:green:4:2:Torino:0:0:0:none:Torino:4.000024e-06:11:1.199098:24:1.197222:18:0.8976175:11:0:-5.567E-09:7.946E-02:8.333E-10:1.222E-01:0:0:0:0:0:5B29:Probed at Torino, Iref = 4.000024e-06 with trim bits 11:No loaded to any board yet
TSMC_N2WX39-12A3:TSMC_N2WX39-12A3_9_8:9:8:10:red:4:10:Torino:0:0:0:none:Torino:0:0:0:0:0:0:0:0:0:0.000E+00:0.000E+00:0.000E+00:0.000E+00:0:0:0:0:0:5B98:Probed at Torino, Iref = 0 with trim bits 0:No loaded to any board yet
TSMC_N2WX39-12A3:TSMC_N2WX39-12A3_4_9:4:9:10:red:4:10:Torino:0:0:0:none:Torino:0:0:0:0:0:0:0:0:0:0.000E+00:0.000E+00:0.000E+00:0.000E+00:0:0:0:0:0:5B49:Probed at Torino, Iref = 0 with trim bits 0:No loaded to any board yet
TSMC_N2WX39-12A3:TSMC_N2WX39-12A3_7_8:7:8:2:green:4:2:Torino:0:0:0:none:Torino:3.999558e-06:8:1.205292:28:1.202051:22:0.8992866:7:0:1.102E-08:8.948E-02:-4.867E-09:1.312E-01:0:0:0:0:0:5B78:Probed at Torino, Iref = 3.999558e-06 with trim bits 8:No loaded to any board yet
TSMC_N2WX39-12A3:TSMC_N2WX39-12A3_3_8:3:8:2:green:4:2:Torino:0:0:0:none:Torino:4.017486e-06:9:1.20055:23:1.195228:17:0.8987431:10:0:-6.057E-09:8.194E-02:3.267E-09:1.245E-01:0:0:0:0:0:5B38:Probed at Torino, Iref = 4.017486e-06 with trim bits 9:No loaded to any board yet
TSMC_N2WX39-12A3:TSMC_N2WX39-12A3_8_9:8:9:2:green:4:2:Torino:0:0:0:none:Torino:3.958595e-06:6:1.200521:23:1.196412:18:0.8985395:11:0:7.113E-09:8.024E-02:5.767E-09:1.229E-01:0:0:0:0:0:5B89:Probed at Torino, Iref = 3.958595e-06 with trim bits 6:No loaded to any board yet
TSMC_N2WX39-12A3:TSMC_N2WX39-12A3_10_9:10:9:10:red:4:10:Torino:0:0:0:none:Torino:0:0:0:0:0:0:0:0:0:0.000E+00:0.000E+00:0.000E+00:0.000E+00:0:0:0:0:0:5BA9:Probed at Torino, Iref = 0 with trim bits 0:No loaded to any board yet
TSMC_N2WX39-12A3:TSMC_N2WX39-12A3_6_7:6:7:2:green:4:2:Torino:0:0:0:none:Torino:4.048401e-06:8:1.188175:23:1.199696:23:0.8998613:9:0:5.033E-09:7.936E-02:7.600E-09:1.222E-01:0:0:0:0:0:5B67:Probed at Torino, Iref = 4.048401e-06 with trim bits 8:No loaded to any board yet
TSMC_N2WX39-12A3:TSMC_N2WX39-12A3_10_8:10:8:1:yellow:4:1:Torino:0:0:0:none:Torino:3.966479e-06:7:1.208576:30:1.200243:14:0.9007712:10:0:2.580E-09:7.932E-02:0.000E+00:1.222E-01:0:0:0:0:0:5BA8:Probed at Torino, Iref = 3.966479e-06 with trim bits 7:No loaded to any board yet
TSMC_N2WX39-12A3:TSMC_N2WX39-12A3_1_8:1:8:2:green:4:2:Torino:0:0:0:none:Torino:3.991135e-06:7:1.198993:23:1.189062:23:0.9040971:8:0:3.400E-09:7.728E-02:3.833E-09:1.207E-01:0:0:0:0:0:5B18:Probed at Torino, Iref = 3.991135e-06 with trim bits 7:No loaded to any board yet
TSMC_N2WX39-12A3:TSMC_N2WX39-12A3_8_8:8:8:2:green:4:2:Torino:0:0:0:none:Torino:4.021272e-06:9:1.196828:25:1.200827:19:0.8986856:10:0:4.973E-09:8.230E-02:2.233E-09:1.247E-01:0:0:0:0:0:5B88:Probed at Torino, Iref = 4.021272e-06 with trim bits 9:No loaded to any board yet
TSMC_N2WX39-12A3:TSMC_N2WX39-12A3_4_7:4:7:2:green:4:2:Torino:0:0:0:none:Torino:3.974091e-06:9:1.191032:23:1.197578:24:0.8981158:10:0:2.833E-10:8.536E-02:2.933E-09:1.275E-01:0:0:0:0:0:5B47:Probed at Torino, Iref = 3.974091e-06 with trim bits 9:No loaded to any board yet
TSMC_N2WX39-12A3:TSMC_N2WX39-12A3_6_8:6:8:2:green:4:2:Torino:0:0:0:none:Torino:3.959316e-06:6:1.187313:23:1.193956:17:0.9054995:8:0:3.593E-09:8.994E-02:2.967E-09:1.319E-01:0:0:0:0:0:5B68:Probed at Torino, Iref = 3.959316e-06 with trim bits 6:No loaded to any board yet
TSMC_N2WX39-12A3:TSMC_N2WX39-12A3_2_7:2:7:2:green:4:2:Torino:0:0:0:none:Torino:3.962256e-06:9:1.205828:22:1.20123:23:0.9020271:10:0:-8.233E-09:8.404E-02:-8.900E-09:1.265E-01:0:0:0:0:0:5B27:Probed at Torino, Iref = 3.962256e-06 with trim bits 9:No loaded to any board yet
TSMC_N2WX39-12A3:TSMC_N2WX39-12A3_6_5:6:5:1:yellow:4:1:Torino:0:0:0:none:Torino:4.052047e-06:8:1.205485:28:1.196626:19:0.9004977:7:0:-2.860E-09:8.542E-02:1.593E-08:1.275E-01:0:0:0:0:0:5B65:Probed at Torino, Iref = 4.052047e-06 with trim bits 8:No loaded to any board yet
TSMC_N2WX39-12A3:TSMC_N2WX39-12A3_2_8:2:8:10:red:4:10:Torino:0:0:0:none:Torino:3.962846e-06:6:1.203287:21:1.204776:22:0.9035558:10:0:4.017E-09:8.163E-02:-5.600E-09:1.245E-01:0:0:0:0:0:5B28:Probed at Torino, Iref = 3.962846e-06 with trim bits 6:No loaded to any board yet
TSMC_N2WX39-12A3:TSMC_N2WX39-12A3_7_7:7:7:2:green:4:2:Torino:0:0:0:none:Torino:4.05215e-06:8:1.203069:20:1.202312:20:0.8959399:11:0:-6.200E-10:7.400E-02:1.083E-08:1.172E-01:0:0:0:0:0:5B77:Probed at Torino, Iref = 4.05215e-06 with trim bits 8:No loaded to any board yet
TSMC_N2WX39-12A3:TSMC_N2WX39-12A3_10_5:10:5:10:red:4:10:Torino:0:0:0:none:Torino:3.983577e-06:8:1.192954:23:1.19931:17:0.8962555:7:0:-8.113E-09:8.420E-02:-2.733E-09:1.266E-01:0:0:0:0:0:5BA5:Probed at Torino, Iref = 3.983577e-06 with trim bits 8:No loaded to any board yet
TSMC_N2WX39-12A3:TSMC_N2WX39-12A3_1_7:1:7:2:green:4:2:Torino:0:0:0:none:Torino:3.947042e-06:5:1.200217:17:1.202555:26:0.8952467:11:0:1.134E-08:7.513E-02:-1.833E-09:1.183E-01:0:0:0:0:0:5B17:Probed at Torino, Iref = 3.947042e-06 with trim bits 5:No loaded to any board yet
TSMC_N2WX39-12A3:TSMC_N2WX39-12A3_10_6:10:6:2:green:4:2:Torino:0:0:0:none:Torino:3.937282e-06:6:1.197449:26:1.205903:18:0.9006269:11:0:-1.453E-09:8.142E-02:1.023E-08:1.243E-01:0:0:0:0:0:5BA6:Probed at Torino, Iref = 3.937282e-06 with trim bits 6:No loaded to any board yet
TSMC_N2WX39-12A3:TSMC_N2WX39-12A3_3_6:3:6:2:green:4:2:Torino:0:0:0:none:Torino:4.046458e-06:7:1.201959:21:1.201608:21:0.9027516:10:0:6.850E-09:8.329E-02:-5.400E-09:1.259E-01:0:0:0:0:0:5B36:Probed at Torino, Iref = 4.046458e-06 with trim bits 7:No loaded to any board yet
TSMC_N2WX39-12A3:TSMC_N2WX39-12A3_3_7:3:7:2:green:4:2:Torino:0:0:0:none:Torino:4.053118e-06:9:1.196627:20:1.201117:26:0.9005541:11:0:1.227E-09:8.583E-02:2.187E-08:1.280E-01:0:0:0:0:0:5B37:Probed at Torino, Iref = 4.053118e-06 with trim bits 9:No loaded to any board yet
TSMC_N2WX39-12A3:TSMC_N2WX39-12A3_8_6:8:6:10:red:4:10:Torino:0:0:0:none:Torino:4.011408e-06:13:1.195741:21:1.201161:20:0.8995352:9:0:1.853E-08:9.379E-02:-1.150E-08:1.350E-01:0:0:0:0:0:5B86:Probed at Torino, Iref = 4.011408e-06 with trim bits 13:No loaded to any board yet
TSMC_N2WX39-12A3:TSMC_N2WX39-12A3_8_7:8:7:2:green:4:2:Torino:0:0:0:none:Torino:3.970649e-06:7:1.206063:22:1.200379:17:0.9018946:9:0:8.333E-10:8.163E-02:-4.367E-09:1.244E-01:0:0:0:0:0:5B87:Probed at Torino, Iref = 3.970649e-06 with trim bits 7:No loaded to any board yet
TSMC_N2WX39-12A3:TSMC_N2WX39-12A3_5_7:5:7:1:yellow:4:1:Torino:0:0:0:none:Torino:3.991397e-06:7:1.210956:24:1.199875:25:0.9019623:12:0:-4.667E-10:7.488E-02:-2.533E-09:1.182E-01:0:0:0:0:0:5B57:Probed at Torino, Iref = 3.991397e-06 with trim bits 7:No loaded to any board yet
TSMC_N2WX39-12A3:TSMC_N2WX39-12A3_4_6:4:6:1:yellow:4:1:Torino:0:0:0:none:Torino:4.043876e-06:8:1.193891:23:1.200784:14:0.8998325:12:0:4.947E-09:8.245E-02:-1.367E-09:1.252E-01:0:0:0:0:0:5B46:Probed at Torino, Iref = 4.043876e-06 with trim bits 8:No loaded to any board yet
TSMC_N2WX39-12A3:TSMC_N2WX39-12A3_6_2:6:2:1:yellow:4:1:Torino:0:0:0:none:Torino:3.993994e-06:9:1.190837:23:1.207569:20:0.898636:11:0:-7.233E-09:1.020E-01:-1.533E-08:1.422E-01:0:0:0:0:0:5B62:Probed at Torino, Iref = 3.993994e-06 with trim bits 9:No loaded to any board yet
TSMC_N2WX39-12A3:TSMC_N2WX39-12A3_9_7:9:7:2:green:4:2:Torino:0:0:0:none:Torino:4.047831e-06:10:1.196552:22:1.201315:23:0.899397:10:0:1.003E-08:7.627E-02:3.000E-10:1.195E-01:0:0:0:0:0:5B97:Probed at Torino, Iref = 4.047831e-06 with trim bits 10:No loaded to any board yet
TSMC_N2WX39-12A3:TSMC_N2WX39-12A3_9_4:9:4:10:red:4:10:Torino:0:0:0:none:Torino:3.957245e-06:5:1.133628:8:1.175654:9:0.8835942:18:0:3.566E-06:5.445E-01:-2.477E-07:1.309E-01:0:0:0:0:0:5B94:Probed at Torino, Iref = 3.957245e-06 with trim bits 5:No loaded to any board yet
TSMC_N2WX39-12A3:TSMC_N2WX39-12A3_9_6:9:6:10:red:4:10:Torino:0:0:0:none:Torino:4.000299e-06:7:1.306404:15:1.125473:1:0.8401482:21:0:-5.133E-09:8.927E-02:-9.333E-10:1.282E-01:0:0:0:0:0:5B96:Probed at Torino, Iref = 4.000299e-06 with trim bits 7:No loaded to any board yet
TSMC_N2WX39-12A3:TSMC_N2WX39-12A3_6_6:6:6:2:green:4:2:Torino:0:0:0:none:Torino:4.057516e-06:8:1.199744:25:1.20249:23:0.905581:8:0:-7.033E-10:8.811E-02:-1.800E-09:1.303E-01:0:0:0:0:0:5B66:Probed at Torino, Iref = 4.057516e-06 with trim bits 8:No loaded to any board yet
TSMC_N2WX39-12A3:TSMC_N2WX39-12A3_5_6:5:6:2:green:4:2:Torino:0:0:0:none:Torino:4.031791e-06:6:1.206487:20:1.196999:19:0.9020032:10:0:4.610E-09:7.834E-02:4.550E-06:6.610E-01:0:0:0:0:0:5B56:Probed at Torino, Iref = 4.031791e-06 with trim bits 6:No loaded to any board yet
TSMC_N2WX39-12A3:TSMC_N2WX39-12A3_4_4:4:4:10:red:4:10:Torino:0:0:0:none:Torino:0:0:0:0:0:0:0:0:0:0.000E+00:0.000E+00:0.000E+00:0.000E+00:0:0:0:0:0:5B44:Probed at Torino, Iref = 0 with trim bits 0:No loaded to any board yet
TSMC_N2WX39-12A3:TSMC_N2WX39-12A3_7_6:7:6:2:green:4:2:Torino:0:0:0:none:Torino:4.014445e-06:7:1.204606:26:1.207505:20:0.9013578:8:0:-2.033E-09:8.514E-02:-2.033E-09:1.276E-01:0:0:0:0:0:5B76:Probed at Torino, Iref = 4.014445e-06 with trim bits 7:No loaded to any board yet
TSMC_N2WX39-12A3:TSMC_N2WX39-12A3_2_6:2:6:10:red:4:10:Torino:0:0:0:none:Torino:3.965544e-06:8:1.193639:25:1.198691:18:0.9033819:8:0:-7.653E-09:8.653E-02:-4.567E-09:1.289E-01:0:0:0:0:0:5B26:Probed at Torino, Iref = 3.965544e-06 with trim bits 8:No loaded to any board yet
TSMC_N2WX39-12A3:TSMC_N2WX39-12A3_2_5:2:5:10:red:4:10:Torino:0:0:0:none:Torino:3.987419e-06:11:1.309875:7:1.348239:22:0.8342652:12:0:1.011E-08:7.902E-02:-3.170E-08:1.187E-01:0:0:0:0:0:5B25:Probed at Torino, Iref = 3.987419e-06 with trim bits 11:No loaded to any board yet
TSMC_N2WX39-12A3:TSMC_N2WX39-12A3_3_5:3:5:2:green:4:2:Torino:0:0:0:none:Torino:3.986529e-06:9:1.201921:25:1.197666:21:0.9012224:10:0:5.833E-09:8.441E-02:5.333E-09:1.269E-01:0:0:0:0:0:5B35:Probed at Torino, Iref = 3.986529e-06 with trim bits 9:No loaded to any board yet
TSMC_N2WX39-12A3:TSMC_N2WX39-12A3_6_3:6:3:2:green:4:2:Torino:0:0:0:none:Torino:4.008641e-06:7:1.195673:17:1.199519:21:0.9027236:10:0:1.961E-08:8.922E-02:2.267E-09:1.311E-01:0:0:0:0:0:5B63:Probed at Torino, Iref = 4.008641e-06 with trim bits 7:No loaded to any board yet
TSMC_N2WX39-12A3:TSMC_N2WX39-12A3_1_6:1:6:2:green:4:2:Torino:0:0:0:none:Torino:4.053812e-06:9:1.197318:18:1.195934:28:0.8987761:9:0:-2.700E-09:7.924E-02:2.400E-09:1.222E-01:0:0:0:0:0:5B16:Probed at Torino, Iref = 4.053812e-06 with trim bits 9:No loaded to any board yet
TSMC_N2WX39-12A3:TSMC_N2WX39-12A3_4_5:4:5:2:green:4:2:Torino:0:0:0:none:Torino:4.041394e-06:10:1.206266:20:1.197682:20:0.8996999:8:0:4.120E-09:8.669E-02:-3.400E-09:1.289E-01:0:0:0:0:0:5B45:Probed at Torino, Iref = 4.041394e-06 with trim bits 10:No loaded to any board yet
TSMC_N2WX39-12A3:TSMC_N2WX39-12A3_7_3:7:3:10:red:4:10:Torino:0:0:0:none:Torino:0:0:0:0:0:0:0:0:0:0.000E+00:0.000E+00:0.000E+00:0.000E+00:0:0:0:0:0:5B73:Probed at Torino, Iref = 0 with trim bits 0:No loaded to any board yet
TSMC_N2WX39-12A3:TSMC_N2WX39-12A3_5_5:5:5:2:green:4:2:Torino:0:0:0:none:Torino:4.004204e-06:9:1.200549:24:1.19665:17:0.8969808:9:0:-6.703E-09:8.758E-02:1.213E-08:1.295E-01:0:0:0:0:0:5B55:Probed at Torino, Iref = 4.004204e-06 with trim bits 9:No loaded to any board yet
TSMC_N2WX39-12A3:TSMC_N2WX39-12A3_8_5:8:5:2:green:4:2:Torino:0:0:0:none:Torino:4.060919e-06:8:1.201248:30:1.199162:20:0.8987124:9:0:1.307E-08:8.364E-02:1.047E-08:1.260E-01:0:0:0:0:0:5B85:Probed at Torino, Iref = 4.060919e-06 with trim bits 8:No loaded to any board yet
TSMC_N2WX39-12A3:TSMC_N2WX39-12A3_7_4:7:4:2:green:4:2:Torino:0:0:0:none:Torino:4.042797e-06:7:1.20241:23:1.201594:22:0.8963649:11:0:-4.947E-09:9.182E-02:-1.993E-08:1.331E-01:0:0:0:0:0:5B74:Probed at Torino, Iref = 4.042797e-06 with trim bits 7:No loaded to any board yet
TSMC_N2WX39-12A3:TSMC_N2WX39-12A3_7_5:7:5:2:green:4:2:Torino:0:0:0:none:Torino:4.039434e-06:7:1.200121:21:1.193434:19:0.8947683:7:0:1.917E-09:9.211E-02:7.933E-09:1.331E-01:0:0:0:0:0:5B75:Probed at Torino, Iref = 4.039434e-06 with trim bits 7:No loaded to any board yet
TSMC_N2WX39-12A3:TSMC_N2WX39-12A3_9_5:9:5:2:green:4:2:Torino:0:0:0:none:Torino:3.940798e-06:7:1.199813:22:1.197809:19:0.9009702:9:0:8.130E-09:8.478E-02:-1.443E-08:1.274E-01:0:0:0:0:0:5B95:Probed at Torino, Iref = 3.940798e-06 with trim bits 7:No loaded to any board yet
TSMC_N2WX39-12A3:TSMC_N2WX39-12A3_5_1:5:1:1:yellow:4:1:Torino:0:0:0:none:Torino:4.051884e-06:5:1.199277:19:1.203094:19:0.9033891:12:0:-1.470E-09:8.850E-02:-1.167E-09:1.307E-01:0:0:0:0:0:5B51:Probed at Torino, Iref = 4.051884e-06 with trim bits 5:No loaded to any board yet
TSMC_N2WX39-12A3:TSMC_N2WX39-12A3_8_4:8:4:10:red:4:10:Torino:0:0:0:none:Torino:4.055032e-06:8:1.203984:21:1.20349:21:0.8953953:7:0:-1.640E-09:8.635E-02:1.900E-09:1.283E-01:0:0:0:0:0:5B84:Probed at Torino, Iref = 4.055032e-06 with trim bits 8:No loaded to any board yet
TSMC_N2WX39-12A3:TSMC_N2WX39-12A3_8_2:8:2:2:green:4:2:Torino:0:0:0:none:Torino:4.045666e-06:8:1.197781:21:1.205544:18:0.9031327:10:0:4.677E-09:8.690E-02:-8.800E-09:1.293E-01:0:0:0:0:0:5B82:Probed at Torino, Iref = 4.045666e-06 with trim bits 8:No loaded to any board yet
TSMC_N2WX39-12A3:TSMC_N2WX39-12A3_6_4:6:4:2:green:4:2:Torino:0:0:0:none:Torino:3.970615e-06:7:1.208543:20:1.199221:16:0.8968934:7:0:4.503E-09:9.528E-02:-2.537E-08:1.362E-01:0:0:0:0:0:5B64:Probed at Torino, Iref = 3.970615e-06 with trim bits 7:No loaded to any board yet
TSMC_N2WX39-12A3:TSMC_N2WX39-12A3_2_3:2:3:10:red:4:10:Torino:0:0:0:none:Torino:0:0:0:0:0:0:0:0:0:0.000E+00:0.000E+00:0.000E+00:0.000E+00:0:0:0:0:0:5B23:Probed at Torino, Iref = 0 with trim bits 0:No loaded to any board yet
TSMC_N2WX39-12A3:TSMC_N2WX39-12A3_5_4:5:4:1:yellow:4:1:Torino:0:0:0:none:Torino:3.98342e-06:9:1.201408:21:1.197261:18:0.8956369:7:0:6.660E-09:9.756E-02:1.667E-09:1.383E-01:0:0:0:0:0:5B54:Probed at Torino, Iref = 3.98342e-06 with trim bits 9:No loaded to any board yet
TSMC_N2WX39-12A3:TSMC_N2WX39-12A3_2_4:2:4:2:green:4:2:Torino:0:0:0:none:Torino:3.993497e-06:10:1.196537:20:1.196777:20:0.8979775:9:0:1.373E-09:8.342E-02:-5.200E-09:1.259E-01:0:0:0:0:0:5B24:Probed at Torino, Iref = 3.993497e-06 with trim bits 10:No loaded to any board yet
TSMC_N2WX39-12A3:TSMC_N2WX39-12A3_3_3:3:3:2:green:4:2:Torino:0:0:0:none:Torino:3.974788e-06:6:1.198864:21:1.203058:22:0.8984269:12:0:3.790E-09:8.550E-02:-1.350E-08:1.279E-01:0:0:0:0:0:5B33:Probed at Torino, Iref = 3.974788e-06 with trim bits 6:No loaded to any board yet
TSMC_N2WX39-12A3:TSMC_N2WX39-12A3_9_3:9:3:1:yellow:4:1:Torino:0:0:0:none:Torino:4.026055e-06:9:1.196501:21:1.203522:20:0.8984386:0:0:-3.657E-07:1.365E-01:-2.260E-08:1.660E-01:0:0:0:0:0:5B93:Probed at Torino, Iref = 4.026055e-06 with trim bits 9:No loaded to any board yet
TSMC_N2WX39-12A3:TSMC_N2WX39-12A3_4_3:4:3:2:green:4:2:Torino:0:0:0:none:Torino:4.030897e-06:9:1.19888:19:1.199172:19:0.8985728:11:0:5.233E-09:8.958E-02:-5.200E-09:1.313E-01:0:0:0:0:0:5B43:Probed at Torino, Iref = 4.030897e-06 with trim bits 9:No loaded to any board yet
TSMC_N2WX39-12A3:TSMC_N2WX39-12A3_7_2:7:2:1:yellow:4:1:Torino:0:0:0:none:Torino:4.043222e-06:9:1.205131:16:1.207666:20:0.9016016:2:0:-5.208E-07:1.412E-01:-2.582E-06:-6.651E-02:0:0:0:0:0:5B72:Probed at Torino, Iref = 4.043222e-06 with trim bits 9:No loaded to any board yet
TSMC_N2WX39-12A3:TSMC_N2WX39-12A3_5_3:5:3:2:green:4:2:Torino:0:0:0:none:Torino:3.948808e-06:9:1.203356:21:1.203056:23:0.9031295:8:0:7.663E-09:9.028E-02:-4.333E-10:1.321E-01:0:0:0:0:0:5B53:Probed at Torino, Iref = 3.948808e-06 with trim bits 9:No loaded to any board yet
TSMC_N2WX39-12A3:TSMC_N2WX39-12A3_5_2:5:2:1:yellow:4:1:Torino:0:0:0:none:Torino:3.996669e-06:7:1.206434:16:1.198311:22:0.8988374:9:0:-4.347E-09:9.781E-02:-1.333E-09:1.385E-01:0:0:0:0:0:5B52:Probed at Torino, Iref = 3.996669e-06 with trim bits 7:No loaded to any board yet
TSMC_N2WX39-12A3:TSMC_N2WX39-12A3_3_4:3:4:2:green:4:2:Torino:0:0:0:none:Torino:3.969839e-06:8:1.203963:19:1.202135:26:0.8984662:9:0:1.138E-08:8.581E-02:2.467E-09:1.280E-01:0:0:0:0:0:5B34:Probed at Torino, Iref = 3.969839e-06 with trim bits 8:No loaded to any board yet
TSMC_N2WX39-12A3:TSMC_N2WX39-12A3_4_2:4:2:10:red:4:10:Torino:0:0:0:none:Torino:0:0:0:0:0:0:0:0:0:0.000E+00:0.000E+00:0.000E+00:0.000E+00:0:0:0:0:0:5B42:Probed at Torino, Iref = 0 with trim bits 0:No loaded to any board yet
TSMC_N2WX39-12A3:TSMC_N2WX39-12A3_8_3:8:3:1:yellow:4:1:Torino:0:0:0:none:Torino:4.044859e-06:8:1.20419:24:1.21024:24:0.9021523:10:0:-1.393E-09:9.363E-02:7.067E-09:1.349E-01:0:0:0:0:0:5B83:Probed at Torino, Iref = 4.044859e-06 with trim bits 8:No loaded to any board yet
TSMC_N2WX39-12A3:TSMC_N2WX39-12A3_6_1:6:1:1:yellow:4:1:Torino:0:0:0:none:Torino:3.941873e-06:7:1.205133:24:1.202942:18:0.9026549:12:0:3.827E-09:8.995E-02:3.833E-09:1.317E-01:0:0:0:0:0:5B61:Probed at Torino, Iref = 3.941873e-06 with trim bits 7:No loaded to any board yet
