%CMSwaferCode:CMSchipCode:ChipColumn:ChipRow:Grading:Color:CutVersion:Status:Location:ChipBoardType:BoardNumber:Dose:Sensor:ProbingSite:Iref:IrefTrim:Vref_A:Vref_A_Trim:Vref_D:Vref_D_Trim:Vref_ADC:Vref_ADC_Trim:MON_ADC_Trim:VCAL_HIGH_slope:VCAL_HIGH_offset:VCAL_MED_slope:VCAL_MED_offset:TrefTsensors:Nf1:Nf2:Nf3:Nf4:RD53chipID:Comment:BoardComment:
TSMC_N2WX39-09B0:TSMC_N2WX39-09B0_9_7:9:7:1:yellow:4:1:CERN:0:0:0:none:CERN:4.055202e-06:9:1.194144:23:1.19677:15:0.901561:15:0:2.101E-04:1.125E-02:2.117E-04:1.071E-02:0:0:0:0:0:5897:Probed at CERN, Iref = 4.055202e-06 with trim bits 9:No loaded to any board yet
TSMC_N2WX39-09B0:TSMC_N2WX39-09B0_10_6:10:6:1:yellow:4:1:CERN:0:0:0:none:CERN:4.01211e-06:9:1.191741:27:1.200497:17:0.9018188:12:0:2.097E-04:1.143E-02:2.115E-04:1.093E-02:0:0:0:0:0:58A6:Probed at CERN, Iref = 4.01211e-06 with trim bits 9:No loaded to any board yet
TSMC_N2WX39-09B0:TSMC_N2WX39-09B0_9_4:9:4:1:yellow:4:1:CERN:0:0:0:none:CERN:4.021473e-06:10:1.203523:26:1.212628:24:0.9008653:11:0:2.098E-04:1.096E-02:2.114E-04:1.032E-02:0:0:0:0:0:5894:Probed at CERN, Iref = 4.021473e-06 with trim bits 10:No loaded to any board yet
TSMC_N2WX39-09B0:TSMC_N2WX39-09B0_10_7:10:7:10:red:4:10:CERN:0:0:0:none:CERN:0:0:0:0:0:0:0:0:0:0.000E+00:0.000E+00:0.000E+00:0.000E+00:0:0:0:0:0:58A7:Probed at CERN, Iref = 0 with trim bits 0:No loaded to any board yet
TSMC_N2WX39-09B0:TSMC_N2WX39-09B0_5_6:5:6:1:yellow:4:1:CERN:0:0:0:none:CERN:3.96006e-06:8:1.202184:23:1.197235:27:0.8970182:11:0:2.084E-04:1.143E-02:2.098E-04:1.100E-02:0:0:0:0:0:5856:Probed at CERN, Iref = 3.96006e-06 with trim bits 8:No loaded to any board yet
TSMC_N2WX39-09B0:TSMC_N2WX39-09B0_9_6:9:6:2:green:4:2:CERN:0:0:0:none:CERN:3.987187e-06:6:1.196981:22:1.209859:16:0.8974029:13:0:2.088E-04:1.066E-02:2.103E-04:1.035E-02:0:0:0:0:0:5896:Probed at CERN, Iref = 3.987187e-06 with trim bits 6:No loaded to any board yet
TSMC_N2WX39-09B0:TSMC_N2WX39-09B0_8_6:8:6:1:yellow:4:1:CERN:0:0:0:none:CERN:4.031107e-06:7:1.198836:28:1.206238:18:0.9009652:12:0:2.097E-04:1.138E-02:2.112E-04:1.094E-02:0:0:0:0:0:5886:Probed at CERN, Iref = 4.031107e-06 with trim bits 7:No loaded to any board yet
TSMC_N2WX39-09B0:TSMC_N2WX39-09B0_4_6:4:6:2:green:4:2:CERN:0:0:0:none:CERN:4.037072e-06:9:1.205053:26:1.194921:23:0.899044:9:0:2.093E-04:1.125E-02:2.107E-04:1.082E-02:0:0:0:0:0:5846:Probed at CERN, Iref = 4.037072e-06 with trim bits 9:No loaded to any board yet
TSMC_N2WX39-09B0:TSMC_N2WX39-09B0_8_5:8:5:2:green:4:2:CERN:0:0:0:none:CERN:3.998846e-06:8:1.205245:24:1.200873:18:0.9019517:15:0:2.098E-04:1.095E-02:2.115E-04:1.050E-02:0:0:0:0:0:5885:Probed at CERN, Iref = 3.998846e-06 with trim bits 8:No loaded to any board yet
TSMC_N2WX39-09B0:TSMC_N2WX39-09B0_1_6:1:6:2:green:4:2:CERN:0:0:0:none:CERN:4.030932e-06:10:1.200765:20:1.199653:23:0.8992466:14:0:2.099E-04:1.143E-02:2.112E-04:1.107E-02:0:0:0:0:0:5816:Probed at CERN, Iref = 4.030932e-06 with trim bits 10:No loaded to any board yet
TSMC_N2WX39-09B0:TSMC_N2WX39-09B0_3_6:3:6:2:green:4:2:CERN:0:0:0:none:CERN:4.055079e-06:9:1.196315:25:1.2056:20:0.897785:15:0:2.089E-04:1.057E-02:2.105E-04:1.019E-02:0:0:0:0:0:5836:Probed at CERN, Iref = 4.055079e-06 with trim bits 9:No loaded to any board yet
TSMC_N2WX39-09B0:TSMC_N2WX39-09B0_2_6:2:6:1:yellow:4:1:CERN:0:0:0:none:CERN:3.965601e-06:10:1.206607:24:1.193787:21:0.9011217:12:0:2.102E-04:1.079E-02:2.116E-04:1.050E-02:0:0:0:0:0:5826:Probed at CERN, Iref = 3.965601e-06 with trim bits 10:No loaded to any board yet
TSMC_N2WX39-09B0:TSMC_N2WX39-09B0_4_5:4:5:10:red:4:10:CERN:0:0:0:none:CERN:4.01325e-06:10:1.198366:24:1.192865:23:0.9038439:12:0:2.103E-04:1.147E-02:2.116E-04:1.103E-02:0:0:0:0:0:5845:Probed at CERN, Iref = 4.01325e-06 with trim bits 10:No loaded to any board yet
TSMC_N2WX39-09B0:TSMC_N2WX39-09B0_7_5:7:5:2:green:4:2:CERN:0:0:0:none:CERN:3.981061e-06:8:1.205952:24:1.202124:21:0.8947909:11:0:2.082E-04:1.113E-02:2.097E-04:1.067E-02:0:0:0:0:0:5875:Probed at CERN, Iref = 3.981061e-06 with trim bits 8:No loaded to any board yet
TSMC_N2WX39-09B0:TSMC_N2WX39-09B0_4_12:4:12:2:green:4:2:CERN:0:0:0:none:CERN:3.982731e-06:7:1.202037:24:1.201782:16:0.9016153:8:0:2.092E-04:1.585E-02:2.107E-04:1.545E-02:0:0:0:0:0:584C:Probed at CERN, Iref = 3.982731e-06 with trim bits 7:No loaded to any board yet
TSMC_N2WX39-09B0:TSMC_N2WX39-09B0_3_11:3:11:2:green:4:2:CERN:0:0:0:none:CERN:3.995427e-06:8:1.196445:22:1.202363:22:0.8990985:11:0:2.089E-04:1.544E-02:2.102E-04:1.510E-02:0:0:0:0:0:583B:Probed at CERN, Iref = 3.995427e-06 with trim bits 8:No loaded to any board yet
TSMC_N2WX39-09B0:TSMC_N2WX39-09B0_4_11:4:11:1:yellow:4:1:CERN:0:0:0:none:CERN:3.972569e-06:7:1.19866:27:1.204357:21:0.8967444:11:0:2.084E-04:1.422E-02:2.099E-04:1.383E-02:0:0:0:0:0:584B:Probed at CERN, Iref = 3.972569e-06 with trim bits 7:No loaded to any board yet
TSMC_N2WX39-09B0:TSMC_N2WX39-09B0_5_11:5:11:2:green:4:2:CERN:0:0:0:none:CERN:3.952852e-06:10:1.199905:21:1.203511:23:0.9014475:12:0:2.090E-04:1.493E-02:2.106E-04:1.465E-02:0:0:0:0:0:585B:Probed at CERN, Iref = 3.952852e-06 with trim bits 10:No loaded to any board yet
TSMC_N2WX39-09B0:TSMC_N2WX39-09B0_6_11:6:11:1:yellow:4:1:CERN:0:0:0:none:CERN:3.959671e-06:10:1.197512:29:1.198392:20:0.8949879:11:0:2.073E-04:1.602E-02:2.088E-04:1.552E-02:0:0:0:0:0:586B:Probed at CERN, Iref = 3.959671e-06 with trim bits 10:No loaded to any board yet
TSMC_N2WX39-09B0:TSMC_N2WX39-09B0_7_11:7:11:2:green:4:2:CERN:0:0:0:none:CERN:4.048699e-06:11:1.203645:27:1.194564:17:0.901298:14:0:2.089E-04:1.520E-02:2.102E-04:1.472E-02:0:0:0:0:0:587B:Probed at CERN, Iref = 4.048699e-06 with trim bits 11:No loaded to any board yet
TSMC_N2WX39-09B0:TSMC_N2WX39-09B0_8_11:8:11:1:yellow:4:1:CERN:0:0:0:none:CERN:3.933658e-06:7:1.197298:28:1.199412:18:0.8998098:13:0:2.093E-04:1.376E-02:2.109E-04:1.336E-02:0:0:0:0:0:588B:Probed at CERN, Iref = 3.933658e-06 with trim bits 7:No loaded to any board yet
TSMC_N2WX39-09B0:TSMC_N2WX39-09B0_9_10:9:10:1:yellow:4:1:CERN:0:0:0:none:CERN:3.949044e-06:8:1.190834:23:1.18903:15:0.8994735:12:0:2.094E-04:1.286E-02:2.110E-04:1.231E-02:0:0:0:0:0:589A:Probed at CERN, Iref = 3.949044e-06 with trim bits 8:No loaded to any board yet
TSMC_N2WX39-09B0:TSMC_N2WX39-09B0_8_10:8:10:1:yellow:4:1:CERN:0:0:0:none:CERN:4.044613e-06:9:1.198935:22:1.194718:21:0.8997388:12:0:2.093E-04:1.310E-02:2.107E-04:1.292E-02:0:0:0:0:0:588A:Probed at CERN, Iref = 4.044613e-06 with trim bits 9:No loaded to any board yet
TSMC_N2WX39-09B0:TSMC_N2WX39-09B0_7_10:7:10:10:red:4:10:CERN:0:0:0:none:CERN:4.008182e-06:12:1.204541:31:1.195707:17:0.9015378:11:0:2.088E-04:1.501E-02:2.103E-04:1.456E-02:0:0:0:0:0:587A:Probed at CERN, Iref = 4.008182e-06 with trim bits 12:No loaded to any board yet
TSMC_N2WX39-09B0:TSMC_N2WX39-09B0_6_10:6:10:1:yellow:4:1:CERN:0:0:0:none:CERN:3.986431e-06:10:1.196963:28:1.196734:21:0.9022824:14:0:2.100E-04:1.357E-02:2.114E-04:1.332E-02:0:0:0:0:0:586A:Probed at CERN, Iref = 3.986431e-06 with trim bits 10:No loaded to any board yet
TSMC_N2WX39-09B0:TSMC_N2WX39-09B0_5_10:5:10:1:yellow:4:1:CERN:0:0:0:none:CERN:4.002138e-06:7:1.19637:21:1.200062:17:0.8994195:14:0:2.090E-04:1.331E-02:2.104E-04:1.302E-02:0:0:0:0:0:585A:Probed at CERN, Iref = 4.002138e-06 with trim bits 7:No loaded to any board yet
TSMC_N2WX39-09B0:TSMC_N2WX39-09B0_4_10:4:10:1:yellow:4:1:CERN:0:0:0:none:CERN:4.039163e-06:8:1.203238:26:1.204373:19:0.898299:13:0:2.086E-04:1.276E-02:2.101E-04:1.247E-02:0:0:0:0:0:584A:Probed at CERN, Iref = 4.039163e-06 with trim bits 8:No loaded to any board yet
TSMC_N2WX39-09B0:TSMC_N2WX39-09B0_3_10:3:10:1:yellow:4:1:CERN:0:0:0:none:CERN:3.947246e-06:7:1.210371:28:1.204445:20:0.9027113:14:0:2.099E-04:1.235E-02:2.115E-04:1.187E-02:0:0:0:0:0:583A:Probed at CERN, Iref = 3.947246e-06 with trim bits 7:No loaded to any board yet
TSMC_N2WX39-09B0:TSMC_N2WX39-09B0_2_10:2:10:1:yellow:4:1:CERN:0:0:0:none:CERN:4.050597e-06:10:1.194072:27:1.201833:16:0.8981906:10:0:2.092E-04:1.256E-02:2.105E-04:1.218E-02:0:0:0:0:0:582A:Probed at CERN, Iref = 4.050597e-06 with trim bits 10:No loaded to any board yet
TSMC_N2WX39-09B0:TSMC_N2WX39-09B0_2_9:2:9:1:yellow:4:1:CERN:0:0:0:none:CERN:4.033931e-06:11:1.191529:29:1.191016:19:0.9017606:12:0:2.098E-04:1.176E-02:2.113E-04:1.145E-02:0:0:0:0:0:5829:Probed at CERN, Iref = 4.033931e-06 with trim bits 11:No loaded to any board yet
TSMC_N2WX39-09B0:TSMC_N2WX39-09B0_3_9:3:9:1:yellow:4:1:CERN:0:0:0:none:CERN:3.990708e-06:9:1.205983:28:1.206751:20:0.9019698:12:0:2.093E-04:1.200E-02:2.108E-04:1.162E-02:0:0:0:0:0:5839:Probed at CERN, Iref = 3.990708e-06 with trim bits 9:No loaded to any board yet
TSMC_N2WX39-09B0:TSMC_N2WX39-09B0_4_9:4:9:10:red:4:10:CERN:0:0:0:none:CERN:0:0:0:0:0:0:0:0:0:0.000E+00:0.000E+00:0.000E+00:0.000E+00:0:0:0:0:0:5849:Probed at CERN, Iref = 0 with trim bits 0:No loaded to any board yet
TSMC_N2WX39-09B0:TSMC_N2WX39-09B0_5_9:5:9:1:yellow:4:1:CERN:0:0:0:none:CERN:4.040074e-06:9:1.200941:28:1.197367:17:0.8970636:11:0:2.088E-04:1.226E-02:2.103E-04:1.187E-02:0:0:0:0:0:5859:Probed at CERN, Iref = 4.040074e-06 with trim bits 9:No loaded to any board yet
TSMC_N2WX39-09B0:TSMC_N2WX39-09B0_6_9:6:9:1:yellow:4:1:CERN:0:0:0:none:CERN:4.001363e-06:9:1.19113:27:1.202751:18:0.8983386:14:0:2.086E-04:1.340E-02:2.100E-04:1.281E-02:0:0:0:0:0:5869:Probed at CERN, Iref = 4.001363e-06 with trim bits 9:No loaded to any board yet
TSMC_N2WX39-09B0:TSMC_N2WX39-09B0_7_9:7:9:2:green:4:2:CERN:0:0:0:none:CERN:4.030398e-06:10:1.198121:21:1.204333:25:0.8987432:11:0:2.096E-04:1.206E-02:2.113E-04:1.156E-02:0:0:0:0:0:5879:Probed at CERN, Iref = 4.030398e-06 with trim bits 10:No loaded to any board yet
TSMC_N2WX39-09B0:TSMC_N2WX39-09B0_8_9:8:9:2:green:4:2:CERN:0:0:0:none:CERN:3.960211e-06:6:1.205318:26:1.197361:18:0.8988795:10:0:2.090E-04:1.133E-02:2.104E-04:1.092E-02:0:0:0:0:0:5889:Probed at CERN, Iref = 3.960211e-06 with trim bits 6:No loaded to any board yet
TSMC_N2WX39-09B0:TSMC_N2WX39-09B0_9_9:9:9:1:yellow:4:1:CERN:0:0:0:none:CERN:3.968903e-06:8:1.187779:23:1.19746:21:0.9039354:12:0:2.104E-04:1.153E-02:2.119E-04:1.107E-02:0:0:0:0:0:5899:Probed at CERN, Iref = 3.968903e-06 with trim bits 8:No loaded to any board yet
TSMC_N2WX39-09B0:TSMC_N2WX39-09B0_10_9:10:9:10:red:4:10:CERN:0:0:0:none:CERN:0:0:0:0:0:0:0:0:0:0.000E+00:0.000E+00:0.000E+00:0.000E+00:0:0:0:0:0:58A9:Probed at CERN, Iref = 0 with trim bits 0:No loaded to any board yet
TSMC_N2WX39-09B0:TSMC_N2WX39-09B0_10_8:10:8:1:yellow:4:1:CERN:0:0:0:none:CERN:3.979569e-06:6:1.20188:27:1.195497:11:0.9012201:14:0:2.099E-04:1.080E-02:2.115E-04:1.016E-02:0:0:0:0:0:58A8:Probed at CERN, Iref = 3.979569e-06 with trim bits 6:No loaded to any board yet
TSMC_N2WX39-09B0:TSMC_N2WX39-09B0_9_8:9:8:1:yellow:4:1:CERN:0:0:0:none:CERN:3.979958e-06:10:1.19038:23:1.203456:21:0.8969094:11:0:2.090E-04:1.179E-02:2.106E-04:1.131E-02:0:0:0:0:0:5898:Probed at CERN, Iref = 3.979958e-06 with trim bits 10:No loaded to any board yet
TSMC_N2WX39-09B0:TSMC_N2WX39-09B0_8_8:8:8:1:yellow:4:1:CERN:0:0:0:none:CERN:3.942321e-06:8:1.195499:22:1.199846:18:0.8976848:12:0:2.091E-04:1.102E-02:2.107E-04:1.056E-02:0:0:0:0:0:5888:Probed at CERN, Iref = 3.942321e-06 with trim bits 8:No loaded to any board yet
TSMC_N2WX39-09B0:TSMC_N2WX39-09B0_7_8:7:8:1:yellow:4:1:CERN:0:0:0:none:CERN:4.009123e-06:11:1.194795:28:1.210168:24:0.8984106:14:0:2.092E-04:1.147E-02:2.107E-04:1.104E-02:0:0:0:0:0:5878:Probed at CERN, Iref = 4.009123e-06 with trim bits 11:No loaded to any board yet
TSMC_N2WX39-09B0:TSMC_N2WX39-09B0_6_8:6:8:1:yellow:4:1:CERN:0:0:0:none:CERN:4.053049e-06:8:1.198966:24:1.188521:23:0.8983646:13:0:2.093E-04:1.220E-02:2.108E-04:1.178E-02:0:0:0:0:0:5868:Probed at CERN, Iref = 4.053049e-06 with trim bits 8:No loaded to any board yet
TSMC_N2WX39-09B0:TSMC_N2WX39-09B0_5_8:5:8:2:green:4:2:CERN:0:0:0:none:CERN:3.984748e-06:8:1.206099:28:1.189432:23:0.9012881:11:0:2.098E-04:1.167E-02:2.112E-04:1.107E-02:0:0:0:0:0:5858:Probed at CERN, Iref = 3.984748e-06 with trim bits 8:No loaded to any board yet
TSMC_N2WX39-09B0:TSMC_N2WX39-09B0_4_8:4:8:1:yellow:4:1:CERN:0:0:0:none:CERN:4.042306e-06:11:1.18934:23:1.203974:22:0.8991026:13:0:2.095E-04:1.078E-02:2.110E-04:1.042E-02:0:0:0:0:0:5848:Probed at CERN, Iref = 4.042306e-06 with trim bits 11:No loaded to any board yet
TSMC_N2WX39-09B0:TSMC_N2WX39-09B0_3_8:3:8:2:green:4:2:CERN:0:0:0:none:CERN:3.988157e-06:11:1.196247:25:1.203613:24:0.8967703:11:0:2.093E-04:1.070E-02:2.107E-04:1.055E-02:0:0:0:0:0:5838:Probed at CERN, Iref = 3.988157e-06 with trim bits 11:No loaded to any board yet
TSMC_N2WX39-09B0:TSMC_N2WX39-09B0_2_8:2:8:1:yellow:4:1:CERN:0:0:0:none:CERN:3.947131e-06:7:1.203374:23:1.201185:21:0.9013557:12:0:2.094E-04:1.190E-02:2.109E-04:1.151E-02:0:0:0:0:0:5828:Probed at CERN, Iref = 3.947131e-06 with trim bits 7:No loaded to any board yet
TSMC_N2WX39-09B0:TSMC_N2WX39-09B0_1_8:1:8:2:green:4:2:CERN:0:0:0:none:CERN:4.043856e-06:11:1.209105:20:1.198069:22:0.8986533:10:0:2.091E-04:1.185E-02:2.106E-04:1.134E-02:0:0:0:0:0:5818:Probed at CERN, Iref = 4.043856e-06 with trim bits 11:No loaded to any board yet
TSMC_N2WX39-09B0:TSMC_N2WX39-09B0_1_7:1:7:2:green:4:2:CERN:0:0:0:none:CERN:3.950613e-06:6:1.200798:17:1.203362:23:0.89914:9:0:2.097E-04:1.055E-02:2.112E-04:1.020E-02:0:0:0:0:0:5817:Probed at CERN, Iref = 3.950613e-06 with trim bits 6:No loaded to any board yet
TSMC_N2WX39-09B0:TSMC_N2WX39-09B0_2_7:2:7:1:yellow:4:1:CERN:0:0:0:none:CERN:4.027759e-06:7:1.204568:28:1.196531:21:0.8980008:13:0:2.089E-04:1.169E-02:2.104E-04:1.139E-02:0:0:0:0:0:5827:Probed at CERN, Iref = 4.027759e-06 with trim bits 7:No loaded to any board yet
TSMC_N2WX39-09B0:TSMC_N2WX39-09B0_3_7:3:7:2:green:4:2:CERN:0:0:0:none:CERN:4.000665e-06:9:1.198852:27:1.206954:20:0.902763:14:0:2.101E-04:1.124E-02:2.116E-04:1.093E-02:0:0:0:0:0:5837:Probed at CERN, Iref = 4.000665e-06 with trim bits 9:No loaded to any board yet
TSMC_N2WX39-09B0:TSMC_N2WX39-09B0_7_12:7:12:10:red:4:10:CERN:0:0:0:none:CERN:4.025934e-06:11:1.202039:31:1.20184:15:0.9040173:12:0:2.095E-04:1.609E-02:2.110E-04:1.571E-02:0:0:0:0:0:587C:Probed at CERN, Iref = 4.025934e-06 with trim bits 11:No loaded to any board yet
TSMC_N2WX39-09B0:TSMC_N2WX39-09B0_6_12:6:12:1:yellow:4:1:CERN:0:0:0:none:CERN:4.014054e-06:8:1.187039:23:1.206555:22:0.9006168:13:0:2.073E-04:2.236E-02:2.088E-04:2.197E-02:0:0:0:0:0:586C:Probed at CERN, Iref = 4.014054e-06 with trim bits 8:No loaded to any board yet
TSMC_N2WX39-09B0:TSMC_N2WX39-09B0_5_12:5:12:1:yellow:4:1:CERN:0:0:0:none:CERN:4.028818e-06:10:1.188434:23:1.197073:16:0.8969934:9:0:2.072E-04:1.802E-02:2.087E-04:1.759E-02:0:0:0:0:0:585C:Probed at CERN, Iref = 4.028818e-06 with trim bits 10:No loaded to any board yet
TSMC_N2WX39-09B0:TSMC_N2WX39-09B0_4_7:4:7:2:green:4:2:CERN:0:0:0:none:CERN:4.035365e-06:9:1.201584:23:1.200542:20:0.8968778:11:0:2.087E-04:1.147E-02:2.101E-04:1.125E-02:0:0:0:0:0:5847:Probed at CERN, Iref = 4.035365e-06 with trim bits 9:No loaded to any board yet
TSMC_N2WX39-09B0:TSMC_N2WX39-09B0_5_7:5:7:2:green:4:2:CERN:0:0:0:none:CERN:4.006083e-06:8:1.19713:23:1.202667:22:0.9028909:14:0:2.102E-04:1.045E-02:2.116E-04:9.983E-03:0:0:0:0:0:5857:Probed at CERN, Iref = 4.006083e-06 with trim bits 8:No loaded to any board yet
TSMC_N2WX39-09B0:TSMC_N2WX39-09B0_6_7:6:7:1:yellow:4:1:CERN:0:0:0:none:CERN:3.962374e-06:8:1.207167:30:1.198:19:0.8980276:11:0:2.090E-04:1.125E-02:2.104E-04:1.093E-02:0:0:0:0:0:5867:Probed at CERN, Iref = 3.962374e-06 with trim bits 8:No loaded to any board yet
TSMC_N2WX39-09B0:TSMC_N2WX39-09B0_7_7:7:7:2:green:4:2:CERN:0:0:0:none:CERN:3.956463e-06:6:1.20173:22:1.196542:18:0.8954918:11:0:2.080E-04:1.306E-02:2.096E-04:1.266E-02:0:0:0:0:0:5877:Probed at CERN, Iref = 3.956463e-06 with trim bits 6:No loaded to any board yet
TSMC_N2WX39-09B0:TSMC_N2WX39-09B0_8_7:8:7:2:green:4:2:CERN:0:0:0:none:CERN:3.992513e-06:8:1.199368:24:1.195054:21:0.9016798:13:0:2.092E-04:1.289E-02:2.107E-04:1.242E-02:0:0:0:0:0:5887:Probed at CERN, Iref = 3.992513e-06 with trim bits 8:No loaded to any board yet
TSMC_N2WX39-09B0:TSMC_N2WX39-09B0_5_5:5:5:1:yellow:4:1:CERN:0:0:0:none:CERN:3.99648e-06:9:1.198161:23:1.198839:25:0.9010397:11:0:2.093E-04:1.125E-02:2.107E-04:1.082E-02:0:0:0:0:0:5855:Probed at CERN, Iref = 3.99648e-06 with trim bits 9:No loaded to any board yet
TSMC_N2WX39-09B0:TSMC_N2WX39-09B0_2_5:2:5:1:yellow:4:1:CERN:0:0:0:none:CERN:4.045507e-06:9:1.20608:26:1.205297:24:0.9010699:15:0:2.105E-04:1.027E-02:2.118E-04:9.960E-03:0:0:0:0:0:5825:Probed at CERN, Iref = 4.045507e-06 with trim bits 9:No loaded to any board yet
TSMC_N2WX39-09B0:TSMC_N2WX39-09B0_7_6:7:6:1:yellow:4:1:CERN:0:0:0:none:CERN:3.964504e-06:9:1.203986:25:1.203647:21:0.8979898:11:0:2.085E-04:1.192E-02:2.100E-04:1.153E-02:0:0:0:0:0:5876:Probed at CERN, Iref = 3.964504e-06 with trim bits 9:No loaded to any board yet
TSMC_N2WX39-09B0:TSMC_N2WX39-09B0_6_6:6:6:10:red:4:10:CERN:0:0:0:none:CERN:0:0:0:0:0:0:0:0:0:0.000E+00:0.000E+00:0.000E+00:0.000E+00:0:0:0:0:0:5866:Probed at CERN, Iref = 0 with trim bits 0:No loaded to any board yet
TSMC_N2WX39-09B0:TSMC_N2WX39-09B0_9_5:9:5:1:yellow:4:1:CERN:0:0:0:none:CERN:4.010459e-06:8:1.186696:23:1.203556:17:0.9021001:14:0:2.102E-04:1.061E-02:2.118E-04:1.015E-02:0:0:0:0:0:5895:Probed at CERN, Iref = 4.010459e-06 with trim bits 8:No loaded to any board yet
TSMC_N2WX39-09B0:TSMC_N2WX39-09B0_8_4:8:4:2:green:4:2:CERN:0:0:0:none:CERN:3.987987e-06:6:1.201931:26:1.205369:22:0.8975945:15:0:2.091E-04:1.126E-02:2.107E-04:1.095E-02:0:0:0:0:0:5884:Probed at CERN, Iref = 3.987987e-06 with trim bits 6:No loaded to any board yet
TSMC_N2WX39-09B0:TSMC_N2WX39-09B0_7_4:7:4:1:yellow:4:1:CERN:0:0:0:none:CERN:3.984463e-06:9:1.197503:25:1.196677:18:0.8982725:15:0:2.093E-04:1.144E-02:2.108E-04:1.105E-02:0:0:0:0:0:5874:Probed at CERN, Iref = 3.984463e-06 with trim bits 9:No loaded to any board yet
TSMC_N2WX39-09B0:TSMC_N2WX39-09B0_2_3:2:3:10:red:4:10:CERN:0:0:0:none:CERN:0:0:0:0:0:0:0:0:0:0.000E+00:0.000E+00:0.000E+00:0.000E+00:0:0:0:0:0:5823:Probed at CERN, Iref = 0 with trim bits 0:No loaded to any board yet
TSMC_N2WX39-09B0:TSMC_N2WX39-09B0_10_5:10:5:2:green:4:2:CERN:0:0:0:none:CERN:4.017623e-06:7:1.201089:26:1.199237:17:0.8957722:11:0:2.090E-04:1.138E-02:2.106E-04:1.100E-02:0:0:0:0:0:58A5:Probed at CERN, Iref = 4.017623e-06 with trim bits 7:No loaded to any board yet
TSMC_N2WX39-09B0:TSMC_N2WX39-09B0_3_5:3:5:2:green:4:2:CERN:0:0:0:none:CERN:4.009009e-06:9:1.204458:22:1.199754:21:0.9021047:14:0:2.101E-04:1.099E-02:2.115E-04:1.062E-02:0:0:0:0:0:5835:Probed at CERN, Iref = 4.009009e-06 with trim bits 9:No loaded to any board yet
TSMC_N2WX39-09B0:TSMC_N2WX39-09B0_5_3:5:3:1:yellow:4:1:CERN:0:0:0:none:CERN:3.951773e-06:6:1.192539:23:1.187862:23:0.898968:13:0:2.096E-04:1.099E-02:2.112E-04:1.056E-02:0:0:0:0:0:5853:Probed at CERN, Iref = 3.951773e-06 with trim bits 6:No loaded to any board yet
TSMC_N2WX39-09B0:TSMC_N2WX39-09B0_6_5:6:5:1:yellow:4:1:CERN:0:0:0:none:CERN:4.054895e-06:8:1.201334:24:1.196757:15:0.9000878:10:0:2.093E-04:1.099E-02:2.109E-04:1.058E-02:0:0:0:0:0:5865:Probed at CERN, Iref = 4.054895e-06 with trim bits 8:No loaded to any board yet
TSMC_N2WX39-09B0:TSMC_N2WX39-09B0_5_4:5:4:2:green:4:2:CERN:0:0:0:none:CERN:4.042376e-06:9:1.201225:22:1.200311:20:0.9013504:12:0:2.101E-04:1.086E-02:2.116E-04:1.052E-02:0:0:0:0:0:5854:Probed at CERN, Iref = 4.042376e-06 with trim bits 9:No loaded to any board yet
TSMC_N2WX39-09B0:TSMC_N2WX39-09B0_4_4:4:4:2:green:4:2:CERN:0:0:0:none:CERN:3.993061e-06:8:1.1998:25:1.200963:20:0.8993128:12:0:2.097E-04:1.139E-02:2.111E-04:1.085E-02:0:0:0:0:0:5844:Probed at CERN, Iref = 3.993061e-06 with trim bits 8:No loaded to any board yet
TSMC_N2WX39-09B0:TSMC_N2WX39-09B0_3_4:3:4:2:green:4:2:CERN:0:0:0:none:CERN:3.956313e-06:9:1.205758:20:1.197559:20:0.9054559:12:0:2.111E-04:1.043E-02:2.125E-04:1.010E-02:0:0:0:0:0:5834:Probed at CERN, Iref = 3.956313e-06 with trim bits 9:No loaded to any board yet
TSMC_N2WX39-09B0:TSMC_N2WX39-09B0_6_3:6:3:2:green:4:2:CERN:0:0:0:none:CERN:3.982867e-06:10:1.201813:23:1.212078:16:0.8978483:13:0:2.094E-04:1.074E-02:2.110E-04:1.029E-02:0:0:0:0:0:5863:Probed at CERN, Iref = 3.982867e-06 with trim bits 10:No loaded to any board yet
TSMC_N2WX39-09B0:TSMC_N2WX39-09B0_7_3:7:3:2:green:4:2:CERN:0:0:0:none:CERN:3.980407e-06:6:1.201148:23:1.201617:23:0.8993928:14:0:2.095E-04:1.130E-02:2.110E-04:1.084E-02:0:0:0:0:0:5873:Probed at CERN, Iref = 3.980407e-06 with trim bits 6:No loaded to any board yet
TSMC_N2WX39-09B0:TSMC_N2WX39-09B0_6_4:6:4:2:green:4:2:CERN:0:0:0:none:CERN:3.99683e-06:9:1.200312:22:1.20002:21:0.9016083:12:0:2.101E-04:1.144E-02:2.116E-04:1.092E-02:0:0:0:0:0:5864:Probed at CERN, Iref = 3.99683e-06 with trim bits 9:No loaded to any board yet
TSMC_N2WX39-09B0:TSMC_N2WX39-09B0_7_2:7:2:2:green:4:2:CERN:0:0:0:none:CERN:3.953795e-06:8:1.198091:25:1.202186:24:0.900028:13:0:2.095E-04:1.174E-02:2.110E-04:1.135E-02:0:0:0:0:0:5872:Probed at CERN, Iref = 3.953795e-06 with trim bits 8:No loaded to any board yet
TSMC_N2WX39-09B0:TSMC_N2WX39-09B0_6_2:6:2:1:yellow:4:1:CERN:0:0:0:none:CERN:3.983228e-06:8:1.189205:23:1.193393:19:0.9012688:12:0:2.094E-04:1.245E-02:2.108E-04:1.208E-02:0:0:0:0:0:5862:Probed at CERN, Iref = 3.983228e-06 with trim bits 8:No loaded to any board yet
TSMC_N2WX39-09B0:TSMC_N2WX39-09B0_5_2:5:2:1:yellow:4:1:CERN:0:0:0:none:CERN:3.954953e-06:10:1.201968:22:1.195481:23:0.900063:12:0:2.097E-04:1.082E-02:2.110E-04:1.048E-02:0:0:0:0:0:5852:Probed at CERN, Iref = 3.954953e-06 with trim bits 10:No loaded to any board yet
TSMC_N2WX39-09B0:TSMC_N2WX39-09B0_2_4:2:4:2:green:4:2:CERN:0:0:0:none:CERN:3.994505e-06:9:1.200616:24:1.199314:23:0.8995858:13:0:2.098E-04:1.038E-02:2.113E-04:1.007E-02:0:0:0:0:0:5824:Probed at CERN, Iref = 3.994505e-06 with trim bits 9:No loaded to any board yet
TSMC_N2WX39-09B0:TSMC_N2WX39-09B0_3_3:3:3:1:yellow:4:1:CERN:0:0:0:none:CERN:3.981067e-06:8:1.198921:27:1.19903:25:0.8994691:12:0:2.097E-04:1.109E-02:2.111E-04:1.070E-02:0:0:0:0:0:5833:Probed at CERN, Iref = 3.981067e-06 with trim bits 8:No loaded to any board yet
TSMC_N2WX39-09B0:TSMC_N2WX39-09B0_9_3:9:3:2:green:4:2:CERN:0:0:0:none:CERN:4.002247e-06:7:1.206063:22:1.199394:21:0.8978724:13:0:2.093E-04:1.032E-02:2.109E-04:9.923E-03:0:0:0:0:0:5893:Probed at CERN, Iref = 4.002247e-06 with trim bits 7:No loaded to any board yet
TSMC_N2WX39-09B0:TSMC_N2WX39-09B0_4_3:4:3:1:yellow:4:1:CERN:0:0:0:none:CERN:4.026919e-06:9:1.200216:18:1.193996:15:0.8988008:13:0:2.096E-04:1.056E-02:2.111E-04:1.015E-02:0:0:0:0:0:5843:Probed at CERN, Iref = 4.026919e-06 with trim bits 9:No loaded to any board yet
TSMC_N2WX39-09B0:TSMC_N2WX39-09B0_5_1:5:1:2:green:4:2:CERN:0:0:0:none:CERN:3.950561e-06:6:1.202779:24:1.201912:20:0.898735:14:0:2.097E-04:1.195E-02:2.111E-04:1.160E-02:0:0:0:0:0:5851:Probed at CERN, Iref = 3.950561e-06 with trim bits 6:No loaded to any board yet
TSMC_N2WX39-09B0:TSMC_N2WX39-09B0_8_3:8:3:1:yellow:4:1:CERN:0:0:0:none:CERN:4.014172e-06:10:1.195881:24:1.195049:21:0.9000802:12:0:2.101E-04:1.103E-02:2.117E-04:1.052E-02:0:0:0:0:0:5883:Probed at CERN, Iref = 4.014172e-06 with trim bits 10:No loaded to any board yet
TSMC_N2WX39-09B0:TSMC_N2WX39-09B0_8_2:8:2:1:yellow:4:1:CERN:0:0:0:none:CERN:3.981624e-06:7:1.204111:28:1.199021:19:0.9018275:14:0:2.109E-04:1.102E-02:2.124E-04:1.054E-02:0:0:0:0:0:5882:Probed at CERN, Iref = 3.981624e-06 with trim bits 7:No loaded to any board yet
TSMC_N2WX39-09B0:TSMC_N2WX39-09B0_4_2:4:2:2:green:4:2:CERN:0:0:0:none:CERN:3.963434e-06:9:1.197117:26:1.187824:23:0.9020803:11:0:2.104E-04:1.231E-02:2.120E-04:1.187E-02:0:0:0:0:0:5842:Probed at CERN, Iref = 3.963434e-06 with trim bits 9:No loaded to any board yet
TSMC_N2WX39-09B0:TSMC_N2WX39-09B0_6_1:6:1:2:green:4:2:CERN:0:0:0:none:CERN:4.023967e-06:7:1.197767:22:1.200671:20:0.901642:15:0:2.102E-04:1.048E-02:2.118E-04:9.997E-03:0:0:0:0:0:5861:Probed at CERN, Iref = 4.023967e-06 with trim bits 7:No loaded to any board yet
