%CMSwaferCode:CMSchipCode:ChipColumn:ChipRow:Grading:Color:CutVersion:Status:Location:ChipBoardType:BoardNumber:Dose:Sensor:ProbingSite:Iref:IrefTrim:Vref_A:Vref_A_Trim:Vref_D:Vref_D_Trim:Vref_ADC:Vref_ADC_Trim:MON_ADC_Trim:VCAL_HIGH_slope:VCAL_HIGH_offset:VCAL_MED_slope:VCAL_MED_offset:TrefTsensors:Nf1:Nf2:Nf3:Nf4:RD53chipID:Comment:BoardComment:
TSMC_N2WX39-11B0:TSMC_N2WX39-11B0_4_5:4:5:2:green:4:2:Torino:0:0:0:none:Torino:4.044233e-06:9:1.203619:28:1.202441:19:0.9005503:9:0:1.057E-09:8.773E-02:-3.700E-09:1.297E-01:0:0:0:0:0:5A45:Probed at Torino, Iref = 4.044233e-06 with trim bits 9:No loaded to any board yet
TSMC_N2WX39-11B0:TSMC_N2WX39-11B0_8_10:8:10:2:green:4:2:Torino:0:0:0:none:Torino:4.054841e-06:8:1.202147:25:1.189669:15:0.8982284:9:0:2.983E-08:7.776E-01:-2.853E-07:1.323E-01:0:0:0:0:0:5A8A:Probed at Torino, Iref = 4.054841e-06 with trim bits 8:No loaded to any board yet
TSMC_N2WX39-11B0:TSMC_N2WX39-11B0_10_8:10:8:2:green:4:2:Torino:0:0:0:none:Torino:3.970178e-06:5:1.203964:22:1.196061:16:0.8998159:8:0:4.747E-09:8.449E-02:-9.167E-09:1.268E-01:0:0:0:0:0:5AA8:Probed at Torino, Iref = 3.970178e-06 with trim bits 5:No loaded to any board yet
TSMC_N2WX39-11B0:TSMC_N2WX39-11B0_3_11:3:11:2:green:4:2:Torino:0:0:0:none:Torino:3.995967e-06:8:1.198108:21:1.199573:17:0.9020243:8:0:3.910E-09:8.136E-02:4.000E-09:1.241E-01:0:0:0:0:0:5A3B:Probed at Torino, Iref = 3.995967e-06 with trim bits 8:No loaded to any board yet
TSMC_N2WX39-11B0:TSMC_N2WX39-11B0_8_11:8:11:2:green:4:2:Torino:0:0:0:none:Torino:4.013787e-06:10:1.19805:26:1.199833:18:0.8989223:11:0:1.158E-08:8.040E-02:4.500E-09:1.233E-01:0:0:0:0:0:5A8B:Probed at Torino, Iref = 4.013787e-06 with trim bits 10:No loaded to any board yet
TSMC_N2WX39-11B0:TSMC_N2WX39-11B0_7_10:7:10:1:yellow:4:1:Torino:0:0:0:none:Torino:4.00786e-06:9:1.209376:28:1.198826:14:0.8990293:9:0:3.067E-10:8.625E-02:5.467E-09:1.283E-01:0:0:0:0:0:5A7A:Probed at Torino, Iref = 4.00786e-06 with trim bits 9:No loaded to any board yet
TSMC_N2WX39-11B0:TSMC_N2WX39-11B0_7_12:7:12:1:yellow:4:1:Torino:0:0:0:none:Torino:3.99854e-06:9:1.199476:29:1.193737:19:0.9014609:13:0:2.100E-04:1.169E-02:2.114E-04:1.110E-02:0:0:0:0:0:5A7C:Probed at Torino, Iref = 3.99854e-06 with trim bits 9:No loaded to any board yet
TSMC_N2WX39-11B0:TSMC_N2WX39-11B0_6_12:6:12:2:green:4:2:Torino:0:0:0:none:Torino:3.956566e-06:10:1.191108:23:1.193203:15:0.9032257:8:0:1.477E-09:7.885E-02:1.533E-09:1.220E-01:0:0:0:0:0:5A6C:Probed at Torino, Iref = 3.956566e-06 with trim bits 10:No loaded to any board yet
TSMC_N2WX39-11B0:TSMC_N2WX39-11B0_6_11:6:11:2:green:4:2:Torino:0:0:0:none:Torino:3.96083e-06:7:1.19152:23:1.19667:21:0.900851:10:0:2.420E-09:7.826E-02:6.167E-09:1.213E-01:0:0:0:0:0:5A6B:Probed at Torino, Iref = 3.96083e-06 with trim bits 7:No loaded to any board yet
TSMC_N2WX39-11B0:TSMC_N2WX39-11B0_5_12:5:12:2:green:4:2:Torino:0:0:0:none:Torino:3.959168e-06:8:1.205583:20:1.199564:23:0.8973614:11:0:3.447E-09:7.899E-02:3.800E-09:1.218E-01:0:0:0:0:0:5A5C:Probed at Torino, Iref = 3.959168e-06 with trim bits 8:No loaded to any board yet
TSMC_N2WX39-11B0:TSMC_N2WX39-11B0_5_10:5:10:10:red:4:10:Torino:0:0:0:none:Torino:4.03858e-06:8:1.210073:24:1.190637:23:0.8978287:11:0:1.216E-08:7.628E-02:-1.167E-09:1.194E-01:0:0:0:0:0:5A5A:Probed at Torino, Iref = 4.03858e-06 with trim bits 8:No loaded to any board yet
TSMC_N2WX39-11B0:TSMC_N2WX39-11B0_4_12:4:12:1:yellow:4:1:Torino:0:0:0:none:Torino:4.028744e-06:7:1.200412:27:1.202163:16:0.9006114:6:0:-2.947E-09:7.997E-02:-6.333E-09:1.229E-01:0:0:0:0:0:5A4C:Probed at Torino, Iref = 4.028744e-06 with trim bits 7:No loaded to any board yet
TSMC_N2WX39-11B0:TSMC_N2WX39-11B0_3_10:3:10:2:green:4:2:Torino:0:0:0:none:Torino:3.990874e-06:10:1.197527:22:1.19846:19:0.9006289:11:0:2.510E-09:8.027E-02:-6.067E-09:1.230E-01:0:0:0:0:0:5A3A:Probed at Torino, Iref = 3.990874e-06 with trim bits 10:No loaded to any board yet
TSMC_N2WX39-11B0:TSMC_N2WX39-11B0_9_10:9:10:1:yellow:4:1:Torino:0:0:0:none:Torino:4.030484e-06:9:1.203675:29:1.195939:20:0.8986334:12:0:2.076E-04:1.851E-02:2.091E-04:1.824E-02:0:0:0:0:0:5A9A:Probed at Torino, Iref = 4.030484e-06 with trim bits 9:No loaded to any board yet
TSMC_N2WX39-11B0:TSMC_N2WX39-11B0_7_8:7:8:1:yellow:4:1:Torino:0:0:0:none:Torino:4.00417e-06:7:1.197061:20:1.203989:22:0.9038141:8:0:9.767E-10:8.637E-02:1.080E-08:1.286E-01:0:0:0:0:0:5A78:Probed at Torino, Iref = 4.00417e-06 with trim bits 7:No loaded to any board yet
TSMC_N2WX39-11B0:TSMC_N2WX39-11B0_6_9:6:9:2:green:4:2:Torino:0:0:0:none:Torino:4.013065e-06:7:1.201876:19:1.205662:20:0.9015901:10:0:5.527E-09:8.085E-02:-3.667E-10:1.237E-01:0:0:0:0:0:5A69:Probed at Torino, Iref = 4.013065e-06 with trim bits 7:No loaded to any board yet
TSMC_N2WX39-11B0:TSMC_N2WX39-11B0_2_9:2:9:1:yellow:4:1:Torino:0:0:0:none:Torino:3.96061e-06:9:1.208147:26:1.200594:17:0.8986337:10:0:-2.023E-09:8.198E-02:-3.400E-09:1.245E-01:0:0:0:0:0:5A29:Probed at Torino, Iref = 3.96061e-06 with trim bits 9:No loaded to any board yet
TSMC_N2WX39-11B0:TSMC_N2WX39-11B0_6_10:6:10:2:green:4:2:Torino:0:0:0:none:Torino:3.999899e-06:7:1.201424:24:1.206513:22:0.8982388:9:0:8.037E-09:8.244E-02:6.967E-09:1.249E-01:0:0:0:0:0:5A6A:Probed at Torino, Iref = 3.999899e-06 with trim bits 7:No loaded to any board yet
TSMC_N2WX39-11B0:TSMC_N2WX39-11B0_4_9:4:9:2:green:4:2:Torino:0:0:0:none:Torino:3.9826e-06:9:1.194343:25:1.199339:23:0.9032978:10:0:6.143E-09:8.323E-02:6.633E-09:1.261E-01:0:0:0:0:0:5A49:Probed at Torino, Iref = 3.9826e-06 with trim bits 9:No loaded to any board yet
TSMC_N2WX39-11B0:TSMC_N2WX39-11B0_4_10:4:10:1:yellow:4:1:Torino:0:0:0:none:Torino:4.012853e-06:9:1.20332:24:1.20125:26:0.901673:13:0:6.977E-09:8.012E-02:-1.547E-08:1.230E-01:0:0:0:0:0:5A4A:Probed at Torino, Iref = 4.012853e-06 with trim bits 9:No loaded to any board yet
TSMC_N2WX39-11B0:TSMC_N2WX39-11B0_4_6:4:6:2:green:4:2:Torino:0:0:0:none:Torino:4.028409e-06:9:1.200647:27:1.202062:16:0.899931:11:0:1.366E-08:8.440E-02:4.833E-09:1.269E-01:0:0:0:0:0:5A46:Probed at Torino, Iref = 4.028409e-06 with trim bits 9:No loaded to any board yet
TSMC_N2WX39-11B0:TSMC_N2WX39-11B0_3_9:3:9:2:green:4:2:Torino:0:0:0:none:Torino:4.051163e-06:8:1.202229:24:1.20112:22:0.8975477:9:0:-1.477E-09:8.202E-02:5.267E-09:1.244E-01:0:0:0:0:0:5A39:Probed at Torino, Iref = 4.051163e-06 with trim bits 8:No loaded to any board yet
TSMC_N2WX39-11B0:TSMC_N2WX39-11B0_5_8:5:8:2:green:4:2:Torino:0:0:0:none:Torino:4.03611e-06:8:1.188041:23:1.197426:18:0.8995063:8:0:9.817E-09:8.099E-02:8.200E-09:1.238E-01:0:0:0:0:0:5A58:Probed at Torino, Iref = 4.03611e-06 with trim bits 8:No loaded to any board yet
TSMC_N2WX39-11B0:TSMC_N2WX39-11B0_5_9:5:9:1:yellow:4:1:Torino:0:0:0:none:Torino:3.976076e-06:7:1.200145:19:1.208006:20:0.8988114:10:0:1.577E-09:8.113E-02:1.967E-09:1.239E-01:0:0:0:0:0:5A59:Probed at Torino, Iref = 3.976076e-06 with trim bits 7:No loaded to any board yet
TSMC_N2WX39-11B0:TSMC_N2WX39-11B0_2_10:2:10:2:green:4:2:Torino:0:0:0:none:Torino:4.035744e-06:6:1.20338:27:1.198168:22:0.9032733:12:0:1.489E-08:7.966E-02:-1.867E-09:1.228E-01:0:0:0:0:0:5A2A:Probed at Torino, Iref = 4.035744e-06 with trim bits 6:No loaded to any board yet
TSMC_N2WX39-11B0:TSMC_N2WX39-11B0_8_7:8:7:2:green:4:2:Torino:0:0:0:none:Torino:3.964333e-06:8:1.192661:25:1.195691:24:0.9005723:8:0:5.140E-09:8.690E-02:-4.367E-09:1.290E-01:0:0:0:0:0:5A87:Probed at Torino, Iref = 3.964333e-06 with trim bits 8:No loaded to any board yet
TSMC_N2WX39-11B0:TSMC_N2WX39-11B0_8_9:8:9:2:green:4:2:Torino:0:0:0:none:Torino:4.009412e-06:11:1.194926:23:1.193784:21:0.8986599:9:0:-7.000E-11:8.350E-02:4.100E-09:1.258E-01:0:0:0:0:0:5A89:Probed at Torino, Iref = 4.009412e-06 with trim bits 11:No loaded to any board yet
TSMC_N2WX39-11B0:TSMC_N2WX39-11B0_3_8:3:8:2:green:4:2:Torino:0:0:0:none:Torino:4.04648e-06:10:1.196603:24:1.206085:20:0.8986:9:0:1.707E-08:2.385E-01:-1.097E-08:2.396E-01:0:0:0:0:0:5A38:Probed at Torino, Iref = 4.04648e-06 with trim bits 10:No loaded to any board yet
TSMC_N2WX39-11B0:TSMC_N2WX39-11B0_10_9:10:9:10:red:4:10:Torino:0:0:0:none:Torino:0:0:0:0:0:0:0:0:0:0.000E+00:0.000E+00:0.000E+00:0.000E+00:0:0:0:0:0:5AA9:Probed at Torino, Iref = 0 with trim bits 0:No loaded to any board yet
TSMC_N2WX39-11B0:TSMC_N2WX39-11B0_9_8:9:8:2:green:4:2:Torino:0:0:0:none:Torino:3.990853e-06:11:1.202554:24:1.20494:20:0.9037374:12:0:5.743E-09:8.318E-02:-1.667E-09:1.258E-01:0:0:0:0:0:5A98:Probed at Torino, Iref = 3.990853e-06 with trim bits 11:No loaded to any board yet
TSMC_N2WX39-11B0:TSMC_N2WX39-11B0_1_7:1:7:10:red:4:10:Torino:0:0:0:none:Torino:3.99175e-06:6:1.197215:27:1.203438:23:0.9011009:9:0:-1.249E-08:7.943E-02:1.010E-08:1.224E-01:0:0:0:0:0:5A17:Probed at Torino, Iref = 3.99175e-06 with trim bits 6:No loaded to any board yet
TSMC_N2WX39-11B0:TSMC_N2WX39-11B0_8_8:8:8:2:green:4:2:Torino:0:0:0:none:Torino:4.019999e-06:8:1.198558:23:1.201436:20:0.9052356:8:0:-2.060E-09:8.442E-02:2.633E-09:1.270E-01:0:0:0:0:0:5A88:Probed at Torino, Iref = 4.019999e-06 with trim bits 8:No loaded to any board yet
TSMC_N2WX39-11B0:TSMC_N2WX39-11B0_6_8:6:8:1:yellow:4:1:Torino:0:0:0:none:Torino:4.048493e-06:7:1.199:26:1.198105:21:0.8988923:12:0:8.430E-09:8.139E-02:-2.333E-10:1.242E-01:0:0:0:0:0:5A68:Probed at Torino, Iref = 4.048493e-06 with trim bits 7:No loaded to any board yet
TSMC_N2WX39-11B0:TSMC_N2WX39-11B0_2_7:2:7:2:green:4:2:Torino:0:0:0:none:Torino:3.988513e-06:7:1.205746:24:1.199867:16:0.8945428:11:0:-2.977E-09:8.351E-02:7.667E-09:1.256E-01:0:0:0:0:0:5A27:Probed at Torino, Iref = 3.988513e-06 with trim bits 7:No loaded to any board yet
TSMC_N2WX39-11B0:TSMC_N2WX39-11B0_4_8:4:8:2:green:4:2:Torino:0:0:0:none:Torino:3.981167e-06:8:1.20548:26:1.202374:20:0.9027292:12:0:2.390E-09:8.504E-02:6.033E-09:1.275E-01:0:0:0:0:0:5A48:Probed at Torino, Iref = 3.981167e-06 with trim bits 8:No loaded to any board yet
TSMC_N2WX39-11B0:TSMC_N2WX39-11B0_7_6:7:6:2:green:4:2:Torino:0:0:0:none:Torino:4.007584e-06:11:1.190941:27:1.196982:15:0.9010355:9:0:9.173E-09:8.539E-02:-7.333E-10:1.276E-01:0:0:0:0:0:5A76:Probed at Torino, Iref = 4.007584e-06 with trim bits 11:No loaded to any board yet
TSMC_N2WX39-11B0:TSMC_N2WX39-11B0_5_7:5:7:10:red:4:10:Torino:0:0:0:none:Torino:4.034297e-06:11:1.20226:25:1.204963:18:0.9019369:9:0:4.493E-09:1.373E-02:-1.033E-09:1.213E-01:0:0:0:0:0:5A57:Probed at Torino, Iref = 4.034297e-06 with trim bits 11:No loaded to any board yet
TSMC_N2WX39-11B0:TSMC_N2WX39-11B0_2_8:2:8:10:red:4:10:Torino:0:0:0:none:Torino:4.075064e-06:8:1.255898:16:1.358243:20:1.109559:19:0:-3.317E-09:9.346E-02:3.266E-06:5.471E-01:0:0:0:0:0:5A28:Probed at Torino, Iref = 4.075064e-06 with trim bits 8:No loaded to any board yet
TSMC_N2WX39-11B0:TSMC_N2WX39-11B0_3_7:3:7:10:red:4:10:Torino:0:0:0:none:Torino:0:0:0:0:0:0:0:0:0:0.000E+00:0.000E+00:0.000E+00:0.000E+00:0:0:0:0:0:5A37:Probed at Torino, Iref = 0 with trim bits 0:No loaded to any board yet
TSMC_N2WX39-11B0:TSMC_N2WX39-11B0_5_6:5:6:1:yellow:4:1:Torino:0:0:0:none:Torino:4.031114e-06:11:1.201732:27:1.200437:21:0.8985109:11:0:1.357E-08:9.139E-02:-2.867E-09:1.331E-01:0:0:0:0:0:5A56:Probed at Torino, Iref = 4.031114e-06 with trim bits 11:No loaded to any board yet
TSMC_N2WX39-11B0:TSMC_N2WX39-11B0_4_7:4:7:10:red:4:10:Torino:0:0:0:none:Torino:0:0:0:0:0:0:0:0:0:0.000E+00:0.000E+00:0.000E+00:0.000E+00:0:0:0:0:0:5A47:Probed at Torino, Iref = 0 with trim bits 0:No loaded to any board yet
TSMC_N2WX39-11B0:TSMC_N2WX39-11B0_10_7:10:7:2:green:4:2:Torino:0:0:0:none:Torino:3.979296e-06:8:1.188718:23:1.202135:19:0.9010826:11:0:5.933E-10:8.622E-02:-9.067E-09:1.284E-01:0:0:0:0:0:5AA7:Probed at Torino, Iref = 3.979296e-06 with trim bits 8:No loaded to any board yet
TSMC_N2WX39-11B0:TSMC_N2WX39-11B0_6_7:6:7:2:green:4:2:Torino:0:0:0:none:Torino:3.942053e-06:6:1.201261:21:1.197426:17:0.9009435:10:0:9.060E-09:7.768E-02:4.667E-10:1.208E-01:0:0:0:0:0:5A67:Probed at Torino, Iref = 3.942053e-06 with trim bits 6:No loaded to any board yet
TSMC_N2WX39-11B0:TSMC_N2WX39-11B0_2_6:2:6:2:green:4:2:Torino:0:0:0:none:Torino:3.983369e-06:7:1.206345:26:1.201345:22:0.8983167:8:0:3.167E-09:8.147E-02:2.333E-10:1.241E-01:0:0:0:0:0:5A26:Probed at Torino, Iref = 3.983369e-06 with trim bits 7:No loaded to any board yet
TSMC_N2WX39-11B0:TSMC_N2WX39-11B0_7_7:7:7:10:red:4:10:Torino:0:0:0:none:Torino:4.047484e-06:8:1.144249:11:1.17006:6:0.8221947:0:0:-1.433E-10:7.720E-02:-3.633E-09:1.163E-01:0:0:0:0:0:5A77:Probed at Torino, Iref = 4.047484e-06 with trim bits 8:No loaded to any board yet
TSMC_N2WX39-11B0:TSMC_N2WX39-11B0_9_7:9:7:1:yellow:4:1:Torino:0:0:0:none:Torino:3.974066e-06:9:1.19983:30:1.198305:18:0.8968843:9:0:1.258E-08:8.369E-02:-6.933E-09:1.262E-01:0:0:0:0:0:5A97:Probed at Torino, Iref = 3.974066e-06 with trim bits 9:No loaded to any board yet
TSMC_N2WX39-11B0:TSMC_N2WX39-11B0_3_6:3:6:2:green:4:2:Torino:0:0:0:none:Torino:4.021281e-06:8:1.202825:23:1.19633:19:0.899394:11:0:1.837E-09:8.569E-02:3.667E-10:1.279E-01:0:0:0:0:0:5A36:Probed at Torino, Iref = 4.021281e-06 with trim bits 8:No loaded to any board yet
TSMC_N2WX39-11B0:TSMC_N2WX39-11B0_10_6:10:6:1:yellow:4:1:Torino:0:0:0:none:Torino:4.025385e-06:9:1.197641:25:1.202276:16:0.9017845:10:0:5.567E-10:8.276E-02:8.933E-09:1.254E-01:0:0:0:0:0:5AA6:Probed at Torino, Iref = 4.025385e-06 with trim bits 9:No loaded to any board yet
TSMC_N2WX39-11B0:TSMC_N2WX39-11B0_8_6:8:6:2:green:4:2:Torino:0:0:0:none:Torino:4.026222e-06:8:1.193903:25:1.196981:22:0.8996649:10:0:1.960E-09:8.825E-02:-1.107E-08:1.303E-01:0:0:0:0:0:5A86:Probed at Torino, Iref = 4.026222e-06 with trim bits 8:No loaded to any board yet
TSMC_N2WX39-11B0:TSMC_N2WX39-11B0_2_5:2:5:2:green:4:2:Torino:0:0:0:none:Torino:3.987303e-06:9:1.206347:26:1.196031:19:0.9026547:8:0:3.840E-09:8.787E-02:-1.210E-08:1.300E-01:0:0:0:0:0:5A25:Probed at Torino, Iref = 3.987303e-06 with trim bits 9:No loaded to any board yet
TSMC_N2WX39-11B0:TSMC_N2WX39-11B0_9_6:9:6:2:green:4:2:Torino:0:0:0:none:Torino:3.965384e-06:7:1.197268:23:1.203827:19:0.9006888:10:0:6.273E-09:8.805E-02:4.933E-09:1.301E-01:0:0:0:0:0:5A96:Probed at Torino, Iref = 3.965384e-06 with trim bits 7:No loaded to any board yet
TSMC_N2WX39-11B0:TSMC_N2WX39-11B0_6_6:6:6:2:green:4:2:Torino:0:0:0:none:Torino:3.949046e-06:8:1.204705:27:1.202675:23:0.899496:10:0:-2.743E-09:8.679E-02:-6.167E-09:1.286E-01:0:0:0:0:0:5A66:Probed at Torino, Iref = 3.949046e-06 with trim bits 8:No loaded to any board yet
TSMC_N2WX39-11B0:TSMC_N2WX39-11B0_4_4:4:4:2:green:4:2:Torino:0:0:0:none:Torino:4.019909e-06:9:1.204022:27:1.210793:24:0.8987022:11:0:1.096E-08:8.623E-02:5.100E-09:1.283E-01:0:0:0:0:0:5A44:Probed at Torino, Iref = 4.019909e-06 with trim bits 9:No loaded to any board yet
TSMC_N2WX39-11B0:TSMC_N2WX39-11B0_7_5:7:5:2:green:4:2:Torino:0:0:0:none:Torino:3.961834e-06:8:1.201079:22:1.198549:14:0.9008189:11:0:1.859E-08:8.833E-02:9.667E-10:1.304E-01:0:0:0:0:0:5A75:Probed at Torino, Iref = 3.961834e-06 with trim bits 8:No loaded to any board yet
TSMC_N2WX39-11B0:TSMC_N2WX39-11B0_9_5:9:5:2:green:4:2:Torino:0:0:0:none:Torino:4.042895e-06:10:1.208004:24:1.188775:23:0.9019295:13:0:1.173E-09:8.806E-02:2.967E-09:1.299E-01:0:0:0:0:0:5A95:Probed at Torino, Iref = 4.042895e-06 with trim bits 10:No loaded to any board yet
TSMC_N2WX39-11B0:TSMC_N2WX39-11B0_6_5:6:5:10:red:4:10:Torino:0:0:0:none:Torino:4.001502e-06:11:1.196838:27:1.199455:23:0.8993677:11:0:3.110E-09:1.973E-02:-6.833E-09:1.262E-01:0:0:0:0:0:5A65:Probed at Torino, Iref = 4.001502e-06 with trim bits 11:No loaded to any board yet
TSMC_N2WX39-11B0:TSMC_N2WX39-11B0_7_4:7:4:2:green:4:2:Torino:0:0:0:none:Torino:4.038066e-06:9:1.198793:23:1.201041:19:0.9019487:11:0:-1.393E-09:8.512E-02:8.633E-09:1.274E-01:0:0:0:0:0:5A74:Probed at Torino, Iref = 4.038066e-06 with trim bits 9:No loaded to any board yet
TSMC_N2WX39-11B0:TSMC_N2WX39-11B0_3_5:3:5:2:green:4:2:Torino:0:0:0:none:Torino:4.040687e-06:8:1.196048:24:1.199745:22:0.9020337:11:0:1.427E-09:8.479E-02:2.567E-09:1.273E-01:0:0:0:0:0:5A35:Probed at Torino, Iref = 4.040687e-06 with trim bits 8:No loaded to any board yet
TSMC_N2WX39-11B0:TSMC_N2WX39-11B0_2_4:2:4:1:yellow:4:1:Torino:0:0:0:none:Torino:4.018665e-06:9:1.202542:26:1.196555:24:0.8980678:10:0:-2.963E-09:8.296E-02:1.400E-09:1.254E-01:0:0:0:0:0:5A24:Probed at Torino, Iref = 4.018665e-06 with trim bits 9:No loaded to any board yet
TSMC_N2WX39-11B0:TSMC_N2WX39-11B0_3_4:3:4:10:red:4:10:Torino:0:0:0:none:Torino:4.00435e-06:8:1.196242:24:1.194228:21:0.9015273:13:0:6.233E-09:8.207E-02:-2.900E-09:1.248E-01:0:0:0:0:0:5A34:Probed at Torino, Iref = 4.00435e-06 with trim bits 8:No loaded to any board yet
TSMC_N2WX39-11B0:TSMC_N2WX39-11B0_6_2:6:2:2:green:4:2:Torino:0:0:0:none:Torino:4.026442e-06:9:1.19943:22:1.20498:20:0.8999851:10:0:3.457E-09:8.658E-02:-5.333E-10:1.288E-01:0:0:0:0:0:5A62:Probed at Torino, Iref = 4.026442e-06 with trim bits 9:No loaded to any board yet
TSMC_N2WX39-11B0:TSMC_N2WX39-11B0_5_5:5:5:2:green:4:2:Torino:0:0:0:none:Torino:3.950588e-06:10:1.193333:27:1.200807:19:0.9006146:9:0:2.483E-09:8.651E-02:-1.583E-08:1.287E-01:0:0:0:0:0:5A55:Probed at Torino, Iref = 3.950588e-06 with trim bits 10:No loaded to any board yet
TSMC_N2WX39-11B0:TSMC_N2WX39-11B0_5_4:5:4:2:green:4:2:Torino:0:0:0:none:Torino:4.006178e-06:7:1.196707:19:1.196188:23:0.9038881:12:0:2.070E-04:2.509E-02:2.085E-04:2.469E-02:0:0:0:0:0:5A54:Probed at Torino, Iref = 4.006178e-06 with trim bits 7:No loaded to any board yet
TSMC_N2WX39-11B0:TSMC_N2WX39-11B0_8_4:8:4:2:green:4:2:Torino:0:0:0:none:Torino:4.022397e-06:10:1.194491:23:1.209468:24:0.8993483:11:0:8.820E-09:8.920E-02:9.800E-09:1.309E-01:0:0:0:0:0:5A84:Probed at Torino, Iref = 4.022397e-06 with trim bits 10:No loaded to any board yet
TSMC_N2WX39-11B0:TSMC_N2WX39-11B0_6_4:6:4:2:green:4:2:Torino:0:0:0:none:Torino:4.035302e-06:7:1.199974:24:1.198927:19:0.9031819:12:0:1.949E-08:8.884E-02:-9.367E-09:1.314E-01:0:0:0:0:0:5A64:Probed at Torino, Iref = 4.035302e-06 with trim bits 7:No loaded to any board yet
TSMC_N2WX39-11B0:TSMC_N2WX39-11B0_10_5:10:5:1:yellow:4:1:Torino:0:0:0:none:Torino:3.93355e-06:7:1.196678:24:1.199767:21:0.8994486:9:0:4.943E-09:7.997E-02:-9.367E-09:1.228E-01:0:0:0:0:0:5AA5:Probed at Torino, Iref = 3.93355e-06 with trim bits 7:No loaded to any board yet
TSMC_N2WX39-11B0:TSMC_N2WX39-11B0_8_3:8:3:10:red:4:10:Torino:0:0:0:none:Torino:0:0:0:0:0:0:0:0:0:0.000E+00:0.000E+00:0.000E+00:0.000E+00:0:0:0:0:0:5A83:Probed at Torino, Iref = 0 with trim bits 0:No loaded to any board yet
TSMC_N2WX39-11B0:TSMC_N2WX39-11B0_7_3:7:3:10:red:4:10:Torino:0:0:0:none:Torino:4.036664e-06:9:1.23252:10:1.284666:1:0.8338851:2:0:-5.767E-10:7.603E-02:-6.933E-09:1.159E-01:0:0:0:0:0:5A73:Probed at Torino, Iref = 4.036664e-06 with trim bits 9:No loaded to any board yet
TSMC_N2WX39-11B0:TSMC_N2WX39-11B0_4_3:4:3:10:red:4:10:Torino:0:0:0:none:Torino:4.039559e-06:9:1.205972:22:1.20312:20:0.8965946:11:0:2.180E-08:6.700E-01:-8.493E-08:1.221E-01:0:0:0:0:0:5A43:Probed at Torino, Iref = 4.039559e-06 with trim bits 9:No loaded to any board yet
TSMC_N2WX39-11B0:TSMC_N2WX39-11B0_1_6:1:6:2:green:4:2:Torino:0:0:0:none:Torino:4.035654e-06:6:1.196694:21:1.20266:21:0.8976842:11:0:8.093E-09:8.073E-02:-2.600E-09:1.235E-01:0:0:0:0:0:5A16:Probed at Torino, Iref = 4.035654e-06 with trim bits 6:No loaded to any board yet
TSMC_N2WX39-11B0:TSMC_N2WX39-11B0_2_3:2:3:10:red:4:10:Torino:0:0:0:none:Torino:0:0:0:0:0:0:0:0:0:0.000E+00:0.000E+00:0.000E+00:0.000E+00:0:0:0:0:0:5A23:Probed at Torino, Iref = 0 with trim bits 0:No loaded to any board yet
TSMC_N2WX39-11B0:TSMC_N2WX39-11B0_8_2:8:2:1:yellow:4:1:Torino:0:0:0:none:Torino:3.990771e-06:9:1.205076:28:1.208563:24:0.8980945:11:0:-9.733E-10:8.457E-02:4.833E-09:1.268E-01:0:0:0:0:0:5A82:Probed at Torino, Iref = 3.990771e-06 with trim bits 9:No loaded to any board yet
TSMC_N2WX39-11B0:TSMC_N2WX39-11B0_3_3:3:3:10:red:4:10:Torino:0:0:0:none:Torino:0:0:0:0:0:0:0:0:0:0.000E+00:0.000E+00:0.000E+00:0.000E+00:0:0:0:0:0:5A33:Probed at Torino, Iref = 0 with trim bits 0:No loaded to any board yet
TSMC_N2WX39-11B0:TSMC_N2WX39-11B0_5_3:5:3:10:red:4:10:Torino:0:0:0:none:Torino:0:0:0:0:0:0:0:0:0:0.000E+00:0.000E+00:0.000E+00:0.000E+00:0:0:0:0:0:5A53:Probed at Torino, Iref = 0 with trim bits 0:No loaded to any board yet
TSMC_N2WX39-11B0:TSMC_N2WX39-11B0_6_1:6:1:2:green:4:2:Torino:0:0:0:none:Torino:3.960603e-06:8:1.211804:24:1.199157:19:0.8977761:9:0:-6.630E-09:8.682E-02:1.530E-08:1.289E-01:0:0:0:0:0:5A61:Probed at Torino, Iref = 3.960603e-06 with trim bits 8:No loaded to any board yet
TSMC_N2WX39-11B0:TSMC_N2WX39-11B0_6_3:6:3:2:green:4:2:Torino:0:0:0:none:Torino:3.993018e-06:11:1.212354:24:1.207702:20:0.8983093:10:0:8.333E-11:8.134E-02:2.167E-09:1.240E-01:0:0:0:0:0:5A63:Probed at Torino, Iref = 3.993018e-06 with trim bits 11:No loaded to any board yet
TSMC_N2WX39-11B0:TSMC_N2WX39-11B0_1_8:1:8:1:yellow:4:1:Torino:0:0:0:none:Torino:4.025166e-06:6:1.203259:21:1.194612:23:0.8981658:10:0:5.213E-09:7.949E-02:-3.333E-10:1.222E-01:0:0:0:0:0:5A18:Probed at Torino, Iref = 4.025166e-06 with trim bits 6:No loaded to any board yet
TSMC_N2WX39-11B0:TSMC_N2WX39-11B0_9_3:9:3:2:green:4:2:Torino:0:0:0:none:Torino:4.049814e-06:7:1.197454:24:1.198615:22:0.8989855:8:0:6.627E-09:8.163E-02:-9.867E-09:1.244E-01:0:0:0:0:0:5A93:Probed at Torino, Iref = 4.049814e-06 with trim bits 7:No loaded to any board yet
TSMC_N2WX39-11B0:TSMC_N2WX39-11B0_9_4:9:4:2:green:4:2:Torino:0:0:0:none:Torino:4.009393e-06:9:1.200273:24:1.196464:19:0.8965583:13:0:8.730E-09:8.439E-02:1.667E-10:1.266E-01:0:0:0:0:0:5A94:Probed at Torino, Iref = 4.009393e-06 with trim bits 9:No loaded to any board yet
TSMC_N2WX39-11B0:TSMC_N2WX39-11B0_7_2:7:2:2:green:4:2:Torino:0:0:0:none:Torino:4.044783e-06:10:1.203623:27:1.203665:16:0.9017323:10:0:6.837E-09:8.613E-02:-7.833E-09:1.286E-01:0:0:0:0:0:5A72:Probed at Torino, Iref = 4.044783e-06 with trim bits 10:No loaded to any board yet
TSMC_N2WX39-11B0:TSMC_N2WX39-11B0_4_2:4:2:10:red:4:10:Torino:0:0:0:none:Torino:3.865894e-06:15:1.195976:23:1.209766:24:0.8992931:11:0:5.757E-09:8.674E-02:2.533E-09:1.288E-01:0:0:0:0:0:5A42:Probed at Torino, Iref = 3.865894e-06 with trim bits 15:No loaded to any board yet
TSMC_N2WX39-11B0:TSMC_N2WX39-11B0_5_1:5:1:2:green:4:2:Torino:0:0:0:none:Torino:4.046697e-06:7:1.20116:22:1.194766:23:0.9023722:14:0:8.667E-09:8.773E-02:-4.000E-10:1.297E-01:0:0:0:0:0:5A51:Probed at Torino, Iref = 4.046697e-06 with trim bits 7:No loaded to any board yet
TSMC_N2WX39-11B0:TSMC_N2WX39-11B0_5_2:5:2:2:green:4:2:Torino:0:0:0:none:Torino:4.038834e-06:8:1.19711:23:1.198317:20:0.8982117:11:0:-3.080E-09:8.443E-02:8.962E-07:3.149E-01:0:0:0:0:0:5A52:Probed at Torino, Iref = 4.038834e-06 with trim bits 8:No loaded to any board yet
TSMC_N2WX39-11B0:TSMC_N2WX39-11B0_9_9:9:9:1:yellow:4:1:Torino:0:0:0:none:Torino:4.060389e-06:6:1.200103:21:1.203982:17:0.8977579:9:0:2.107E-09:8.394E-02:2.967E-09:1.262E-01:0:0:0:0:0:5A99:Probed at Torino, Iref = 4.060389e-06 with trim bits 6:No loaded to any board yet
TSMC_N2WX39-11B0:TSMC_N2WX39-11B0_5_11:5:11:2:green:4:2:Torino:0:0:0:none:Torino:4.025526e-06:9:1.202286:26:1.194247:23:0.9033015:10:0:1.145E-08:8.611E-02:-6.333E-10:1.285E-01:0:0:0:0:0:5A5B:Probed at Torino, Iref = 4.025526e-06 with trim bits 9:No loaded to any board yet
TSMC_N2WX39-11B0:TSMC_N2WX39-11B0_7_9:7:9:2:green:4:2:Torino:0:0:0:none:Torino:4.062115e-06:8:1.195457:25:1.203276:17:0.8988043:8:0:5.453E-09:8.238E-02:-4.367E-09:1.248E-01:0:0:0:0:0:5A79:Probed at Torino, Iref = 4.062115e-06 with trim bits 8:No loaded to any board yet
TSMC_N2WX39-11B0:TSMC_N2WX39-11B0_7_11:7:11:2:green:4:2:Torino:0:0:0:none:Torino:3.986828e-06:7:1.200005:27:1.198318:18:0.9039054:12:0:-5.900E-10:7.785E-02:-1.900E-09:1.211E-01:0:0:0:0:0:5A7B:Probed at Torino, Iref = 3.986828e-06 with trim bits 7:No loaded to any board yet
TSMC_N2WX39-11B0:TSMC_N2WX39-11B0_8_5:8:5:2:green:4:2:Torino:0:0:0:none:Torino:3.945537e-06:8:1.197618:17:1.206084:24:0.8987294:10:0:1.700E-08:4.533E-01:-3.029E-07:1.327E-01:0:0:0:0:0:5A85:Probed at Torino, Iref = 3.945537e-06 with trim bits 8:No loaded to any board yet
TSMC_N2WX39-11B0:TSMC_N2WX39-11B0_4_11:4:11:2:green:4:2:Torino:0:0:0:none:Torino:3.981822e-06:8:1.208949:24:1.201614:19:0.9021178:12:0:-3.020E-09:7.693E-02:-6.400E-09:1.202E-01:0:0:0:0:0:5A4B:Probed at Torino, Iref = 3.981822e-06 with trim bits 8:No loaded to any board yet
