%CMSwaferCode:CMSchipCode:ChipColumn:ChipRow:Grading:Color:CutVersion:Status:Location:ChipBoardType:BoardNumber:Dose:Sensor:ProbingSite:Iref:IrefTrim:Vref_A:Vref_A_Trim:Vref_D:Vref_D_Trim:Vref_ADC:Vref_ADC_Trim:MON_ADC_Trim:VCAL_HIGH_slope:VCAL_HIGH_offset:VCAL_MED_slope:VCAL_MED_offset:TrefTsensors:Nf1:Nf2:Nf3:Nf4:RD53chipID:Comment:BoardComment:
TSMC_N2WX39-18E0:TSMC_N2WX39-18E0_3_10:3:10:1:yellow:4:1:Torino:0:0:0:none:Torino:4.026459e-06:6:1.203038:28:1.197498:19:0.8995662:11:0:-4.770E-09:8.018E-02:-1.023E-08:1.230E-01:0:0:0:0:0:613A:Probed at Torino, Iref = 4.026459e-06 with trim bits 6:No loaded to any board yet
TSMC_N2WX39-18E0:TSMC_N2WX39-18E0_7_12:7:12:1:yellow:4:1:Torino:0:0:0:none:Torino:3.992554e-06:7:1.203713:23:1.198342:21:0.9000757:8:0:2.082E-04:1.782E-02:2.096E-04:1.756E-02:0:0:0:0:0:617C:Probed at Torino, Iref = 3.992554e-06 with trim bits 7:No loaded to any board yet
TSMC_N2WX39-18E0:TSMC_N2WX39-18E0_4_12:4:12:1:yellow:4:1:Torino:0:0:0:none:Torino:4.043808e-06:9:1.207024:26:1.209162:16:0.8997815:11:0:6.317E-09:7.504E-02:-6.467E-09:1.344E-01:0:0:0:0:0:614C:Probed at Torino, Iref = 4.043808e-06 with trim bits 9:No loaded to any board yet
TSMC_N2WX39-18E0:TSMC_N2WX39-18E0_6_12:6:12:2:green:4:2:Torino:0:0:0:none:Torino:3.972717e-06:8:1.203981:26:1.198498:16:0.8972345:7:0:4.220E-09:7.991E-02:2.500E-09:1.226E-01:0:0:0:0:0:616C:Probed at Torino, Iref = 3.972717e-06 with trim bits 8:No loaded to any board yet
TSMC_N2WX39-18E0:TSMC_N2WX39-18E0_8_9:8:9:2:green:4:2:Torino:0:0:0:none:Torino:4.000278e-06:8:1.206517:28:1.194937:17:0.899599:10:0:4.653E-09:8.378E-02:-9.800E-09:1.264E-01:0:0:0:0:0:6189:Probed at Torino, Iref = 4.000278e-06 with trim bits 8:No loaded to any board yet
TSMC_N2WX39-18E0:TSMC_N2WX39-18E0_5_12:5:12:1:yellow:4:1:Torino:0:0:0:none:Torino:4.001914e-06:8:1.205059:29:1.198485:22:0.902041:8:0:-2.200E-10:7.855E-02:-3.100E-09:1.215E-01:0:0:0:0:0:615C:Probed at Torino, Iref = 4.001914e-06 with trim bits 8:No loaded to any board yet
TSMC_N2WX39-18E0:TSMC_N2WX39-18E0_3_11:3:11:2:green:4:2:Torino:0:0:0:none:Torino:4.024496e-06:7:1.199038:23:1.200167:20:0.89796:8:0:7.673E-09:7.820E-02:3.867E-09:1.212E-01:0:0:0:0:0:613B:Probed at Torino, Iref = 4.024496e-06 with trim bits 7:No loaded to any board yet
TSMC_N2WX39-18E0:TSMC_N2WX39-18E0_5_11:5:11:1:yellow:4:1:Torino:0:0:0:none:Torino:4.038478e-06:8:1.203455:29:1.201382:18:0.8959184:11:0:3.900E-09:8.310E-02:1.567E-09:1.256E-01:0:0:0:0:0:615B:Probed at Torino, Iref = 4.038478e-06 with trim bits 8:No loaded to any board yet
TSMC_N2WX39-18E0:TSMC_N2WX39-18E0_7_11:7:11:1:yellow:4:1:Torino:0:0:0:none:Torino:4.023585e-06:6:1.201822:26:1.207077:20:0.8991619:10:0:2.071E-04:2.233E-02:2.088E-04:2.191E-02:0:0:0:0:0:617B:Probed at Torino, Iref = 4.023585e-06 with trim bits 6:No loaded to any board yet
TSMC_N2WX39-18E0:TSMC_N2WX39-18E0_6_11:6:11:2:green:4:2:Torino:0:0:0:none:Torino:3.955234e-06:8:1.198248:26:1.196075:22:0.9004254:11:0:-2.833E-10:7.652E-02:1.407E-08:1.196E-01:0:0:0:0:0:616B:Probed at Torino, Iref = 3.955234e-06 with trim bits 8:No loaded to any board yet
TSMC_N2WX39-18E0:TSMC_N2WX39-18E0_8_11:8:11:2:green:4:2:Torino:0:0:0:none:Torino:3.947126e-06:7:1.202956:25:1.19922:21:0.8953484:11:0:-4.687E-09:8.035E-02:9.433E-09:1.228E-01:0:0:0:0:0:618B:Probed at Torino, Iref = 3.947126e-06 with trim bits 7:No loaded to any board yet
TSMC_N2WX39-18E0:TSMC_N2WX39-18E0_9_10:9:10:2:green:4:2:Torino:0:0:0:none:Torino:4.052815e-06:9:1.200149:23:1.210651:16:0.899825:11:0:7.117E-09:8.261E-02:1.033E-09:1.252E-01:0:0:0:0:0:619A:Probed at Torino, Iref = 4.052815e-06 with trim bits 9:No loaded to any board yet
TSMC_N2WX39-18E0:TSMC_N2WX39-18E0_8_10:8:10:2:green:4:2:Torino:0:0:0:none:Torino:3.99027e-06:7:1.19663:24:1.199046:21:0.8994839:9:0:4.990E-09:8.587E-02:2.333E-10:1.281E-01:0:0:0:0:0:618A:Probed at Torino, Iref = 3.99027e-06 with trim bits 7:No loaded to any board yet
TSMC_N2WX39-18E0:TSMC_N2WX39-18E0_5_10:5:10:2:green:4:2:Torino:0:0:0:none:Torino:4.002672e-06:8:1.192833:23:1.203675:18:0.8983508:11:0:1.047E-09:8.240E-02:7.267E-09:1.249E-01:0:0:0:0:0:615A:Probed at Torino, Iref = 4.002672e-06 with trim bits 8:No loaded to any board yet
TSMC_N2WX39-18E0:TSMC_N2WX39-18E0_7_10:7:10:2:green:4:2:Torino:0:0:0:none:Torino:3.939763e-06:7:1.1951:25:1.193249:19:0.8994728:11:0:7.300E-09:8.349E-02:-1.447E-08:1.259E-01:0:0:0:0:0:617A:Probed at Torino, Iref = 3.939763e-06 with trim bits 7:No loaded to any board yet
TSMC_N2WX39-18E0:TSMC_N2WX39-18E0_4_10:4:10:2:green:4:2:Torino:0:0:0:none:Torino:3.984776e-06:7:1.197997:25:1.206481:20:0.9005389:11:0:1.027E-08:8.044E-02:5.433E-09:1.235E-01:0:0:0:0:0:614A:Probed at Torino, Iref = 3.984776e-06 with trim bits 7:No loaded to any board yet
TSMC_N2WX39-18E0:TSMC_N2WX39-18E0_8_7:8:7:10:red:4:10:Torino:0:0:0:none:Torino:4.042954e-06:12:1.195319:30:1.196903:17:0.8998064:11:0:-1.110E-09:8.474E-02:4.367E-09:1.268E-01:0:0:0:0:0:6187:Probed at Torino, Iref = 4.042954e-06 with trim bits 12:No loaded to any board yet
TSMC_N2WX39-18E0:TSMC_N2WX39-18E0_6_9:6:9:2:green:4:2:Torino:0:0:0:none:Torino:4.010095e-06:9:1.206581:28:1.202815:18:0.9024516:6:0:-1.172E-08:8.280E-02:-5.200E-09:1.256E-01:0:0:0:0:0:6169:Probed at Torino, Iref = 4.010095e-06 with trim bits 9:No loaded to any board yet
TSMC_N2WX39-18E0:TSMC_N2WX39-18E0_2_10:2:10:2:green:4:2:Torino:0:0:0:none:Torino:4.007587e-06:8:1.192742:23:1.198595:18:0.9036281:8:0:-2.350E-09:7.881E-02:9.667E-10:1.220E-01:0:0:0:0:0:612A:Probed at Torino, Iref = 4.007587e-06 with trim bits 8:No loaded to any board yet
TSMC_N2WX39-18E0:TSMC_N2WX39-18E0_2_9:2:9:2:green:4:2:Torino:0:0:0:none:Torino:3.954177e-06:6:1.19586:24:1.207719:24:0.899093:9:0:3.517E-08:6.021E-01:-6.510E-08:1.197E-01:0:0:0:0:0:6129:Probed at Torino, Iref = 3.954177e-06 with trim bits 6:No loaded to any board yet
TSMC_N2WX39-18E0:TSMC_N2WX39-18E0_10_9:10:9:10:red:4:10:Torino:0:0:0:none:Torino:0:0:0:0:0:0:0:0:0:0.000E+00:0.000E+00:0.000E+00:0.000E+00:0:0:0:0:0:61A9:Probed at Torino, Iref = 0 with trim bits 0:No loaded to any board yet
TSMC_N2WX39-18E0:TSMC_N2WX39-18E0_3_9:3:9:2:green:4:2:Torino:0:0:0:none:Torino:3.987186e-06:8:1.193805:23:1.196466:23:0.8981027:9:0:-2.887E-09:8.305E-02:1.073E-08:1.254E-01:0:0:0:0:0:6139:Probed at Torino, Iref = 3.987186e-06 with trim bits 8:No loaded to any board yet
TSMC_N2WX39-18E0:TSMC_N2WX39-18E0_6_8:6:8:10:red:4:10:Torino:0:0:0:none:Torino:0:0:0:0:0:0:0:0:0:0.000E+00:0.000E+00:0.000E+00:0.000E+00:0:0:0:0:0:6168:Probed at Torino, Iref = 0 with trim bits 0:No loaded to any board yet
TSMC_N2WX39-18E0:TSMC_N2WX39-18E0_7_9:7:9:2:green:4:2:Torino:0:0:0:none:Torino:4.027227e-06:9:1.19599:22:1.200988:19:0.9039438:8:0:4.307E-09:8.276E-02:-5.700E-09:1.256E-01:0:0:0:0:0:6179:Probed at Torino, Iref = 4.027227e-06 with trim bits 9:No loaded to any board yet
TSMC_N2WX39-18E0:TSMC_N2WX39-18E0_7_8:7:8:2:green:4:2:Torino:0:0:0:none:Torino:3.965019e-06:7:1.199326:25:1.205286:18:0.8940027:7:0:1.970E-09:8.272E-02:5.667E-10:1.250E-01:0:0:0:0:0:6178:Probed at Torino, Iref = 3.965019e-06 with trim bits 7:No loaded to any board yet
TSMC_N2WX39-18E0:TSMC_N2WX39-18E0_9_9:9:9:2:green:4:2:Torino:0:0:0:none:Torino:3.988182e-06:10:1.18761:23:1.199718:19:0.9002748:10:0:3.067E-10:8.326E-02:-8.333E-10:1.258E-01:0:0:0:0:0:6199:Probed at Torino, Iref = 3.988182e-06 with trim bits 10:No loaded to any board yet
TSMC_N2WX39-18E0:TSMC_N2WX39-18E0_9_7:9:7:2:green:4:2:Torino:0:0:0:none:Torino:4.000146e-06:8:1.200016:27:1.205701:22:0.8996338:9:0:-1.682E-08:8.799E-02:-4.900E-09:1.300E-01:0:0:0:0:0:6197:Probed at Torino, Iref = 4.000146e-06 with trim bits 8:No loaded to any board yet
TSMC_N2WX39-18E0:TSMC_N2WX39-18E0_3_8:3:8:2:green:4:2:Torino:0:0:0:none:Torino:4.042463e-06:8:1.202266:26:1.191538:19:0.8992468:11:0:1.187E-09:8.242E-02:-5.933E-09:1.249E-01:0:0:0:0:0:6138:Probed at Torino, Iref = 4.042463e-06 with trim bits 8:No loaded to any board yet
TSMC_N2WX39-18E0:TSMC_N2WX39-18E0_3_7:3:7:2:green:4:2:Torino:0:0:0:none:Torino:3.983755e-06:9:1.195353:23:1.202398:19:0.9019505:9:0:7.133E-09:8.310E-02:7.767E-09:1.257E-01:0:0:0:0:0:6137:Probed at Torino, Iref = 3.983755e-06 with trim bits 9:No loaded to any board yet
TSMC_N2WX39-18E0:TSMC_N2WX39-18E0_8_8:8:8:1:yellow:4:1:Torino:0:0:0:none:Torino:4.026205e-06:8:1.194291:25:1.20041:14:0.8986843:9:0:-3.820E-09:8.510E-02:-3.367E-09:1.273E-01:0:0:0:0:0:6188:Probed at Torino, Iref = 4.026205e-06 with trim bits 8:No loaded to any board yet
TSMC_N2WX39-18E0:TSMC_N2WX39-18E0_5_8:5:8:2:green:4:2:Torino:0:0:0:none:Torino:3.982342e-06:8:1.196013:20:1.197903:21:0.9025831:8:0:4.950E-09:8.579E-02:4.833E-09:1.282E-01:0:0:0:0:0:6158:Probed at Torino, Iref = 3.982342e-06 with trim bits 8:No loaded to any board yet
TSMC_N2WX39-18E0:TSMC_N2WX39-18E0_10_6:10:6:2:green:4:2:Torino:0:0:0:none:Torino:4.035927e-06:9:1.192938:27:1.202802:20:0.9001422:11:0:6.607E-09:8.136E-02:-2.133E-09:1.243E-01:0:0:0:0:0:61A6:Probed at Torino, Iref = 4.035927e-06 with trim bits 9:No loaded to any board yet
TSMC_N2WX39-18E0:TSMC_N2WX39-18E0_5_7:5:7:2:green:4:2:Torino:0:0:0:none:Torino:3.936573e-06:7:1.198481:25:1.200928:18:0.8973619:11:0:5.407E-09:8.250E-02:-3.600E-09:1.251E-01:0:0:0:0:0:6157:Probed at Torino, Iref = 3.936573e-06 with trim bits 7:No loaded to any board yet
TSMC_N2WX39-18E0:TSMC_N2WX39-18E0_10_8:10:8:2:green:4:2:Torino:0:0:0:none:Torino:4.000166e-06:10:1.204683:29:1.191132:15:0.9034787:10:0:8.200E-10:8.372E-02:-3.867E-09:1.263E-01:0:0:0:0:0:61A8:Probed at Torino, Iref = 4.000166e-06 with trim bits 10:No loaded to any board yet
TSMC_N2WX39-18E0:TSMC_N2WX39-18E0_2_8:2:8:2:green:4:2:Torino:0:0:0:none:Torino:3.941387e-06:7:1.195468:27:1.197662:19:0.901139:10:0:2.080E-04:1.985E-02:2.095E-04:1.939E-02:0:0:0:0:0:6128:Probed at Torino, Iref = 3.941387e-06 with trim bits 7:No loaded to any board yet
TSMC_N2WX39-18E0:TSMC_N2WX39-18E0_2_7:2:7:2:green:4:2:Torino:0:0:0:none:Torino:4.041496e-06:9:1.197397:26:1.194246:19:0.9002192:12:0:1.450E-08:8.538E-02:-4.400E-09:1.278E-01:0:0:0:0:0:6127:Probed at Torino, Iref = 4.041496e-06 with trim bits 9:No loaded to any board yet
TSMC_N2WX39-18E0:TSMC_N2WX39-18E0_7_6:7:6:2:green:4:2:Torino:0:0:0:none:Torino:3.998086e-06:8:1.212295:24:1.195619:17:0.8981302:8:0:7.947E-09:8.727E-02:4.533E-09:1.292E-01:0:0:0:0:0:6176:Probed at Torino, Iref = 3.998086e-06 with trim bits 8:No loaded to any board yet
TSMC_N2WX39-18E0:TSMC_N2WX39-18E0_4_5:4:5:1:yellow:4:1:Torino:0:0:0:none:Torino:3.989056e-06:7:1.204153:26:1.195843:22:0.8969944:11:0:8.177E-09:8.835E-02:2.143E-08:1.301E-01:0:0:0:0:0:6145:Probed at Torino, Iref = 3.989056e-06 with trim bits 7:No loaded to any board yet
TSMC_N2WX39-18E0:TSMC_N2WX39-18E0_4_7:4:7:2:green:4:2:Torino:0:0:0:none:Torino:4.004192e-06:8:1.203187:22:1.191547:23:0.9014562:9:0:8.990E-09:8.460E-02:-2.000E-09:1.271E-01:0:0:0:0:0:6147:Probed at Torino, Iref = 4.004192e-06 with trim bits 8:No loaded to any board yet
TSMC_N2WX39-18E0:TSMC_N2WX39-18E0_6_7:6:7:1:yellow:4:1:Torino:0:0:0:none:Torino:3.964448e-06:8:1.200629:20:1.198884:16:0.9014388:10:0:3.530E-09:8.252E-02:6.367E-09:1.252E-01:0:0:0:0:0:6167:Probed at Torino, Iref = 3.964448e-06 with trim bits 8:No loaded to any board yet
TSMC_N2WX39-18E0:TSMC_N2WX39-18E0_3_3:3:3:10:red:4:10:Torino:0:0:0:none:Torino:0:0:0:0:0:0:0:0:0:0.000E+00:0.000E+00:0.000E+00:0.000E+00:0:0:0:0:0:6133:Probed at Torino, Iref = 0 with trim bits 0:No loaded to any board yet
TSMC_N2WX39-18E0:TSMC_N2WX39-18E0_9_6:9:6:1:yellow:4:1:Torino:0:0:0:none:Torino:4.006242e-06:10:1.206648:20:1.199148:20:0.8990825:11:0:8.267E-10:8.361E-02:3.333E-09:1.261E-01:0:0:0:0:0:6196:Probed at Torino, Iref = 4.006242e-06 with trim bits 10:No loaded to any board yet
TSMC_N2WX39-18E0:TSMC_N2WX39-18E0_7_7:7:7:2:green:4:2:Torino:0:0:0:none:Torino:3.999482e-06:6:1.20432:22:1.19709:17:0.9016309:11:0:8.367E-09:8.093E-02:8.067E-09:1.238E-01:0:0:0:0:0:6177:Probed at Torino, Iref = 3.999482e-06 with trim bits 6:No loaded to any board yet
TSMC_N2WX39-18E0:TSMC_N2WX39-18E0_8_6:8:6:1:yellow:4:1:Torino:0:0:0:none:Torino:3.972286e-06:9:1.198717:20:1.192145:15:0.8983125:8:0:-5.433E-10:9.641E-02:2.829E-07:2.475E-01:0:0:0:0:0:6186:Probed at Torino, Iref = 3.972286e-06 with trim bits 9:No loaded to any board yet
TSMC_N2WX39-18E0:TSMC_N2WX39-18E0_3_6:3:6:2:green:4:2:Torino:0:0:0:none:Torino:3.950256e-06:6:1.201563:25:1.200582:21:0.9008682:10:0:-5.030E-09:8.309E-02:-9.000E-09:1.257E-01:0:0:0:0:0:6136:Probed at Torino, Iref = 3.950256e-06 with trim bits 6:No loaded to any board yet
TSMC_N2WX39-18E0:TSMC_N2WX39-18E0_2_6:2:6:2:green:4:2:Torino:0:0:0:none:Torino:3.949712e-06:8:1.193684:23:1.19819:24:0.9007068:9:0:6.663E-09:8.197E-02:-3.200E-09:1.246E-01:0:0:0:0:0:6126:Probed at Torino, Iref = 3.949712e-06 with trim bits 8:No loaded to any board yet
TSMC_N2WX39-18E0:TSMC_N2WX39-18E0_10_7:10:7:2:green:4:2:Torino:0:0:0:none:Torino:3.97693e-06:7:1.19761:23:1.187691:15:0.9005113:9:0:7.360E-09:8.051E-02:-1.360E-08:1.235E-01:0:0:0:0:0:61A7:Probed at Torino, Iref = 3.97693e-06 with trim bits 7:No loaded to any board yet
TSMC_N2WX39-18E0:TSMC_N2WX39-18E0_6_6:6:6:2:green:4:2:Torino:0:0:0:none:Torino:4.012981e-06:7:1.199322:20:1.206723:22:0.9004319:9:0:5.913E-09:8.485E-02:-9.900E-09:1.271E-01:0:0:0:0:0:6166:Probed at Torino, Iref = 4.012981e-06 with trim bits 7:No loaded to any board yet
TSMC_N2WX39-18E0:TSMC_N2WX39-18E0_6_5:6:5:1:yellow:4:1:Torino:0:0:0:none:Torino:3.972176e-06:9:1.203305:26:1.197652:21:0.8987646:11:0:4.120E-09:8.862E-02:2.633E-09:1.304E-01:0:0:0:0:0:6165:Probed at Torino, Iref = 3.972176e-06 with trim bits 9:No loaded to any board yet
TSMC_N2WX39-18E0:TSMC_N2WX39-18E0_4_6:4:6:2:green:4:2:Torino:0:0:0:none:Torino:3.930623e-06:5:1.19114:23:1.203043:23:0.8989211:9:0:-2.910E-09:8.255E-02:2.267E-09:1.250E-01:0:0:0:0:0:6146:Probed at Torino, Iref = 3.930623e-06 with trim bits 5:No loaded to any board yet
TSMC_N2WX39-18E0:TSMC_N2WX39-18E0_5_6:5:6:2:green:4:2:Torino:0:0:0:none:Torino:4.018132e-06:9:1.199077:21:1.201068:21:0.8995584:11:0:1.890E-08:8.399E-02:6.833E-09:1.263E-01:0:0:0:0:0:6156:Probed at Torino, Iref = 4.018132e-06 with trim bits 9:No loaded to any board yet
TSMC_N2WX39-18E0:TSMC_N2WX39-18E0_1_6:1:6:10:red:4:10:Torino:0:0:0:none:Torino:0:0:0:0:0:0:0:0:0:0.000E+00:0.000E+00:0.000E+00:0.000E+00:0:0:0:0:0:6116:Probed at Torino, Iref = 0 with trim bits 0:No loaded to any board yet
TSMC_N2WX39-18E0:TSMC_N2WX39-18E0_8_5:8:5:2:green:4:2:Torino:0:0:0:none:Torino:3.989147e-06:7:1.202707:20:1.205565:22:0.9014755:11:0:2.262E-08:8.744E-02:1.917E-08:1.295E-01:0:0:0:0:0:6185:Probed at Torino, Iref = 3.989147e-06 with trim bits 7:No loaded to any board yet
TSMC_N2WX39-18E0:TSMC_N2WX39-18E0_2_5:2:5:2:green:4:2:Torino:0:0:0:none:Torino:3.960733e-06:9:1.199453:25:1.211091:24:0.8990087:9:0:1.183E-09:8.579E-02:-8.133E-09:1.281E-01:0:0:0:0:0:6125:Probed at Torino, Iref = 3.960733e-06 with trim bits 9:No loaded to any board yet
TSMC_N2WX39-18E0:TSMC_N2WX39-18E0_3_5:3:5:2:green:4:2:Torino:0:0:0:none:Torino:4.004908e-06:7:1.205577:22:1.20267:19:0.8994114:9:0:3.780E-09:8.417E-02:6.333E-10:1.267E-01:0:0:0:0:0:6135:Probed at Torino, Iref = 4.004908e-06 with trim bits 7:No loaded to any board yet
TSMC_N2WX39-18E0:TSMC_N2WX39-18E0_4_4:4:4:2:green:4:2:Torino:0:0:0:none:Torino:4.049655e-06:8:1.197827:25:1.20168:22:0.9008079:11:0:9.750E-09:8.356E-02:7.200E-09:1.262E-01:0:0:0:0:0:6144:Probed at Torino, Iref = 4.049655e-06 with trim bits 8:No loaded to any board yet
TSMC_N2WX39-18E0:TSMC_N2WX39-18E0_9_5:9:5:2:green:4:2:Torino:0:0:0:none:Torino:4.044436e-06:9:1.200099:20:1.200652:21:0.9020951:12:0:5.410E-09:8.319E-02:-9.600E-09:1.259E-01:0:0:0:0:0:6195:Probed at Torino, Iref = 4.044436e-06 with trim bits 9:No loaded to any board yet
TSMC_N2WX39-18E0:TSMC_N2WX39-18E0_2_3:2:3:10:red:4:10:Torino:0:0:0:none:Torino:3.945899e-06:6:1.202595:22:1.203045:23:0.9000514:11:0:5.783E-09:8.312E-02:8.233E-09:1.255E-01:0:0:0:0:0:6123:Probed at Torino, Iref = 3.945899e-06 with trim bits 6:No loaded to any board yet
TSMC_N2WX39-18E0:TSMC_N2WX39-18E0_5_5:5:5:2:green:4:2:Torino:0:0:0:none:Torino:4.039825e-06:10:1.196163:25:1.202961:17:0.9021275:10:0:6.627E-09:8.450E-02:1.290E-08:1.271E-01:0:0:0:0:0:6155:Probed at Torino, Iref = 4.039825e-06 with trim bits 10:No loaded to any board yet
TSMC_N2WX39-18E0:TSMC_N2WX39-18E0_3_4:3:4:10:red:4:10:Torino:0:0:0:none:Torino:0:0:0:0:0:0:0:0:0:0.000E+00:0.000E+00:0.000E+00:0.000E+00:0:0:0:0:0:6134:Probed at Torino, Iref = 0 with trim bits 0:No loaded to any board yet
TSMC_N2WX39-18E0:TSMC_N2WX39-18E0_10_5:10:5:1:yellow:4:1:Torino:0:0:0:none:Torino:4.012854e-06:8:1.201752:26:1.198759:16:0.8979429:11:0:2.217E-09:8.073E-02:5.667E-10:1.234E-01:0:0:0:0:0:61A5:Probed at Torino, Iref = 4.012854e-06 with trim bits 8:No loaded to any board yet
TSMC_N2WX39-18E0:TSMC_N2WX39-18E0_6_3:6:3:2:green:4:2:Torino:0:0:0:none:Torino:3.932286e-06:7:1.193276:21:1.200494:17:0.8953646:11:0:2.673E-09:8.179E-02:2.500E-09:1.242E-01:0:0:0:0:0:6163:Probed at Torino, Iref = 3.932286e-06 with trim bits 7:No loaded to any board yet
TSMC_N2WX39-18E0:TSMC_N2WX39-18E0_9_4:9:4:10:red:4:10:Torino:0:0:0:none:Torino:3.95304e-06:6:1.194685:23:1.203822:22:0.8991232:12:0:-2.967E-09:8.234E-02:-1.170E-08:1.251E-01:0:0:0:0:0:6194:Probed at Torino, Iref = 3.95304e-06 with trim bits 6:No loaded to any board yet
TSMC_N2WX39-18E0:TSMC_N2WX39-18E0_6_4:6:4:10:red:4:10:Torino:0:0:0:none:Torino:0:0:0:0:0:0:0:0:0:0.000E+00:0.000E+00:0.000E+00:0.000E+00:0:0:0:0:0:6164:Probed at Torino, Iref = 0 with trim bits 0:No loaded to any board yet
TSMC_N2WX39-18E0:TSMC_N2WX39-18E0_8_4:8:4:2:green:4:2:Torino:0:0:0:none:Torino:4.013949e-06:8:1.196105:23:1.193656:17:0.8951838:11:0:8.147E-09:8.743E-02:-6.467E-09:1.293E-01:0:0:0:0:0:6184:Probed at Torino, Iref = 4.013949e-06 with trim bits 8:No loaded to any board yet
TSMC_N2WX39-18E0:TSMC_N2WX39-18E0_7_5:7:5:2:green:4:2:Torino:0:0:0:none:Torino:4.003571e-06:8:1.195485:25:1.200643:19:0.8953913:11:0:1.340E-09:7.947E-02:-1.033E-09:1.222E-01:0:0:0:0:0:6175:Probed at Torino, Iref = 4.003571e-06 with trim bits 8:No loaded to any board yet
TSMC_N2WX39-18E0:TSMC_N2WX39-18E0_5_4:5:4:2:green:4:2:Torino:0:0:0:none:Torino:3.959372e-06:7:1.201233:24:1.203492:21:0.9013082:11:0:1.070E-09:8.586E-02:1.340E-08:1.281E-01:0:0:0:0:0:6154:Probed at Torino, Iref = 3.959372e-06 with trim bits 7:No loaded to any board yet
TSMC_N2WX39-18E0:TSMC_N2WX39-18E0_7_3:7:3:2:green:4:2:Torino:0:0:0:none:Torino:4.041814e-06:10:1.198902:25:1.202308:16:0.9003863:12:0:1.097E-09:8.396E-02:2.867E-09:1.264E-01:0:0:0:0:0:6173:Probed at Torino, Iref = 4.041814e-06 with trim bits 10:No loaded to any board yet
TSMC_N2WX39-18E0:TSMC_N2WX39-18E0_2_4:2:4:2:green:4:2:Torino:0:0:0:none:Torino:3.957183e-06:6:1.198013:23:1.199688:19:0.9018902:10:0:6.853E-09:8.264E-02:-4.567E-09:1.254E-01:0:0:0:0:0:6124:Probed at Torino, Iref = 3.957183e-06 with trim bits 6:No loaded to any board yet
TSMC_N2WX39-18E0:TSMC_N2WX39-18E0_4_3:4:3:2:green:4:2:Torino:0:0:0:none:Torino:4.027655e-06:7:1.204512:24:1.204345:22:0.9026969:8:0:-5.000E-11:8.656E-02:-1.017E-08:1.290E-01:0:0:0:0:0:6143:Probed at Torino, Iref = 4.027655e-06 with trim bits 7:No loaded to any board yet
TSMC_N2WX39-18E0:TSMC_N2WX39-18E0_4_8:4:8:1:yellow:4:1:Torino:0:0:0:none:Torino:4.017178e-06:8:1.207998:24:1.20121:20:0.9014817:10:0:7.697E-09:8.232E-02:-1.217E-08:1.250E-01:0:0:0:0:0:6148:Probed at Torino, Iref = 4.017178e-06 with trim bits 8:No loaded to any board yet
TSMC_N2WX39-18E0:TSMC_N2WX39-18E0_5_3:5:3:1:yellow:4:1:Torino:0:0:0:none:Torino:3.991117e-06:10:1.192468:27:1.20256:17:0.894976:11:0:3.333E-10:8.408E-02:-1.333E-09:1.263E-01:0:0:0:0:0:6153:Probed at Torino, Iref = 3.991117e-06 with trim bits 10:No loaded to any board yet
TSMC_N2WX39-18E0:TSMC_N2WX39-18E0_4_2:4:2:2:green:4:2:Torino:0:0:0:none:Torino:4.052546e-06:7:1.202547:23:1.207808:24:0.9026047:12:0:9.400E-09:8.030E-02:-1.193E-08:1.234E-01:0:0:0:0:0:6142:Probed at Torino, Iref = 4.052546e-06 with trim bits 7:No loaded to any board yet
TSMC_N2WX39-18E0:TSMC_N2WX39-18E0_8_3:8:3:2:green:4:2:Torino:0:0:0:none:Torino:3.981081e-06:8:1.195895:22:1.191918:23:0.9026952:10:0:1.117E-09:8.360E-02:8.967E-09:1.263E-01:0:0:0:0:0:6183:Probed at Torino, Iref = 3.981081e-06 with trim bits 8:No loaded to any board yet
TSMC_N2WX39-18E0:TSMC_N2WX39-18E0_9_3:9:3:2:green:4:2:Torino:0:0:0:none:Torino:4.007369e-06:7:1.199539:19:1.204821:22:0.8978508:11:0:6.000E-09:8.230E-02:-7.200E-09:1.248E-01:0:0:0:0:0:6193:Probed at Torino, Iref = 4.007369e-06 with trim bits 7:No loaded to any board yet
TSMC_N2WX39-18E0:TSMC_N2WX39-18E0_6_2:6:2:2:green:4:2:Torino:0:0:0:none:Torino:3.944418e-06:9:1.194623:21:1.201827:24:0.9018332:11:0:7.557E-09:8.481E-02:7.800E-09:1.272E-01:0:0:0:0:0:6162:Probed at Torino, Iref = 3.944418e-06 with trim bits 9:No loaded to any board yet
TSMC_N2WX39-18E0:TSMC_N2WX39-18E0_8_2:8:2:1:yellow:4:1:Torino:0:0:0:none:Torino:3.95186e-06:8:1.196277:28:1.206005:20:0.898505:9:0:-1.623E-09:8.252E-02:1.873E-08:1.251E-01:0:0:0:0:0:6182:Probed at Torino, Iref = 3.95186e-06 with trim bits 8:No loaded to any board yet
TSMC_N2WX39-18E0:TSMC_N2WX39-18E0_6_1:6:1:2:green:4:2:Torino:0:0:0:none:Torino:4.045493e-06:7:1.203488:24:1.206587:16:0.9004789:12:0:5.760E-09:8.184E-02:3.567E-09:1.246E-01:0:0:0:0:0:6161:Probed at Torino, Iref = 4.045493e-06 with trim bits 7:No loaded to any board yet
TSMC_N2WX39-18E0:TSMC_N2WX39-18E0_9_8:9:8:2:green:4:2:Torino:0:0:0:none:Torino:4.005441e-06:7:1.204802:22:1.206715:20:0.9014234:11:0:-1.833E-09:8.268E-02:-1.133E-09:1.253E-01:0:0:0:0:0:6198:Probed at Torino, Iref = 4.005441e-06 with trim bits 7:No loaded to any board yet
TSMC_N2WX39-18E0:TSMC_N2WX39-18E0_5_2:5:2:1:yellow:4:1:Torino:0:0:0:none:Torino:4.045055e-06:9:1.206425:24:1.198047:21:0.8964081:11:0:9.187E-09:7.955E-02:1.873E-09:7.023E-02:0:0:0:0:0:6152:Probed at Torino, Iref = 4.045055e-06 with trim bits 9:No loaded to any board yet
TSMC_N2WX39-18E0:TSMC_N2WX39-18E0_1_7:1:7:2:green:4:2:Torino:0:0:0:none:Torino:4.045976e-06:5:1.197658:21:1.206812:24:0.9001383:11:0:3.547E-09:8.119E-02:-9.933E-09:1.240E-01:0:0:0:0:0:6117:Probed at Torino, Iref = 4.045976e-06 with trim bits 5:No loaded to any board yet
TSMC_N2WX39-18E0:TSMC_N2WX39-18E0_1_8:1:8:2:green:4:2:Torino:0:0:0:none:Torino:3.948775e-06:9:1.194046:27:1.203778:21:0.9034168:10:0:5.880E-09:8.058E-02:-7.333E-10:1.235E-01:0:0:0:0:0:6118:Probed at Torino, Iref = 3.948775e-06 with trim bits 9:No loaded to any board yet
TSMC_N2WX39-18E0:TSMC_N2WX39-18E0_4_9:4:9:2:green:4:2:Torino:0:0:0:none:Torino:3.961196e-06:7:1.193128:25:1.200758:17:0.8988814:10:0:5.577E-09:8.248E-02:6.667E-10:1.252E-01:0:0:0:0:0:6149:Probed at Torino, Iref = 3.961196e-06 with trim bits 7:No loaded to any board yet
TSMC_N2WX39-18E0:TSMC_N2WX39-18E0_6_10:6:10:1:yellow:4:1:Torino:0:0:0:none:Torino:4.03755e-06:6:1.199648:21:1.198301:21:0.9003789:8:0:3.420E-09:7.784E-02:-3.800E-09:1.210E-01:0:0:0:0:0:616A:Probed at Torino, Iref = 4.03755e-06 with trim bits 6:No loaded to any board yet
TSMC_N2WX39-18E0:TSMC_N2WX39-18E0_5_9:5:9:10:red:4:10:Torino:0:0:0:none:Torino:3.957366e-06:9:1.290301:23:1.059723:6:0.8293665:4:0:-6.427E-09:7.907E-02:2.290E-08:1.184E-01:0:0:0:0:0:6159:Probed at Torino, Iref = 3.957366e-06 with trim bits 9:No loaded to any board yet
TSMC_N2WX39-18E0:TSMC_N2WX39-18E0_4_11:4:11:1:yellow:4:1:Torino:0:0:0:none:Torino:3.993229e-06:7:1.198656:29:1.198846:25:0.9026486:12:0:2.092E-04:1.344E-02:2.107E-04:1.296E-02:0:0:0:0:0:614B:Probed at Torino, Iref = 3.993229e-06 with trim bits 7:No loaded to any board yet
TSMC_N2WX39-18E0:TSMC_N2WX39-18E0_5_1:5:1:2:green:4:2:Torino:0:0:0:none:Torino:3.985941e-06:7:1.201319:19:1.201557:17:0.8992471:9:0:2.058E-04:2.868E-02:2.073E-04:2.842E-02:0:0:0:0:0:6151:Probed at Torino, Iref = 3.985941e-06 with trim bits 7:No loaded to any board yet
TSMC_N2WX39-18E0:TSMC_N2WX39-18E0_7_4:7:4:2:green:4:2:Torino:0:0:0:none:Torino:3.960949e-06:8:1.187171:23:1.194254:17:0.9005132:13:0:2.076E-04:1.899E-02:2.091E-04:1.835E-02:0:0:0:0:0:6174:Probed at Torino, Iref = 3.960949e-06 with trim bits 8:No loaded to any board yet
TSMC_N2WX39-18E0:TSMC_N2WX39-18E0_7_2:7:2:1:yellow:4:1:Torino:0:0:0:none:Torino:4.020024e-06:8:1.195057:23:1.205425:26:0.8992359:11:0:-2.527E-09:8.374E-02:-5.667E-09:1.261E-01:0:0:0:0:0:6172:Probed at Torino, Iref = 4.020024e-06 with trim bits 8:No loaded to any board yet
